documents/Moby Dick.txt
======================
classifications/Franz Kafka.txt	1.5247024730492327
classifications/Herman Melville.txt	1.9382362696411972
classifications/James Joyce.txt	1.3673681871109242

documents/The Trial.txt
======================
classifications/Franz Kafka.txt	1.8255517800461223
classifications/Herman Melville.txt	1.489485418454495
classifications/James Joyce.txt	1.4494049644021938

Moby Dick: Herman Melville
The Trial: Franz Kafka
