{
	"name": "ARC-MUND-PUB-IIB-25-16",
	"blobs":[[23,778,89,22],[22,778,5,3],[33,759,5,6],[6,725,5,8],[33,716,88,50],[85,701,10,3],[98,700,3,3],[20,687,5,3],[4,686,3,3],[4,682,3,3],[4,678,3,3],[20,642,90,49],[99,624,7,6],[31,577,4,7],[28,572,94,46],[31,572,3,3],[21,516,90,43],[22,516,5,6],[31,500,5,4],[31,484,5,3],[31,465,4,3],[31,459,4,3],[31,455,5,3],[30,451,94,53],[31,451,5,3],[74,444,3,3],[82,441,9,3],[24,410,92,31],[45,402,12,3],[30,402,7,3],[98,377,3,4],[98,371,5,5],[29,333,80,18],[0,317,3,3],[6,309,4,10],[5,298,3,3],[18,265,84,45],[98,236,4,16],[71,235,8,6],[27,194,78,47],[61,183,6,3],[5,180,6,3],[20,153,78,29],[56,144,17,3],[33,144,22,4],[24,144,8,3],[98,119,3,4],[98,115,3,3],[90,108,6,3],[24,55,60,7],[23,28,49,13],[23,18,55,9],[50,14,17,3],[21,14,16,3],[22,9,60,4],[100,1594,4,3],[7,1577,4,3],[81,1572,5,3],[29,1566,62,34],[31,1561,61,3],[37,1554,38,5],[29,1546,15,3],[29,1521,61,14],[19,1515,76,4],[63,1507,14,3],[19,1507,39,3],[61,1493,16,3],[28,1456,85,25],[20,1426,3,3],[53,1413,11,3],[22,1413,15,3],[39,1409,13,5],[94,1372,4,3],[33,1344,5,3],[33,1302,91,45],[33,1302,4,3],[21,1235,94,55],[48,1218,3,4],[33,1207,5,7],[33,1203,4,3],[33,1191,5,4],[33,1173,90,42],[4,1148,3,3],[22,1115,91,46],[34,1062,90,42],[23,1004,84,46],[34,948,89,45],[4,931,3,6],[23,894,86,43],[31,836,92,47],[22,800,88,23],[31,1845,54,7],[52,1813,4,3],[6,1752,4,3],[23,1737,84,70],[19,1726,4,3],[60,1701,36,23],[29,1700,30,26],[94,1647,3,3],[20,1636,64,52],[100,1604,3,20],[29,1600,58,14]],
	"pngs":[
		["pngs/txt/ARC-MUND-PUB-IIB-25-16.00000.png","pngs/opencv/ARC-MUND-PUB-IIB-25-16.00000.png"],
		["pngs/txt/ARC-MUND-PUB-IIB-25-16.00001.png","pngs/opencv/ARC-MUND-PUB-IIB-25-16.00001.png"],
		["pngs/txt/ARC-MUND-PUB-IIB-25-16.00002.png","pngs/opencv/ARC-MUND-PUB-IIB-25-16.00002.png"]
	]
}