{
	"name": "ARC-MUND-PUB-IIB-25-12-1905",
	"blobs":[[74,790,12,3],[22,790,49,10],[15,777,3,4],[101,753,6,3],[28,722,71,48],[1,673,3,3],[1,662,6,9],[73,659,11,3],[22,659,73,54],[50,596,13,3],[27,596,88,54],[1,584,4,3],[75,536,9,3],[24,536,61,50],[91,524,3,3],[28,470,80,56],[22,409,92,52],[33,389,10,9],[47,378,4,3],[30,343,16,8],[32,339,85,61],[24,306,14,16],[22,277,89,53],[18,265,4,3],[26,208,93,51],[1,193,12,5],[1,185,5,3],[1,166,12,8],[33,162,88,36],[0,161,12,3],[1,155,10,3],[35,149,47,12],[0,142,13,10],[28,141,40,6],[21,141,5,3],[0,138,5,3],[76,137,5,3],[43,137,13,3],[39,72,82,56],[24,55,60,8],[78,39,5,3],[27,38,40,6],[30,31,41,6],[23,23,53,6],[39,18,10,3],[49,14,18,3],[20,14,16,3],[21,9,63,4],[15,1,4,3],[26,1590,36,10],[3,1587,8,13],[101,1586,6,4],[28,1578,8,6],[25,1535,8,3],[98,1533,4,4],[24,1532,92,52],[26,1476,65,47],[5,1474,4,5],[24,1414,71,54],[30,1351,83,54],[93,1330,5,3],[27,1292,92,50],[84,1268,3,3],[25,1232,69,51],[20,1207,3,3],[7,1191,3,4],[70,1168,13,3],[22,1168,73,54],[3,1152,4,7],[99,1128,5,9],[97,1119,3,4],[28,1097,92,57],[50,1094,13,3],[7,1094,3,9],[7,1089,3,3],[7,1085,3,3],[22,1040,80,48],[48,976,13,3],[26,976,72,55],[4,949,3,3],[23,915,73,52],[6,872,4,4],[6,858,4,4],[27,854,72,52],[7,839,3,5],[11,822,3,3],[25,800,92,43],[90,2392,4,3],[95,2391,3,7],[95,2366,4,14],[25,2360,64,32],[22,2334,3,3],[23,2305,70,45],[35,2300,5,4],[29,2240,73,56],[94,2196,4,3],[15,2182,3,3],[94,2179,3,3],[21,2176,73,54],[9,2174,3,6],[36,2163,9,3],[22,2161,5,3],[10,2153,4,3],[10,2143,6,6],[32,2111,73,56],[36,2099,8,3],[70,2049,11,3],[21,2049,67,52],[27,1983,86,57],[68,1979,3,3],[70,1923,12,3],[22,1923,67,52],[96,1910,5,4],[3,1871,11,7],[3,1867,3,3],[28,1848,88,64],[3,1848,9,18],[22,1789,86,50],[72,1787,11,3],[43,1787,13,3],[3,1773,3,5],[3,1740,13,9],[3,1731,10,3],[29,1723,66,52],[0,1705,3,3],[22,1660,72,53],[3,1614,6,9],[3,1608,6,5],[27,1600,75,51],[4,1600,6,7],[19,2533,7,10],[21,2513,89,76],[7,2501,6,4],[7,2492,4,3],[4,2466,4,7],[5,2445,4,9],[5,2435,4,7],[21,2428,88,79],[5,2425,4,4],[97,2419,4,3],[32,2401,3,3]],
	"pngs":[
		["pngs/txt/ARC-MUND-PUB-IIB-25-12-1905.00000.png","pngs/opencv/ARC-MUND-PUB-IIB-25-12-1905.00000.png"],
		["pngs/txt/ARC-MUND-PUB-IIB-25-12-1905.00001.png","pngs/opencv/ARC-MUND-PUB-IIB-25-12-1905.00001.png"],
		["pngs/txt/ARC-MUND-PUB-IIB-25-12-1905.00002.png","pngs/opencv/ARC-MUND-PUB-IIB-25-12-1905.00002.png"],
		["pngs/txt/ARC-MUND-PUB-IIB-25-12-1905.00003.png","pngs/opencv/ARC-MUND-PUB-IIB-25-12-1905.00003.png"]
	]
}