{
	"name": "ARC-MUND-PUB-IIB-63-28",
	"blobs":[[39,745,67,38],[20,731,5,3],[81,725,3,3],[80,706,5,4],[17,673,72,60],[66,637,24,3],[38,637,58,25],[34,637,7,3],[35,616,70,20],[68,602,3,3],[20,576,6,3],[17,552,80,48],[68,537,4,4],[35,475,71,61],[17,429,73,36],[20,416,45,12],[36,369,83,37],[38,353,50,14],[52,338,4,4],[89,332,6,3],[20,279,74,55],[18,279,8,3],[71,265,4,3],[24,263,4,4],[40,261,4,4],[34,225,7,3],[35,209,87,54],[17,158,77,40],[65,155,3,3],[70,153,3,3],[65,151,3,3],[57,151,6,3],[26,151,26,6],[21,48,17,3],[20,33,32,9],[40,1592,76,8],[10,1569,7,3],[20,1531,73,51],[37,1512,8,8],[39,1466,7,11],[38,1457,82,64],[62,1413,4,3],[17,1393,75,54],[5,1385,7,3],[82,1384,6,3],[28,1384,7,5],[39,1382,31,6],[29,1380,4,3],[34,1324,87,53],[1,1288,4,3],[19,1265,71,49],[47,1248,5,6],[90,1242,4,4],[83,1241,6,3],[99,1233,4,3],[99,1223,4,3],[87,1208,3,3],[101,1183,4,3],[37,1182,74,62],[29,1168,7,3],[70,1166,3,3],[77,1165,3,3],[21,1162,4,3],[7,1132,4,3],[74,1120,4,3],[22,1108,95,59],[55,1094,4,3],[99,1092,4,4],[100,1085,4,5],[26,1067,3,3],[29,1046,4,3],[37,1031,71,56],[24,1030,4,3],[21,1008,6,3],[1,1000,4,4],[79,996,4,3],[8,995,4,3],[21,986,5,3],[13,976,4,3],[3,963,6,3],[20,954,91,66],[94,941,4,3],[36,892,76,51],[50,879,13,3],[5,873,11,3],[18,836,3,4],[17,830,95,45],[64,826,3,3],[44,825,14,4],[23,825,11,4],[80,802,3,3],[35,1730,3,3],[5,1666,5,3],[13,1663,52,6],[77,1661,6,3],[38,1638,6,3],[39,1622,7,3],[35,1600,77,55],[40,1600,7,4]],
	"pngs":[
		["pngs/txt/ARC-MUND-PUB-IIB-63-28.00000.png","pngs/opencv/ARC-MUND-PUB-IIB-63-28.00000.png"],
		["pngs/txt/ARC-MUND-PUB-IIB-63-28.00001.png","pngs/opencv/ARC-MUND-PUB-IIB-63-28.00001.png"],
		["pngs/txt/ARC-MUND-PUB-IIB-63-28.00002.png","pngs/opencv/ARC-MUND-PUB-IIB-63-28.00002.png"]
	]
}