{
	"name": "ARC-MUND-PUB-UAI-CONGRES-12-PROTECTION-TRAVAILLEURS-1913",
	"blobs":[[101,588,81,49],[19,587,78,51],[106,520,77,47],[18,520,79,47],[106,453,77,47],[18,453,79,47],[106,383,79,49],[19,383,83,48],[105,317,79,44],[18,317,80,45],[19,285,75,10],[105,241,78,55],[19,241,78,44],[105,168,76,52],[19,165,85,55],[19,94,182,51],[19,94,78,44],[17,60,106,14],[17,48,77,11],[17,48,5,3],[40,43,31,3],[17,34,60,8],[13,22,86,10]],
	"pngs":[
		["pngs/txt/ARC-MUND-PUB-UAI-CONGRES-12-PROTECTION-TRAVAILLEURS-1913.00000.png","pngs/opencv/ARC-MUND-PUB-UAI-CONGRES-12-PROTECTION-TRAVAILLEURS-1913.00000.png"]
	]
}