{
	"name": "ARC-MUND-PUB-UAI-CONGRES-60-PUB-INT-ORGANS-1913",
	"blobs":[[102,793,66,7],[24,792,74,8],[26,768,64,3],[24,713,157,57],[22,645,162,47],[21,570,283,54],[21,519,77,29],[75,516,3,3],[21,499,218,50],[20,456,76,17],[23,447,216,31],[21,415,78,38],[101,413,80,33],[100,346,77,46],[20,346,79,46],[100,273,100,50],[21,273,76,50],[21,236,71,16],[21,216,73,19],[99,184,79,68],[21,182,77,33],[98,93,77,68],[20,93,77,68],[17,50,73,22],[25,36,42,13],[13,22,105,12],[128,1598,5,2],[124,1594,10,3],[26,1594,72,6],[26,1547,73,3],[26,1515,156,59],[26,1427,185,67],[26,1353,263,53],[25,1290,70,8],[25,1267,197,64],[27,1242,60,4],[24,1190,156,56],[24,1110,183,59],[23,1067,75,22],[24,1034,151,55],[25,1000,75,13],[25,956,156,57],[101,931,78,4],[26,931,40,4],[24,883,154,47],[43,817,32,3],[24,800,153,62],[29,2045,84,4],[27,1990,77,31],[27,1907,154,62],[27,1823,152,63],[27,1798,204,4],[27,1748,153,49],[27,1666,152,61],[26,1600,151,46]],
	"pngs":[
		["pngs/txt/ARC-MUND-PUB-UAI-CONGRES-60-PUB-INT-ORGANS-1913.00000.png","pngs/opencv/ARC-MUND-PUB-UAI-CONGRES-60-PUB-INT-ORGANS-1913.00000.png"],
		["pngs/txt/ARC-MUND-PUB-UAI-CONGRES-60-PUB-INT-ORGANS-1913.00001.png","pngs/opencv/ARC-MUND-PUB-UAI-CONGRES-60-PUB-INT-ORGANS-1913.00001.png"],
		["pngs/txt/ARC-MUND-PUB-UAI-CONGRES-60-PUB-INT-ORGANS-1913.00002.png","pngs/opencv/ARC-MUND-PUB-UAI-CONGRES-60-PUB-INT-ORGANS-1913.00002.png"]
	]
}