{
	"name": "ARC-MUND-PUB-IIB-25-10-1902",
	"blobs":[[30,768,79,32],[48,767,20,3],[69,698,9,3],[18,697,71,60],[99,655,3,8],[30,630,69,56],[5,592,3,3],[66,569,13,3],[17,569,94,50],[30,508,66,51],[5,456,3,3],[24,431,98,65],[30,361,100,58],[10,319,3,3],[10,315,3,3],[10,301,3,3],[17,298,93,52],[69,293,11,3],[35,293,20,3],[19,279,4,3],[57,273,17,3],[28,252,6,3],[22,222,3,3],[21,213,4,4],[21,208,3,3],[25,194,60,6],[28,170,42,11],[25,155,50,13],[21,155,16,3],[20,148,61,4],[35,75,84,63],[28,57,58,7],[77,49,5,3],[31,39,39,6],[34,33,39,5],[28,22,50,10],[53,18,18,3],[26,18,16,3],[25,12,60,4],[70,1587,12,3],[22,1586,54,14],[24,1526,3,3],[29,1524,69,52],[3,1510,3,3],[4,1493,4,3],[66,1451,13,3],[19,1451,68,60],[4,1445,3,4],[98,1438,4,3],[11,1395,3,6],[29,1386,66,54],[97,1379,4,7],[70,1325,8,3],[16,1325,64,53],[28,1271,80,43],[21,1207,62,53],[75,1189,3,3],[26,1146,91,50],[22,1087,82,48],[26,1026,61,50],[22,961,69,55],[12,948,5,3],[12,942,4,3],[12,934,4,6],[11,928,5,3],[11,923,4,3],[99,906,4,3],[11,903,5,8],[26,889,75,60],[43,885,20,3],[26,885,7,3],[98,878,3,3],[72,833,10,3],[23,833,87,43],[35,800,68,23],[30,2092,59,5],[20,2015,85,37],[21,2009,49,4],[7,1898,3,4],[92,1877,3,3],[71,1861,9,3],[21,1861,56,53],[11,1846,4,4],[101,1826,3,3],[101,1811,3,3],[11,1801,3,5],[11,1794,4,3],[37,1792,86,50],[51,1788,20,3],[61,1779,3,3],[11,1779,3,3],[19,1719,55,59],[29,1658,92,50],[88,1644,3,3],[24,1600,65,48]],
	"pngs":[
		["pngs/txt/ARC-MUND-PUB-IIB-25-10-1902.00000.png","pngs/opencv/ARC-MUND-PUB-IIB-25-10-1902.00000.png"],
		["pngs/txt/ARC-MUND-PUB-IIB-25-10-1902.00001.png","pngs/opencv/ARC-MUND-PUB-IIB-25-10-1902.00001.png"],
		["pngs/txt/ARC-MUND-PUB-IIB-25-10-1902.00002.png","pngs/opencv/ARC-MUND-PUB-IIB-25-10-1902.00002.png"]
	]
}