{
	"name": "ARC-MUND-PUB-IIB-25-8-1902",
	"blobs":[[29,794,82,6],[26,730,97,55],[40,726,21,3],[23,711,7,4],[23,699,6,3],[18,658,98,58],[29,592,92,57],[11,580,3,3],[2,576,5,4],[8,566,4,4],[68,546,4,3],[21,521,69,57],[94,502,5,5],[30,494,10,7],[27,453,71,50],[3,403,3,3],[21,385,95,59],[62,372,3,3],[17,327,3,3],[31,319,8,3],[31,310,89,57],[25,270,6,3],[20,253,102,47],[48,249,12,3],[37,249,10,3],[27,232,60,7],[33,213,35,5],[32,207,39,5],[26,191,51,14],[23,191,16,3],[22,185,61,4],[24,72,86,104],[26,57,58,6],[33,38,35,6],[32,32,38,5],[26,17,50,13],[23,17,16,3],[27,10,56,4],[25,1581,5,6],[31,1550,90,47],[23,1516,8,11],[23,1501,90,40],[32,1476,7,3],[29,1447,92,45],[30,1435,22,3],[0,1435,11,3],[92,1432,5,4],[71,1431,3,3],[92,1417,4,14],[14,1416,3,3],[92,1411,3,3],[4,1410,8,3],[4,1400,4,3],[3,1383,3,3],[3,1377,4,5],[22,1375,88,54],[93,1367,3,3],[4,1367,4,3],[32,1319,88,47],[22,1290,7,3],[22,1284,6,3],[22,1278,7,4],[20,1264,87,46],[32,1238,6,3],[28,1234,7,3],[23,1225,3,3],[28,1203,97,51],[15,1202,4,3],[22,1179,6,3],[22,1173,5,3],[21,1168,5,4],[22,1152,89,42],[17,1152,6,3],[45,1148,12,3],[34,1148,10,3],[31,1110,7,13],[30,1094,86,44],[26,1094,8,3],[21,1035,91,49],[29,995,8,16],[30,985,7,4],[29,978,91,47],[22,915,94,53],[28,858,84,48],[21,832,8,15],[18,800,98,48],[23,2391,9,9],[10,2358,5,3],[19,2357,90,43],[30,2324,6,3],[30,2302,82,46],[23,2265,9,5],[23,2261,8,3],[23,2256,7,3],[23,2247,9,8],[23,2241,90,52],[30,2222,9,9],[30,2192,8,5],[30,2187,6,4],[38,2176,79,55],[17,2126,89,44],[45,2122,12,3],[34,2122,10,3],[19,2102,3,3],[29,2087,9,20],[30,2061,86,50],[20,2041,10,10],[17,2000,93,51],[31,1981,9,8],[31,1950,9,9],[31,1940,9,9],[31,1938,86,52],[91,1923,6,4],[4,1909,3,3],[16,1895,4,3],[4,1867,4,3],[19,1866,94,51],[4,1859,3,4],[25,1858,3,3],[30,1810,91,47],[54,1806,12,3],[42,1806,10,3],[18,1747,4,3],[18,1736,92,60],[30,1716,6,3],[30,1710,9,5],[29,1675,80,51],[42,1671,21,3],[35,1666,3,3],[23,1612,84,51],[77,1600,3,3],[46,3197,6,3],[28,3184,51,12],[65,3160,11,3],[16,3136,3,3],[19,3128,70,47],[31,3106,9,8],[30,3079,6,6],[18,3072,3,3],[54,3063,12,3],[27,3063,98,51],[1,3050,26,3],[7,3027,4,3],[20,2986,95,53],[15,2986,5,3],[55,2967,3,3],[31,2954,6,3],[30,2946,7,5],[30,2931,8,11],[30,2921,8,7],[39,2915,84,47],[20,2884,9,17],[21,2880,7,3],[21,2875,6,3],[21,2869,6,3],[21,2856,8,11],[29,2851,82,54],[11,2838,3,3],[30,2833,7,5],[22,2832,3,3],[30,2814,5,3],[30,2791,89,49],[20,2774,8,7],[21,2750,8,8],[18,2729,98,52],[32,2712,8,6],[8,2708,3,6],[25,2701,3,3],[96,2687,4,3],[27,2679,4,3],[31,2669,87,50],[27,2669,16,12],[98,2663,3,3],[21,2657,3,3],[22,2625,8,9],[22,2620,7,3],[22,2609,83,44],[19,2609,10,6],[45,2605,12,3],[34,2605,10,3],[31,2573,9,11],[31,2546,85,50],[24,2533,3,3],[23,2524,8,3],[22,2512,6,3],[4,2509,3,3],[22,2506,6,5],[17,2478,93,53],[31,2440,9,14],[31,2432,7,5],[31,2425,7,5],[31,2417,86,51],[33,2400,58,6],[23,2400,8,7],[31,3995,51,5],[17,3989,3,3],[72,3988,3,3],[35,3982,4,3],[29,3982,4,3],[24,3982,4,3],[1,3982,12,3],[59,3975,4,4],[31,3950,10,3],[31,3944,9,3],[31,3921,10,7],[31,3917,87,54],[26,3917,12,3],[21,3863,6,3],[20,3854,84,53],[72,3852,3,3],[59,3845,4,4],[20,3817,3,3],[17,3800,3,3],[28,3788,91,53],[22,3743,6,3],[22,3723,89,55],[28,3698,11,12],[28,3691,10,6],[28,3664,87,50],[9,3647,3,3],[22,3631,8,11],[22,3599,9,29],[31,3595,78,48],[31,3562,7,3],[31,3552,6,3],[31,3543,8,5],[30,3529,92,52],[23,3514,8,6],[23,3503,8,10],[13,3500,3,3],[23,3485,9,6],[22,3478,5,3],[23,3467,83,54],[31,3448,9,13],[31,3443,8,3],[31,3438,7,4],[31,3433,6,3],[32,3429,7,3],[35,3414,90,48],[24,3358,91,39],[84,3345,3,3],[25,3293,99,51],[17,3280,3,3],[31,3230,85,49],[27,3219,71,10],[18,3205,3,3],[22,4797,9,3],[20,4790,71,10],[30,4776,10,4],[30,4768,11,5],[29,4730,13,12],[27,4723,70,57],[23,4678,8,3],[23,4665,10,8],[20,4647,90,66],[61,4646,3,3],[23,4626,4,3],[14,4608,4,3],[25,4583,74,55],[21,4564,7,6],[1,4560,4,3],[92,4541,4,3],[28,4523,85,50],[3,4520,3,3],[12,4511,3,3],[29,4501,6,3],[29,4484,8,6],[29,4458,90,51],[22,4441,10,7],[22,4435,9,3],[22,4427,8,5],[22,4420,8,4],[21,4393,81,55],[29,4336,7,4],[29,4329,91,54],[4,4314,3,5],[18,4259,89,57],[30,4234,6,3],[10,4231,3,3],[30,4220,9,10],[30,4213,7,3],[30,4209,6,3],[28,4195,88,55],[32,4182,3,3],[89,4157,3,3],[20,4126,9,7],[20,4121,75,57],[29,4057,14,34],[32,4051,89,60],[20,4034,9,7],[20,4000,84,45],[21,4000,6,3],[21,5568,73,32],[71,5567,10,4],[58,5554,3,3],[18,5553,4,3],[28,5497,89,55],[21,5430,77,57],[31,5411,9,8],[30,5367,71,53],[23,5351,7,3],[23,5316,9,34],[20,5308,13,7],[33,5305,75,53],[32,5251,13,10],[28,5240,83,56],[17,5168,84,62],[31,5155,10,3],[26,5109,90,49],[90,5097,6,3],[60,5097,3,3],[17,5097,3,3],[0,5097,6,3],[12,5096,3,3],[14,5084,4,3],[93,5070,3,3],[21,5065,6,3],[4,5065,4,3],[93,5064,4,5],[4,5048,3,3],[94,5043,7,6],[22,5041,8,11],[20,5035,90,55],[94,5032,5,6],[5,5028,4,3],[31,5009,7,4],[31,4992,6,3],[31,4979,90,49],[20,4922,13,16],[18,4917,90,51],[31,4901,11,6],[31,4897,8,3],[24,4858,4,3],[28,4847,86,60],[22,4800,85,41],[22,4800,8,2],[22,6386,9,4],[23,6381,10,3],[23,6364,10,15],[23,6343,86,49],[46,6339,12,3],[35,6339,10,3],[32,6321,9,3],[32,6285,85,44],[23,6271,9,4],[23,6233,8,3],[23,6223,87,52],[31,6180,7,4],[31,6165,92,47],[55,6160,13,3],[44,6160,10,3],[22,6133,9,16],[22,6113,10,12],[20,6097,12,11],[31,6094,70,55],[8,6044,4,3],[29,6026,89,57],[3,5990,4,3],[22,5966,10,26],[22,5959,90,56],[30,5916,10,14],[27,5897,12,15],[30,5891,84,57],[81,5887,4,4],[22,5876,9,8],[6,5874,3,3],[22,5861,11,9],[23,5845,8,3],[23,5840,8,3],[22,5835,94,50],[29,5816,11,7],[29,5810,6,3],[24,5777,3,3],[25,5770,93,54],[25,5740,7,5],[19,5738,3,3],[24,5728,9,6],[20,5702,13,25],[35,5699,71,60],[10,5686,4,3],[29,5643,9,35],[36,5639,84,49],[41,5635,23,3],[23,5634,3,3],[90,5622,3,3],[32,5600,56,8],[24,5600,7,8],[23,7165,91,35],[31,7104,93,51],[7,7102,3,5],[14,7067,3,3],[86,7052,3,3],[18,7042,99,53],[5,7025,3,3],[4,7019,3,3],[4,7001,4,4],[4,6996,3,3],[29,6975,88,56],[7,6974,4,5],[90,6960,3,3],[91,6933,3,4],[20,6926,6,3],[19,6904,90,54],[92,6889,3,3],[100,6888,3,3],[30,6840,6,3],[25,6824,86,58],[6,6824,5,19],[5,6815,7,8],[0,6812,3,3],[90,6783,3,3],[3,6770,3,3],[17,6752,12,10],[19,6749,77,57],[96,6702,3,3],[28,6685,90,53],[66,6621,11,3],[20,6621,92,53],[29,6586,12,16],[2,6585,10,26],[30,6578,10,6],[4,6577,10,6],[30,6574,9,3],[4,6564,7,12],[30,6561,10,9],[4,6559,4,4],[27,6532,91,70],[42,6530,21,3],[25,6530,9,3],[4,6528,7,10],[23,6512,9,5],[23,6508,9,3],[23,6497,8,10],[30,6465,91,54],[35,6461,21,3],[29,6405,12,5],[31,6403,93,47],[17,7986,79,14],[18,7979,43,4],[22,7853,6,3],[22,7847,6,4],[21,7840,93,48],[31,7820,7,5],[27,7779,96,50],[3,7765,3,3],[22,7754,9,5],[22,7742,6,3],[18,7713,86,48],[95,7699,3,3],[31,7683,10,10],[5,7668,3,3],[31,7666,9,16],[31,7660,6,3],[65,7643,4,3],[31,7643,84,51],[0,7630,3,3],[92,7629,3,3],[6,7628,3,3],[23,7619,6,4],[4,7597,3,3],[22,7590,5,3],[4,7589,4,5],[23,7582,6,3],[22,7568,93,55],[20,7548,4,3],[30,7509,95,49],[42,7504,21,3],[22,7465,10,26],[32,7460,60,30],[29,7434,10,13],[29,7399,6,3],[38,7389,82,58],[25,7389,13,6],[23,7356,8,11],[18,7324,94,52],[46,7321,13,3],[35,7321,10,3],[4,7300,32,8],[5,7295,3,3],[5,7282,5,11],[5,7278,4,3],[4,7273,3,3],[5,7268,4,4],[28,7243,14,14],[28,7241,88,61],[57,7227,6,3],[0,7226,5,3],[85,7225,5,3],[35,7200,57,19],[23,7200,12,19],[31,8123,9,14],[31,8085,6,3],[39,8076,84,61],[26,8076,13,6],[32,8061,58,5],[17,8000,86,22]],
	"pngs":[
		["pngs/txt/ARC-MUND-PUB-IIB-25-8-1902.00000.png","pngs/opencv/ARC-MUND-PUB-IIB-25-8-1902.00000.png"],
		["pngs/txt/ARC-MUND-PUB-IIB-25-8-1902.00001.png","pngs/opencv/ARC-MUND-PUB-IIB-25-8-1902.00001.png"],
		["pngs/txt/ARC-MUND-PUB-IIB-25-8-1902.00002.png","pngs/opencv/ARC-MUND-PUB-IIB-25-8-1902.00002.png"],
		["pngs/txt/ARC-MUND-PUB-IIB-25-8-1902.00003.png","pngs/opencv/ARC-MUND-PUB-IIB-25-8-1902.00003.png"],
		["pngs/txt/ARC-MUND-PUB-IIB-25-8-1902.00004.png","pngs/opencv/ARC-MUND-PUB-IIB-25-8-1902.00004.png"],
		["pngs/txt/ARC-MUND-PUB-IIB-25-8-1902.00005.png","pngs/opencv/ARC-MUND-PUB-IIB-25-8-1902.00005.png"],
		["pngs/txt/ARC-MUND-PUB-IIB-25-8-1902.00006.png","pngs/opencv/ARC-MUND-PUB-IIB-25-8-1902.00006.png"],
		["pngs/txt/ARC-MUND-PUB-IIB-25-8-1902.00007.png","pngs/opencv/ARC-MUND-PUB-IIB-25-8-1902.00007.png"],
		["pngs/txt/ARC-MUND-PUB-IIB-25-8-1902.00008.png","pngs/opencv/ARC-MUND-PUB-IIB-25-8-1902.00008.png"],
		["pngs/txt/ARC-MUND-PUB-IIB-25-8-1902.00009.png","pngs/opencv/ARC-MUND-PUB-IIB-25-8-1902.00009.png"],
		["pngs/txt/ARC-MUND-PUB-IIB-25-8-1902.00010.png","pngs/opencv/ARC-MUND-PUB-IIB-25-8-1902.00010.png"]
	]
}