{
	"name": "ARC-MUND-PUB-BULLETIN-IIB-19-1914",
	"blobs":[[20,722,143,38],[20,701,116,17],[41,694,45,6],[33,694,4,3],[18,624,261,19],[133,621,4,3],[141,618,46,8],[135,613,68,3],[18,598,5,3],[33,590,74,10],[28,590,14,5],[34,582,74,7],[37,582,10,3],[27,582,5,3],[18,578,4,3],[18,574,226,48],[120,570,101,6],[50,455,36,3],[83,450,11,3],[68,450,12,3],[56,450,9,3],[45,450,10,3],[24,450,13,3],[57,446,23,3],[89,445,15,3],[47,420,45,25],[24,413,11,3],[67,411,22,5],[37,411,29,5],[17,400,13,3],[39,392,10,3],[17,392,4,3],[71,301,5,18],[115,300,107,35],[77,299,15,21],[27,298,113,43],[116,291,102,9],[40,291,8,3],[26,291,6,3],[127,256,48,3],[124,250,65,4],[26,249,215,45],[22,108,93,18],[30,86,94,21],[27,76,40,9],[78,75,5,3],[49,68,56,7],[34,1506,57,11],[33,1484,81,21],[33,1480,82,3],[35,1473,81,3],[172,1471,6,3],[120,1425,89,92],[33,1425,83,42],[32,1280,84,23],[32,1241,181,62],[120,1091,86,27],[146,1086,14,3],[130,1078,39,7],[115,938,76,5],[134,927,29,3],[163,910,9,3],[158,910,3,3],[144,910,13,3],[117,910,25,3],[122,897,27,6],[113,890,12,3],[140,888,15,5],[129,883,10,3],[120,2378,84,15],[31,2378,85,22],[32,2237,82,18],[61,2233,3,3],[68,2231,9,3],[119,2230,83,24],[60,2225,9,4],[80,2221,7,4],[42,2220,4,5],[69,2217,8,5],[57,2217,3,3],[69,2211,15,4],[82,2203,3,3],[48,2203,23,3],[39,2203,8,3],[119,2197,84,21],[58,2197,10,3],[120,2071,83,4],[30,2055,79,20],[59,2044,3,3],[77,2022,7,3],[60,2022,6,3],[41,2022,6,3],[73,2017,10,3],[37,2015,31,5],[120,2010,86,60],[56,2010,10,3],[51,1884,28,3],[27,1878,21,5],[59,1877,3,3],[63,1874,22,5],[28,1868,11,7],[62,1862,14,11],[28,1860,18,5],[52,1854,27,3],[28,1850,21,4],[59,1849,3,3],[75,1848,10,3],[28,1840,10,7],[63,1832,23,8],[28,1832,18,5],[120,1830,86,57],[60,1829,4,3],[122,1703,63,3],[32,1691,82,14],[120,1639,86,62],[32,1639,87,51],[32,3096,176,54],[119,2922,88,51],[148,2920,7,3],[144,2920,3,3],[31,2920,87,53],[41,2761,49,19],[41,2759,11,3],[74,2757,27,3],[66,2757,7,3],[35,2756,3,21],[75,2752,14,3],[49,2752,7,3],[31,2752,11,3],[32,2738,178,59],[31,2738,86,21],[32,2584,82,30],[53,2579,27,3],[86,2573,6,3],[32,2573,5,3],[69,2571,16,7],[49,2571,22,7],[38,2571,10,7],[120,2562,87,53],[128,2562,8,3],[139,2559,18,6],[31,2400,85,36],[121,3981,70,19],[32,3981,72,19],[120,3831,74,26],[120,3806,73,24],[32,3806,77,52],[33,3665,78,19],[33,3646,76,16],[83,3638,7,3],[78,3638,4,3],[36,3638,3,3],[40,3636,36,9],[120,3629,78,55],[33,3502,82,4],[145,3453,10,3],[33,3453,175,53],[32,3273,176,57],[34,4701,71,17],[47,4696,35,3],[119,4666,77,52],[33,4665,70,16],[91,4658,3,3],[32,4499,77,42],[119,4498,70,45],[119,4329,76,46],[30,4329,74,46],[120,4158,76,48],[30,4158,75,48],[121,4000,70,35],[31,4000,72,35],[33,5586,85,14],[33,5575,65,9],[82,5571,10,3],[75,5571,5,3],[69,5571,5,3],[52,5571,12,3],[47,5571,4,3],[33,5571,9,3],[122,5562,82,38],[121,5372,88,58],[32,5372,76,67],[121,5209,80,39],[121,5196,79,12],[33,5196,80,53],[120,5023,80,50],[33,5023,76,50],[34,4866,85,35],[60,4862,14,3],[38,4852,4,3],[43,4851,34,10],[120,4841,79,59],[35,6318,175,32],[121,6314,74,9],[158,6311,19,5],[35,6290,83,20],[121,6289,79,24],[120,6117,85,18],[33,6116,168,52],[35,5940,173,53],[35,5939,84,46],[32,5781,79,35],[32,5770,76,10],[32,5759,78,6],[32,5754,75,4],[120,5750,82,65],[32,5738,77,8],[120,5737,73,15],[122,5600,82,15],[32,5600,85,14],[33,7188,78,12],[59,7184,10,3],[128,7183,66,17],[33,7050,84,8],[33,7022,78,27],[56,7017,24,3],[122,7013,78,47],[169,7011,15,4],[92,7006,6,3],[73,7003,17,6],[46,7003,25,6],[34,7003,9,6],[122,6993,77,20],[123,6825,79,26],[34,6823,82,47],[121,6695,78,5],[34,6695,75,4],[121,6651,82,43],[34,6651,79,43],[33,6500,82,29],[59,6496,17,3],[65,6488,15,3],[51,6488,12,3],[43,6488,6,3],[62,6481,23,3],[42,6481,15,3],[37,6481,4,3],[120,6473,84,56],[120,7888,77,54],[34,7888,78,54],[35,7717,81,49],[119,7715,80,51],[36,7549,80,42],[121,7537,83,55],[36,7537,77,11],[121,7399,72,15],[121,7362,77,35],[36,7362,83,52],[120,7200,76,37],[33,7200,84,39],[34,8762,76,38],[120,8761,81,39],[121,8616,79,22],[32,8586,82,53],[121,8582,81,33],[57,8582,10,3],[122,8411,81,48],[32,8411,76,48],[120,8238,78,50],[32,8238,77,50],[120,8065,83,50],[33,8065,80,50],[33,9508,63,6],[119,9459,86,55],[33,9459,76,45],[123,9288,75,47],[34,9288,76,47],[84,9149,12,15],[34,9120,74,44],[34,9115,66,6],[121,9112,79,53],[59,9111,11,3],[122,8935,72,10],[34,8935,167,54],[120,8800,82,13],[34,8800,80,11],[51,10381,42,3],[148,10380,15,3],[134,10380,11,3],[117,10370,90,9],[135,10366,32,3],[77,10319,15,3],[63,10319,12,3],[43,10319,19,3],[38,10319,4,3],[29,10192,98,6],[151,10162,28,12],[119,10154,73,6],[151,10150,9,3],[142,10150,8,3],[137,10150,4,3],[31,10149,6,38],[52,10145,39,4],[36,10145,14,3],[29,10017,98,7],[31,10017,10,3],[119,9976,73,23],[41,9975,4,37],[31,9975,6,37],[48,9971,43,34],[36,9971,14,3],[117,9844,76,6],[118,9838,61,4],[122,9825,15,3],[116,9818,81,17],[35,9815,71,24],[170,9814,10,3],[150,9814,17,3],[134,9814,13,3],[120,9814,11,3],[36,9657,78,35],[120,9653,84,39],[36,9637,171,18],[276,11118,5,4],[287,11114,4,3],[233,11114,33,10],[36,11112,80,8],[59,11108,16,3],[77,11102,16,3],[62,11102,13,3],[54,11102,7,3],[36,11102,15,3],[315,11097,4,3],[126,11090,186,34],[225,11090,3,3],[252,11089,13,3],[280,11087,4,3],[267,11087,4,3],[232,11087,15,12],[221,11086,8,3],[209,11086,11,3],[125,11086,83,13],[273,11084,6,4],[233,11076,32,10],[298,11074,13,3],[205,11072,22,3],[197,11072,7,3],[231,11066,79,18],[125,11065,92,22],[195,11059,13,3],[190,11059,4,3],[252,11057,27,5],[217,11057,32,5],[209,11057,7,5],[162,11057,25,5],[147,11057,7,3],[54,10933,42,4],[44,10931,9,3],[116,10930,20,3],[141,10928,66,8],[142,10920,46,5],[31,10908,109,24],[116,10905,3,3],[79,10898,18,3],[35,10898,25,5],[121,10893,89,17],[131,10889,9,3],[127,10889,3,3],[117,10889,8,3],[35,10889,9,3],[31,10889,3,3],[118,10882,31,6],[47,10882,47,6],[117,10750,87,11],[149,10563,15,3],[140,10563,7,3],[26,10561,113,9],[55,10557,25,3],[68,10527,46,3],[28,10527,35,3],[141,10523,21,3],[81,11996,12,3],[29,11993,16,7],[173,11991,7,3],[157,11991,12,3],[152,11991,4,3],[147,11991,4,3],[131,11991,13,3],[126,11991,4,3],[51,11984,25,3],[28,11973,61,22],[48,11970,53,9],[34,11838,86,9],[34,11791,175,49],[35,11609,173,59],[121,11435,83,52],[35,11435,85,52],[120,11266,102,47],[145,11261,17,3],[154,11257,16,3],[143,11257,9,3],[125,11257,14,3],[120,11249,3,3],[34,12742,175,58],[34,12616,82,3],[33,12571,83,3],[33,12543,184,75],[33,12543,84,23],[122,12391,84,29],[133,12382,48,6],[33,12372,84,16],[121,12199,86,50],[33,12199,83,49],[75,12058,42,8],[28,12053,179,23],[29,12053,6,6],[89,12043,21,13],[120,12042,76,3],[29,12042,6,3],[29,12037,6,3],[120,12030,77,3],[29,12030,6,3],[52,12025,6,3],[29,12025,6,3],[74,12018,125,26],[55,12017,19,3],[31,12017,21,3],[28,12001,192,19],[144,12000,19,2],[30,12000,12,6],[121,13462,82,50],[34,13462,83,50],[123,13288,84,52],[34,13288,84,51],[34,13134,87,32],[122,13130,84,36],[34,13126,77,3],[123,13121,82,11],[36,13117,63,3],[123,13099,87,24],[34,13099,82,17],[122,12926,83,50],[33,12926,85,50],[121,12800,78,4],[35,12800,81,3],[121,14385,84,15],[36,14385,81,15],[158,14216,15,3],[153,14216,4,3],[134,14216,15,3],[36,14205,170,57],[64,14080,3,3],[34,14076,51,3],[121,14073,75,10],[34,14038,176,37],[127,14037,8,3],[34,14007,173,32],[35,13845,84,21],[60,13841,13,3],[76,13833,8,3],[62,13833,9,3],[57,13833,4,3],[44,13833,10,3],[35,13822,173,62],[169,13690,19,3],[35,13688,85,11],[52,13684,33,3],[47,13684,4,3],[121,13635,86,55],[36,13635,83,45],[122,15190,59,10],[123,15177,77,13],[143,15173,24,3],[34,15173,84,27],[32,14979,171,71],[143,14978,23,5],[119,14978,19,5],[33,14853,75,4],[122,14851,72,6],[122,14805,85,47],[122,14762,81,44],[32,14762,81,91],[36,14635,84,4],[35,14565,180,74],[120,14400,86,43],[36,14400,85,43],[31,15511,93,49],[34,15372,52,6],[29,15369,199,74],[176,15368,20,3],[86,15237,15,3],[122,15235,69,11],[51,15220,8,3],[37,15220,9,3],[34,15209,79,38],[122,15200,77,32],[34,15200,84,8]],
	"pngs":[
		["pngs/txt/ARC-MUND-PUB-BULLETIN-IIB-19-1914.00000.png","pngs/opencv/ARC-MUND-PUB-BULLETIN-IIB-19-1914.00000.png"],
		["pngs/txt/ARC-MUND-PUB-BULLETIN-IIB-19-1914.00001.png","pngs/opencv/ARC-MUND-PUB-BULLETIN-IIB-19-1914.00001.png"],
		["pngs/txt/ARC-MUND-PUB-BULLETIN-IIB-19-1914.00002.png","pngs/opencv/ARC-MUND-PUB-BULLETIN-IIB-19-1914.00002.png"],
		["pngs/txt/ARC-MUND-PUB-BULLETIN-IIB-19-1914.00003.png","pngs/opencv/ARC-MUND-PUB-BULLETIN-IIB-19-1914.00003.png"],
		["pngs/txt/ARC-MUND-PUB-BULLETIN-IIB-19-1914.00004.png","pngs/opencv/ARC-MUND-PUB-BULLETIN-IIB-19-1914.00004.png"],
		["pngs/txt/ARC-MUND-PUB-BULLETIN-IIB-19-1914.00005.png","pngs/opencv/ARC-MUND-PUB-BULLETIN-IIB-19-1914.00005.png"],
		["pngs/txt/ARC-MUND-PUB-BULLETIN-IIB-19-1914.00006.png","pngs/opencv/ARC-MUND-PUB-BULLETIN-IIB-19-1914.00006.png"],
		["pngs/txt/ARC-MUND-PUB-BULLETIN-IIB-19-1914.00007.png","pngs/opencv/ARC-MUND-PUB-BULLETIN-IIB-19-1914.00007.png"],
		["pngs/txt/ARC-MUND-PUB-BULLETIN-IIB-19-1914.00008.png","pngs/opencv/ARC-MUND-PUB-BULLETIN-IIB-19-1914.00008.png"],
		["pngs/txt/ARC-MUND-PUB-BULLETIN-IIB-19-1914.00009.png","pngs/opencv/ARC-MUND-PUB-BULLETIN-IIB-19-1914.00009.png"],
		["pngs/txt/ARC-MUND-PUB-BULLETIN-IIB-19-1914.00010.png","pngs/opencv/ARC-MUND-PUB-BULLETIN-IIB-19-1914.00010.png"],
		["pngs/txt/ARC-MUND-PUB-BULLETIN-IIB-19-1914.00011.png","pngs/opencv/ARC-MUND-PUB-BULLETIN-IIB-19-1914.00011.png"],
		["pngs/txt/ARC-MUND-PUB-BULLETIN-IIB-19-1914.00012.png","pngs/opencv/ARC-MUND-PUB-BULLETIN-IIB-19-1914.00012.png"],
		["pngs/txt/ARC-MUND-PUB-BULLETIN-IIB-19-1914.00013.png","pngs/opencv/ARC-MUND-PUB-BULLETIN-IIB-19-1914.00013.png"],
		["pngs/txt/ARC-MUND-PUB-BULLETIN-IIB-19-1914.00014.png","pngs/opencv/ARC-MUND-PUB-BULLETIN-IIB-19-1914.00014.png"],
		["pngs/txt/ARC-MUND-PUB-BULLETIN-IIB-19-1914.00015.png","pngs/opencv/ARC-MUND-PUB-BULLETIN-IIB-19-1914.00015.png"],
		["pngs/txt/ARC-MUND-PUB-BULLETIN-IIB-19-1914.00016.png","pngs/opencv/ARC-MUND-PUB-BULLETIN-IIB-19-1914.00016.png"],
		["pngs/txt/ARC-MUND-PUB-BULLETIN-IIB-19-1914.00017.png","pngs/opencv/ARC-MUND-PUB-BULLETIN-IIB-19-1914.00017.png"],
		["pngs/txt/ARC-MUND-PUB-BULLETIN-IIB-19-1914.00018.png","pngs/opencv/ARC-MUND-PUB-BULLETIN-IIB-19-1914.00018.png"],
		["pngs/txt/ARC-MUND-PUB-BULLETIN-IIB-19-1914.00019.png","pngs/opencv/ARC-MUND-PUB-BULLETIN-IIB-19-1914.00019.png"]
	]
}