{
	"name": "ARC-MUND-PUB-IIB-25-9-1902",
	"blobs":[[5,737,4,3],[22,723,62,67],[5,713,3,3],[82,683,10,4],[12,683,3,3],[12,678,3,3],[100,675,3,3],[32,640,64,72],[5,580,3,4],[21,570,90,58],[61,561,37,3],[35,560,3,3],[5,560,26,4],[31,506,9,3],[44,505,56,54],[19,440,7,3],[19,438,92,54],[29,369,97,56],[72,298,5,3],[16,298,104,58],[23,282,4,3],[19,251,4,3],[25,192,59,6],[28,173,39,6],[30,167,39,5],[25,155,51,10],[49,151,18,3],[22,151,16,3],[21,145,61,4],[33,77,89,58],[28,60,58,7],[30,39,40,8],[34,33,39,5],[28,22,51,10],[52,18,18,3],[25,18,16,3],[25,11,61,5],[92,1578,3,7],[4,1560,3,3],[5,1552,3,5],[5,1545,3,3],[69,1533,11,3],[21,1533,86,57],[52,1523,3,3],[68,1471,3,3],[31,1471,66,50],[69,1407,12,3],[20,1407,76,52],[30,1342,54,53],[22,1274,44,55],[25,1208,63,54],[22,1139,91,57],[12,1123,4,4],[12,1109,4,5],[12,1099,3,3],[26,1073,75,45],[24,1007,65,54],[3,1000,3,3],[28,939,87,57],[22,878,7,3],[73,875,9,3],[22,875,93,52],[81,855,10,8],[64,854,13,9],[12,854,3,3],[54,853,9,11],[12,849,4,3],[98,839,4,3],[12,814,5,5],[30,802,63,62],[31,2032,58,5],[20,1956,82,36],[21,1950,43,4],[5,1830,4,3],[20,1803,95,52],[27,1730,87,62],[15,1729,3,3],[71,1665,9,3],[21,1665,94,53],[89,1664,3,3],[31,1602,62,50]],
	"pngs":[
		["pngs/txt/ARC-MUND-PUB-IIB-25-9-1902.00000.png","pngs/opencv/ARC-MUND-PUB-IIB-25-9-1902.00000.png"],
		["pngs/txt/ARC-MUND-PUB-IIB-25-9-1902.00001.png","pngs/opencv/ARC-MUND-PUB-IIB-25-9-1902.00001.png"],
		["pngs/txt/ARC-MUND-PUB-IIB-25-9-1902.00002.png","pngs/opencv/ARC-MUND-PUB-IIB-25-9-1902.00002.png"]
	]
}