{
	"name": "ARC-MUND-PUB-BULLETIN-OCII-10-1911",
	"blobs":[[14,234,71,6],[14,226,71,5],[15,202,81,15],[15,191,63,5],[88,182,10,3],[15,180,72,6],[84,173,9,3],[15,172,68,5],[14,158,63,11],[15,151,58,3],[94,140,4,3],[95,126,3,3],[14,114,82,31],[14,61,84,47],[90,41,6,3],[18,23,80,32],[21,17,29,3]],
	"pngs":[
		["pngs/txt/ARC-MUND-PUB-BULLETIN-OCII-10-1911.00000.png","pngs/opencv/ARC-MUND-PUB-BULLETIN-OCII-10-1911.00000.png"]
	]
}