{
	"name": "ARC-MUND-PUB-IIB-17",
	"blobs":[[47,798,5,2],[20,790,40,6],[59,785,10,3],[13,785,17,3],[37,781,16,3],[30,781,4,3],[28,773,44,5],[17,773,8,3],[80,763,16,3],[20,709,90,18],[25,709,12,3],[51,707,5,3],[38,706,3,3],[13,647,88,54],[45,647,5,3],[20,624,80,18],[20,586,95,35],[13,529,101,49],[42,523,14,3],[29,523,7,3],[48,503,5,4],[20,479,88,17],[89,468,11,3],[64,468,23,3],[59,468,4,3],[27,454,4,3],[17,454,6,3],[33,447,10,10],[27,432,4,6],[18,432,6,6],[27,425,4,3],[18,425,6,3],[27,421,4,3],[18,421,6,3],[34,418,72,40],[45,414,5,3],[21,363,90,43],[52,359,5,3],[1,315,5,3],[14,304,88,50],[18,298,85,4],[22,206,60,9],[59,198,3,3],[39,196,16,5],[24,191,74,3],[26,183,80,7],[20,177,41,5],[14,172,26,3],[38,167,16,3],[31,167,3,3],[58,159,15,3],[29,159,28,6],[18,159,8,3],[22,1585,86,13],[15,1536,94,40],[23,1485,101,42],[14,1434,91,41],[22,1417,92,10],[22,1385,90,30],[1,1360,4,15],[15,1332,94,46],[24,1282,94,43],[11,1233,95,42],[22,1176,102,50],[60,1124,26,3],[12,1122,101,47],[24,1088,81,27],[24,1074,89,12],[12,1023,90,42],[22,974,90,40],[12,928,88,38],[13,924,25,3],[46,921,4,3],[12,823,3,3],[21,821,60,8],[58,812,3,3],[38,812,16,3],[23,800,82,8],[28,2350,10,3],[24,2348,92,52],[52,2348,3,3],[14,2280,16,3],[18,2277,83,64],[22,2218,99,52],[13,2169,93,42],[44,2167,8,3],[65,2153,5,3],[22,2128,91,32],[78,2119,17,7],[22,2118,5,4],[87,2113,5,3],[82,2113,4,3],[74,2113,7,3],[69,2113,4,3],[20,2113,8,3],[56,2111,5,3],[19,2111,56,20],[43,2052,3,3],[12,2051,123,53],[23,1991,125,53],[12,1930,100,53],[22,1908,5,6],[22,1883,5,3],[22,1875,95,48],[12,1825,6,3],[12,1822,123,45],[54,1809,11,3],[48,1809,4,3],[24,1804,4,10],[24,1797,5,4],[32,1792,79,22],[24,1792,3,3],[30,1782,48,7],[24,1775,38,6],[48,1771,13,3],[77,1753,3,3],[13,1704,94,31],[57,1693,7,3],[14,1656,94,29],[14,1642,86,5],[23,1619,92,12],[55,1615,3,3],[36,1602,62,10],[23,3192,78,8],[13,3152,90,33],[16,3141,68,9],[13,3141,7,3],[56,3135,4,3],[37,3135,11,3],[27,3107,81,13],[66,3101,14,3],[31,3101,23,3],[56,3097,7,3],[52,3097,3,3],[12,3025,85,66],[31,3021,12,3],[45,3019,14,5],[80,3000,10,3],[20,2961,90,52],[13,2911,91,43],[14,2911,5,5],[21,2896,123,6],[22,2849,101,45],[52,2847,7,3],[3,2835,4,3],[13,2788,93,55],[22,2726,96,51],[56,2724,8,3],[52,2724,3,3],[62,2675,3,3],[67,2674,13,3],[46,2664,5,3],[12,2664,86,52],[81,2647,9,3],[81,2642,8,3],[22,2598,126,58],[13,2542,94,49],[21,2479,14,3],[23,2475,92,59],[27,2462,21,3],[13,2410,94,58],[55,2400,12,3],[22,2400,31,3],[15,3964,84,36],[20,3886,83,68],[14,3818,84,58],[22,3756,86,55],[13,3692,82,57],[21,3604,87,78],[6,3532,104,62],[23,3467,90,55],[13,3405,89,55],[23,3324,95,71],[13,3256,88,59],[23,3200,86,49],[19,4637,74,9],[18,4614,85,22],[81,4608,6,3],[19,4606,61,5],[23,4599,87,4],[6,4536,9,3],[6,4533,132,63],[100,4522,7,8],[100,4490,7,20],[101,4481,4,3],[70,4462,14,3],[10,4414,107,47],[23,4378,103,29],[75,4374,16,3],[24,4374,29,3],[35,4370,38,7],[66,4365,5,3],[45,4365,11,3],[74,4347,7,3],[74,4338,11,7],[12,4336,59,14],[22,4275,84,54],[13,4214,88,54],[21,4152,88,54],[14,4088,87,57],[19,4024,88,57],[50,4024,3,3],[15,4000,87,17]],
	"pngs":[
		["pngs/txt/ARC-MUND-PUB-IIB-17.00000.png","pngs/opencv/ARC-MUND-PUB-IIB-17.00000.png"],
		["pngs/txt/ARC-MUND-PUB-IIB-17.00001.png","pngs/opencv/ARC-MUND-PUB-IIB-17.00001.png"],
		["pngs/txt/ARC-MUND-PUB-IIB-17.00002.png","pngs/opencv/ARC-MUND-PUB-IIB-17.00002.png"],
		["pngs/txt/ARC-MUND-PUB-IIB-17.00003.png","pngs/opencv/ARC-MUND-PUB-IIB-17.00003.png"],
		["pngs/txt/ARC-MUND-PUB-IIB-17.00004.png","pngs/opencv/ARC-MUND-PUB-IIB-17.00004.png"],
		["pngs/txt/ARC-MUND-PUB-IIB-17.00005.png","pngs/opencv/ARC-MUND-PUB-IIB-17.00005.png"]
	]
}