{
	"name": "ARC-MUND-PUB-IIB-34",
	"blobs":[[0,33,76,767],[0,1,175,31],[0,800,83,501]],
	"pngs":[
		["pngs/txt/ARC-MUND-PUB-IIB-34.00000.png","pngs/opencv/ARC-MUND-PUB-IIB-34.00000.png"],
		["pngs/txt/ARC-MUND-PUB-IIB-34.00001.png","pngs/opencv/ARC-MUND-PUB-IIB-34.00001.png"]
	]
}