{
	"name": "ARC-MUND-PUB-IIB-25-29",
	"blobs":[[33,793,49,7],[7,777,5,3],[19,773,6,3],[20,762,76,20],[18,762,5,3],[19,736,79,24],[33,678,7,3],[35,677,93,47],[25,645,72,18],[39,580,74,53],[28,519,85,49],[40,455,79,53],[26,395,78,49],[46,333,82,51],[31,270,81,52],[40,204,78,55],[27,151,69,42],[24,146,15,3],[35,74,83,55],[26,57,60,6],[21,18,66,24],[22,18,16,3],[23,12,62,4],[25,1596,7,3],[25,1587,6,3],[28,1574,71,26],[20,1573,6,4],[33,1529,3,3],[37,1507,74,54],[18,1470,77,26],[77,1463,3,3],[22,1443,6,5],[21,1438,71,29],[19,1438,9,4],[36,1378,88,48],[17,1295,75,72],[17,1295,5,3],[67,1285,5,3],[36,1227,83,57],[4,1213,3,3],[63,1211,3,3],[13,1210,4,3],[55,1207,3,3],[9,1205,3,3],[26,1202,5,7],[7,1201,3,3],[21,1195,3,3],[28,1185,52,16],[89,1184,3,3],[21,1181,29,3],[68,1180,3,3],[94,1177,10,38],[100,1173,3,3],[6,1167,3,3],[99,1161,3,3],[6,1158,7,8],[99,1154,6,5],[22,1153,67,26],[99,1145,3,3],[68,1145,5,3],[25,1145,17,4],[19,1145,4,3],[95,1144,3,3],[43,1143,3,3],[14,1140,3,3],[6,1137,3,4],[39,1135,3,3],[17,1134,3,3],[6,1130,4,5],[66,1129,16,3],[52,1129,3,3],[34,1129,7,3],[97,1128,7,11],[40,1099,5,4],[40,1089,5,3],[88,1085,6,3],[40,1085,76,43],[39,1085,4,3],[67,1066,17,3],[99,1058,4,5],[98,1051,5,4],[7,1006,3,3],[22,997,76,13],[99,991,4,8],[38,958,8,3],[39,936,89,51],[7,920,3,5],[7,915,3,3],[25,873,77,50],[105,859,3,3],[33,809,6,3],[14,804,4,7],[33,800,78,53],[31,2359,82,41],[38,2313,75,34],[37,2305,7,3],[35,2292,76,20],[11,2287,3,3],[21,2260,5,3],[21,2254,5,5],[21,2246,5,7],[21,2234,78,48],[31,2226,6,3],[41,2221,6,3],[36,2170,85,53],[34,2170,4,3],[86,2158,3,3],[69,2158,11,3],[22,2141,6,15],[20,2101,76,56],[35,2083,6,7],[32,2033,86,56],[25,1995,87,26],[23,1973,59,21],[32,1916,75,46],[6,1896,3,3],[23,1849,79,55],[67,1840,3,3],[37,1793,7,9],[35,1788,92,51],[23,1723,72,53],[65,1713,7,3],[35,1636,74,76],[28,1600,68,25],[25,1600,8,8],[100,3185,4,4],[100,3176,3,3],[100,3171,4,3],[100,3164,3,6],[22,3160,73,24],[7,3159,3,3],[100,3152,3,3],[21,3144,68,15],[24,3139,15,3],[18,3139,4,3],[9,3119,3,3],[44,3065,69,52],[19,3042,5,3],[19,3034,5,7],[52,3009,11,3],[23,3009,76,44],[18,3009,4,3],[93,2951,4,3],[38,2951,76,42],[46,2944,26,6],[39,2944,5,5],[22,2884,72,49],[40,2826,77,46],[37,2826,4,3],[24,2801,5,3],[98,2789,4,4],[21,2785,5,3],[97,2766,4,3],[21,2753,73,55],[38,2731,7,10],[38,2685,89,56],[35,2685,5,3],[97,2670,3,3],[101,2667,3,5],[26,2661,4,3],[24,2655,5,3],[23,2647,5,3],[26,2642,4,3],[26,2628,5,3],[100,2627,4,18],[30,2623,69,43],[8,2622,3,3],[100,2621,3,3],[23,2620,5,3],[22,2614,4,3],[27,2613,68,9],[100,2611,4,8],[38,2579,5,3],[38,2560,4,3],[38,2557,72,41],[7,2542,3,4],[100,2540,4,4],[100,2528,3,3],[101,2524,3,3],[5,2523,4,4],[100,2518,3,4],[99,2507,5,4],[26,2487,86,54],[37,2423,86,53],[31,2400,77,11],[38,3981,7,6],[13,3974,4,5],[36,3928,89,61],[18,3852,75,63],[37,3786,83,53],[36,3786,8,3],[98,3770,4,3],[7,3769,6,4],[22,3756,7,3],[99,3753,4,6],[22,3751,7,3],[6,3730,3,3],[98,3723,4,3],[7,3723,3,3],[99,3704,4,3],[22,3702,72,58],[20,3702,10,3],[38,3636,72,53],[6,3618,6,4],[99,3569,4,3],[19,3555,75,54],[99,3547,4,3],[36,3486,75,57],[6,3468,7,5],[7,3460,3,3],[99,3452,3,3],[6,3452,3,3],[6,3442,3,3],[21,3409,73,53],[98,3402,5,10],[37,3345,82,53],[77,3338,3,3],[98,3331,9,3],[7,3330,82,3],[99,3322,4,5],[7,3288,3,3],[23,3284,7,6],[100,3279,4,3],[20,3271,76,53],[97,3262,8,12],[11,3243,12,18],[47,3201,74,45],[95,4788,4,12],[17,4779,71,21],[71,4771,3,3],[6,4771,5,3],[89,4769,10,5],[43,4766,7,3],[15,4758,3,4],[43,4757,7,4],[16,4742,4,4],[39,4729,10,3],[40,4719,79,49],[14,4699,8,3],[95,4684,4,3],[95,4675,5,5],[95,4671,3,3],[5,4666,3,3],[15,4658,80,49],[95,4651,6,15],[43,4644,6,3],[43,4640,6,3],[40,4598,80,49],[5,4582,3,3],[5,4565,3,3],[95,4551,3,7],[95,4542,3,7],[5,4538,3,3],[96,4529,4,3],[24,4522,70,59],[95,4520,5,8],[49,4459,72,52],[18,4404,79,41],[24,4399,10,3],[97,4386,6,21],[18,4374,3,3],[12,4345,11,28],[16,4336,5,5],[42,4324,7,7],[39,4320,87,61],[40,4320,7,3],[19,4260,74,47],[69,4220,28,3],[12,4220,14,16],[16,4216,3,3],[16,4207,3,3],[37,4192,76,55],[21,4160,57,19],[18,4160,6,3],[19,4127,71,32],[36,4109,6,3],[34,4063,75,51],[35,4063,6,3],[19,4003,66,47],[23,5589,69,11],[27,5574,4,3],[16,5526,5,5],[38,5511,86,52],[24,5452,73,47],[93,5432,3,3],[40,5403,70,26],[50,5398,59,3],[42,5381,8,19],[50,5371,61,26],[15,5371,11,34],[8,5370,3,3],[15,5364,6,4],[19,5360,3,3],[14,5323,68,33],[14,5312,56,10],[28,5298,4,3],[39,5265,9,16],[16,5247,6,7],[48,5235,78,47],[92,5211,4,3],[17,5173,71,51],[28,5159,4,3],[40,5132,6,6],[14,5127,7,7],[40,5110,6,8],[40,5106,5,3],[40,5100,73,48],[17,5041,74,47],[41,5025,5,3],[38,4982,76,47],[19,4926,5,4],[19,4922,4,3],[18,4919,72,52],[15,4879,5,4],[39,4843,69,65],[16,4842,3,4],[22,4828,9,5],[95,4815,4,3],[94,4803,5,6],[21,4802,4,3],[95,4800,3,2],[21,4800,76,33],[29,6142,4,3],[29,6115,4,8],[27,6077,86,74],[33,6066,88,11],[3,6043,3,3],[14,5996,84,64],[37,5981,6,4],[47,5980,16,3],[64,5924,3,3],[14,5866,76,26],[104,5837,4,3],[36,5811,58,42],[48,5796,80,16],[11,5776,3,3],[13,5726,86,57],[27,5710,4,3],[34,5648,89,49],[55,5638,8,3],[48,5638,5,3],[16,5600,86,37]],
	"pngs":[
		["pngs/txt/ARC-MUND-PUB-IIB-25-29.00000.png","pngs/opencv/ARC-MUND-PUB-IIB-25-29.00000.png"],
		["pngs/txt/ARC-MUND-PUB-IIB-25-29.00001.png","pngs/opencv/ARC-MUND-PUB-IIB-25-29.00001.png"],
		["pngs/txt/ARC-MUND-PUB-IIB-25-29.00002.png","pngs/opencv/ARC-MUND-PUB-IIB-25-29.00002.png"],
		["pngs/txt/ARC-MUND-PUB-IIB-25-29.00003.png","pngs/opencv/ARC-MUND-PUB-IIB-25-29.00003.png"],
		["pngs/txt/ARC-MUND-PUB-IIB-25-29.00004.png","pngs/opencv/ARC-MUND-PUB-IIB-25-29.00004.png"],
		["pngs/txt/ARC-MUND-PUB-IIB-25-29.00005.png","pngs/opencv/ARC-MUND-PUB-IIB-25-29.00005.png"],
		["pngs/txt/ARC-MUND-PUB-IIB-25-29.00006.png","pngs/opencv/ARC-MUND-PUB-IIB-25-29.00006.png"],
		["pngs/txt/ARC-MUND-PUB-IIB-25-29.00007.png","pngs/opencv/ARC-MUND-PUB-IIB-25-29.00007.png"]
	]
}