{
	"name": "ARC-MUND-PUB-IIB-40",
	"blobs":[[16,794,75,6],[98,778,3,6],[32,772,31,3],[83,740,6,19],[98,737,6,3],[27,717,76,6],[17,657,107,49],[27,602,80,45],[4,583,3,5],[4,577,3,3],[4,569,3,5],[17,548,105,44],[26,518,111,11],[25,482,79,34],[4,468,4,3],[18,424,111,47],[26,364,80,50],[17,320,115,31],[58,313,11,3],[2,311,4,6],[52,308,19,3],[23,308,30,8],[31,280,65,7],[29,270,66,9],[43,264,20,3],[20,231,65,6],[17,202,70,7],[17,197,13,3],[37,191,25,9],[23,183,45,5],[86,177,3,3],[21,127,112,46],[28,1597,85,3],[3,1562,5,8],[16,1539,88,46],[9,1532,4,4],[9,1522,6,6],[10,1494,4,15],[9,1490,5,3],[9,1484,5,5],[9,1476,4,6],[27,1473,112,51],[9,1472,4,3],[16,1413,108,48],[27,1357,83,43],[16,1298,102,47],[26,1241,78,45],[3,1226,3,4],[3,1216,3,3],[3,1212,3,3],[3,1205,4,6],[3,1201,3,3],[3,1193,3,3],[17,1183,84,45],[25,1177,41,5],[98,1151,3,5],[98,1140,3,9],[27,1098,79,21],[98,1088,3,4],[14,1083,5,4],[17,1030,79,43],[60,1021,3,3],[28,973,109,52],[16,913,79,47],[28,853,108,48],[30,836,42,6],[70,821,10,3],[15,821,40,5],[16,800,77,20],[80,2388,3,3],[61,2388,11,3],[18,2387,16,4],[38,2385,17,6],[86,2382,8,5],[24,2379,19,3],[51,2378,3,3],[73,2377,4,5],[61,2368,7,5],[19,2358,6,4],[26,2330,81,18],[16,2270,88,49],[27,2214,78,45],[18,2171,78,32],[54,2161,17,3],[31,2161,22,5],[22,2161,8,3],[17,2053,72,8],[92,2048,3,3],[17,2041,75,10],[17,2030,71,9],[22,2024,58,3],[11,2002,3,3],[9,1993,5,3],[9,1989,4,3],[8,1979,4,8],[9,1962,7,3],[8,1945,7,7],[27,1944,82,35],[98,1933,3,3],[18,1884,78,49],[27,1829,79,44],[17,1772,80,45],[26,1714,78,47],[17,1656,79,46],[20,1611,4,3],[28,1600,111,45],[92,3189,3,4],[83,3173,4,3],[33,3150,3,3],[32,3137,94,52],[10,3114,3,3],[13,3082,98,43],[17,3082,5,3],[79,3067,3,3],[58,3067,4,3],[27,3055,6,6],[10,3041,3,8],[26,3017,5,4],[27,3010,93,53],[26,3010,5,3],[18,2989,9,5],[1,2977,4,3],[11,2973,4,3],[5,2944,5,3],[22,2937,96,61],[32,2880,4,3],[30,2864,95,62],[33,2864,3,3],[18,2849,4,3],[17,2802,93,51],[17,2802,6,7],[27,2768,4,3],[27,2726,101,65],[27,2726,6,6],[22,2707,4,4],[22,2690,5,3],[22,2675,89,40],[27,2667,20,3],[15,2660,5,4],[45,2644,4,3],[28,2611,90,29],[30,2584,4,4],[36,2582,6,3],[17,2580,4,4],[85,2567,4,4],[31,2551,18,3],[45,2541,4,3],[84,2510,3,4],[22,2507,4,3],[29,2438,80,74],[43,2434,21,3],[73,2432,6,3],[82,2418,4,5],[73,2415,6,5],[68,2415,4,4],[38,2414,4,3],[23,2407,11,3],[20,2401,4,5],[14,2401,3,3],[59,2400,6,5],[66,3996,35,4],[36,3996,28,4],[37,3990,65,3],[44,3983,38,5],[17,3982,4,5],[35,3978,15,3],[6,3960,8,7],[7,3937,3,3],[25,3921,64,18],[16,3915,69,5],[0,3908,10,17],[58,3893,16,3],[41,3855,81,27],[90,3844,10,4],[9,3831,6,4],[21,3830,7,4],[60,3826,4,4],[19,3809,29,8],[61,3806,5,3],[30,3755,7,4],[27,3729,4,3],[30,3717,108,58],[30,3717,4,3],[91,3712,7,3],[20,3699,5,7],[10,3690,6,3],[21,3678,5,4],[20,3648,96,59],[40,3633,4,3],[28,3573,95,59],[32,3573,5,3],[69,3557,4,4],[21,3499,6,3],[20,3489,98,69],[25,3475,4,3],[9,3464,4,4],[35,3422,101,55],[26,3404,5,4],[18,3370,3,3],[25,3356,86,53],[64,3340,3,4],[17,3335,4,3],[11,3326,3,3],[76,3302,10,3],[31,3285,99,52],[14,3271,4,3],[8,3254,8,7],[11,3239,5,3],[18,3228,3,3],[11,3225,3,3],[21,3205,6,9],[19,3204,85,61],[17,4744,73,56],[30,4743,6,3],[30,4730,22,4],[27,4651,69,83],[7,4636,3,4],[16,4571,66,67],[97,4520,3,3],[28,4488,69,73],[82,4418,4,3],[18,4405,78,72],[25,4379,87,15],[28,4346,16,3],[86,4343,4,3],[0,4341,7,8],[26,4336,8,3],[3,4336,3,3],[8,4313,7,3],[41,4308,14,3],[27,4308,7,3],[3,4306,5,3],[37,4304,3,4],[90,4290,5,4],[26,4286,6,3],[25,4252,76,20],[66,4251,7,3],[35,4251,27,3],[98,4248,3,3],[98,4239,6,6],[25,4239,16,3],[47,4222,6,5],[48,4211,5,7],[18,4176,77,52],[62,4169,13,3],[20,4166,36,6],[58,4157,19,3],[56,4122,38,23],[26,4120,29,27],[7,4106,4,4],[18,4046,64,53],[16,4003,5,4],[36,4000,70,36],[47,5320,22,5],[55,5199,4,3],[22,5154,4,3],[35,5148,7,5],[64,5144,6,3],[26,5129,3,3],[30,5098,3,3],[33,5084,4,3],[31,5078,3,3],[29,5072,4,4],[31,5056,4,3],[24,5020,69,36],[15,5005,4,3],[19,4932,68,64],[88,4891,4,3],[26,4844,73,77],[19,4800,66,33]],
	"pngs":[
		["pngs/txt/ARC-MUND-PUB-IIB-40.00000.png","pngs/opencv/ARC-MUND-PUB-IIB-40.00000.png"],
		["pngs/txt/ARC-MUND-PUB-IIB-40.00001.png","pngs/opencv/ARC-MUND-PUB-IIB-40.00001.png"],
		["pngs/txt/ARC-MUND-PUB-IIB-40.00002.png","pngs/opencv/ARC-MUND-PUB-IIB-40.00002.png"],
		["pngs/txt/ARC-MUND-PUB-IIB-40.00003.png","pngs/opencv/ARC-MUND-PUB-IIB-40.00003.png"],
		["pngs/txt/ARC-MUND-PUB-IIB-40.00004.png","pngs/opencv/ARC-MUND-PUB-IIB-40.00004.png"],
		["pngs/txt/ARC-MUND-PUB-IIB-40.00005.png","pngs/opencv/ARC-MUND-PUB-IIB-40.00005.png"],
		["pngs/txt/ARC-MUND-PUB-IIB-40.00006.png","pngs/opencv/ARC-MUND-PUB-IIB-40.00006.png"]
	]
}