{
	"name": "ARC-MUND-PUB-MONITEUR-PHOTOGRAPHIE-01041905",
	"blobs":[[10,789,3,4],[19,769,108,31],[53,762,18,5],[83,761,6,3],[24,758,13,4],[11,748,5,4],[17,726,6,3],[68,717,4,4],[14,716,77,46],[14,712,8,3],[29,706,29,9],[85,702,4,4],[15,700,4,3],[23,645,89,47],[34,640,29,3],[23,640,3,3],[20,634,4,4],[42,633,6,3],[9,633,9,3],[25,631,3,3],[9,568,89,31],[14,563,6,3],[38,561,4,4],[75,512,3,3],[19,505,97,57],[5,439,4,4],[66,425,3,3],[12,425,109,79],[58,421,3,3],[85,405,3,3],[16,405,93,14],[17,375,82,29],[38,360,33,3],[23,360,3,3],[77,348,11,7],[13,335,75,24],[7,332,3,3],[69,330,4,3],[54,330,6,7],[71,326,3,3],[8,326,3,3],[12,322,48,13],[32,286,15,5],[30,279,13,4],[83,278,7,3],[78,278,4,3],[61,278,3,3],[5,275,23,49],[18,274,66,50],[40,269,6,3],[15,267,16,3],[40,265,21,5],[65,264,10,6],[61,263,3,3],[23,263,6,3],[7,261,13,10],[68,260,3,3],[27,259,32,3],[74,253,9,5],[18,226,46,28],[26,222,3,3],[12,215,4,3],[21,209,76,19],[30,198,45,10],[22,198,6,3],[5,138,3,3],[10,128,123,69],[39,124,3,3],[14,119,9,8],[50,118,46,9],[15,113,4,4],[89,91,4,3],[63,80,11,3],[34,72,37,5],[48,68,27,3],[13,61,96,56],[10,52,55,8],[11,21,79,14],[11,16,14,3],[37,14,8,3],[23,11,13,3],[55,7,17,3],[43,7,8,3],[10,7,31,3],[11,1591,74,9],[35,1583,10,6],[21,1555,84,22],[21,1524,76,14],[13,1503,96,14],[1,1485,3,6],[12,1483,70,7],[35,1479,11,3],[11,1461,77,15],[65,1411,9,4],[20,1403,80,51],[13,1359,76,37],[13,1347,74,10],[3,1291,4,3],[19,1287,78,53],[13,1229,78,51],[20,1172,78,51],[13,1110,78,56],[18,1082,76,22],[34,1078,23,3],[19,1053,77,22],[67,1045,3,3],[14,1023,78,25],[36,1019,11,3],[14,1003,86,14],[23,998,14,3],[31,993,17,6],[7,959,3,3],[17,919,97,68],[16,919,3,3],[38,913,4,3],[45,910,6,5],[6,910,6,3],[53,909,6,3],[11,906,3,3],[71,844,5,3],[15,841,91,70],[79,839,4,3],[22,836,5,3],[16,823,34,7],[15,816,4,3],[11,804,3,3],[15,800,97,36],[76,2398,4,2],[8,2397,5,3],[76,2367,4,3],[86,2351,6,3],[55,2350,4,3],[63,2348,3,3],[85,2345,6,4],[66,2344,4,3],[9,2344,80,56],[44,2339,5,3],[44,2290,10,4],[10,2290,92,51],[1,2282,6,3],[21,2281,90,8],[19,2281,5,3],[15,2276,5,3],[49,2275,3,3],[28,2274,6,3],[68,2262,3,3],[39,2251,3,3],[56,2250,3,3],[10,2217,91,53],[69,2211,5,4],[57,2210,3,3],[14,2172,3,3],[17,2148,89,64],[26,2142,52,6],[19,2125,71,16],[35,2121,33,3],[20,2121,4,3],[71,2099,3,3],[12,2096,74,24],[20,2095,6,3],[74,2090,4,3],[3,2057,104,35],[56,2033,34,22],[5,1996,4,3],[21,1995,72,36],[21,1995,8,5],[7,1989,3,3],[58,1985,3,6],[49,1983,5,3],[7,1973,73,16],[4,1970,4,4],[7,1947,74,23],[81,1943,5,3],[79,1934,5,4],[78,1928,4,4],[26,1925,44,5],[16,1924,7,6],[6,1923,5,4],[69,1921,4,3],[26,1921,29,3],[19,1867,84,54],[11,1812,79,50],[19,1752,88,55],[11,1698,75,48],[17,1640,79,52],[11,1622,76,11],[35,1618,10,3],[10,1600,75,16],[11,2896,84,39],[31,2891,7,3],[44,2877,49,24],[11,2876,28,19],[1,2831,4,3],[13,2804,95,61],[53,2796,5,3],[9,2794,6,3],[16,2724,87,74],[86,2719,3,3],[59,2719,18,4],[72,2697,9,4],[11,2695,72,17],[77,2692,10,3],[53,2692,4,3],[22,2692,5,3],[15,2653,85,41],[66,2649,5,3],[28,2649,30,3],[60,2645,3,3],[79,2644,3,3],[14,2631,98,15],[17,2626,17,9],[54,2625,27,6],[7,2624,6,3],[19,2622,7,5],[18,2609,3,3],[15,2561,90,63],[15,2561,13,3],[10,2547,101,12],[13,2540,18,7],[51,2539,7,3],[78,2538,3,3],[14,2534,17,5],[35,2532,9,3],[75,2528,4,3],[51,2518,3,3],[13,2518,19,13],[13,2512,14,4],[6,2508,4,3],[61,2507,16,3],[15,2507,9,3],[29,2506,31,7],[63,2502,5,3],[20,2502,30,3],[70,2496,4,3],[31,2496,29,3],[74,2416,5,4],[18,2400,62,18]],
	"pngs":[
		["pngs/txt/ARC-MUND-PUB-MONITEUR-PHOTOGRAPHIE-01041905.00000.png","pngs/opencv/ARC-MUND-PUB-MONITEUR-PHOTOGRAPHIE-01041905.00000.png"],
		["pngs/txt/ARC-MUND-PUB-MONITEUR-PHOTOGRAPHIE-01041905.00001.png","pngs/opencv/ARC-MUND-PUB-MONITEUR-PHOTOGRAPHIE-01041905.00001.png"],
		["pngs/txt/ARC-MUND-PUB-MONITEUR-PHOTOGRAPHIE-01041905.00002.png","pngs/opencv/ARC-MUND-PUB-MONITEUR-PHOTOGRAPHIE-01041905.00002.png"],
		["pngs/txt/ARC-MUND-PUB-MONITEUR-PHOTOGRAPHIE-01041905.00003.png","pngs/opencv/ARC-MUND-PUB-MONITEUR-PHOTOGRAPHIE-01041905.00003.png"]
	]
}