{
	"name": "ARC-MUND-PUB-IIB-63-16a",
	"blobs":[[24,745,91,50],[90,741,3,3],[6,731,5,4],[17,689,81,48],[64,676,3,3],[16,663,4,3],[26,622,85,47],[37,609,7,3],[76,601,4,3],[15,559,83,49],[24,503,79,47],[4,488,5,5],[15,453,84,30],[15,438,76,14],[97,424,4,5],[15,405,5,4],[25,377,78,43],[15,341,78,26],[24,329,32,5],[57,325,7,4],[24,301,4,4],[66,300,3,3],[26,232,87,10],[94,199,7,3],[15,191,81,31],[19,185,69,4],[38,178,8,3],[52,153,6,3],[17,153,6,3],[10,134,3,4],[20,79,117,68],[24,68,3,4],[17,54,59,10],[17,39,63,12],[17,31,15,5],[37,29,26,7],[17,9,117,20],[56,2,4,3],[12,1567,5,3],[26,1548,75,52],[40,1544,21,3],[73,1531,6,3],[65,1499,5,4],[19,1498,38,15],[26,1488,18,3],[27,1467,6,4],[51,1465,4,3],[65,1464,3,3],[61,1464,3,3],[40,1459,5,4],[56,1410,3,3],[51,1380,4,5],[30,1352,6,3],[93,1319,3,3],[12,1314,80,25],[45,1307,7,3],[98,1302,3,3],[25,1251,88,46],[47,1239,3,3],[3,1223,6,5],[2,1214,4,6],[94,1206,5,4],[15,1176,83,55],[87,1164,3,3],[24,1108,83,45],[37,1096,4,3],[12,1095,3,3],[56,1088,4,3],[5,1087,6,3],[15,1045,77,44],[32,1040,3,3],[98,1033,4,4],[21,1024,3,3],[6,1017,3,3],[25,989,89,45],[15,935,82,44],[5,890,3,3],[26,874,90,51],[16,817,85,48],[92,804,5,4],[40,2390,4,3],[67,2364,3,3],[20,2328,86,59],[22,2314,6,3],[4,2255,4,3],[32,2254,88,49],[32,2254,7,3],[64,2225,5,3],[18,2196,90,48],[49,2184,4,3],[69,2181,4,4],[18,2177,5,4],[9,2134,5,5],[25,2118,98,55],[65,2105,4,3],[22,2103,6,4],[95,2065,3,7],[24,2045,92,47],[24,2045,5,3],[63,2031,5,4],[26,2021,5,3],[26,2017,5,3],[26,1999,5,4],[26,1982,5,4],[24,1975,90,50],[26,1975,5,3],[23,1960,5,3],[22,1905,100,60],[5,1877,3,3],[5,1866,4,3],[30,1856,4,3],[5,1856,3,3],[5,1852,3,3],[30,1851,4,4],[29,1845,92,51],[31,1845,3,3],[59,1832,3,3],[35,1827,3,3],[5,1827,4,3],[18,1769,89,54],[18,1769,5,6],[64,1756,3,3],[91,1753,4,3],[29,1733,4,3],[29,1727,5,3],[5,1720,4,3],[5,1712,4,3],[28,1692,95,55],[29,1692,5,6],[1,1679,3,3],[19,1632,90,35],[38,1625,16,3],[23,1625,8,3],[60,1600,35,4],[27,1600,23,4],[26,3196,91,4],[25,3158,4,4],[25,3118,106,68],[17,3101,7,8],[18,3096,3,3],[21,3089,4,3],[19,3043,110,64],[61,3040,16,3],[22,3028,4,3],[16,3015,3,3],[28,2959,109,69],[1,2947,5,3],[5,2908,5,3],[17,2895,99,45],[63,2889,13,3],[18,2886,40,6],[60,2879,16,3],[97,2867,3,3],[27,2817,76,35],[5,2794,4,4],[63,2783,4,4],[20,2781,14,3],[38,2777,22,7],[4,2755,4,3],[96,2753,3,4],[77,2749,20,3],[29,2742,7,7],[26,2733,3,3],[31,2723,4,3],[31,2713,4,3],[30,2689,92,61],[11,2679,3,3],[63,2675,4,3],[4,2675,9,9],[29,2672,7,5],[12,2669,4,3],[19,2613,94,58],[74,2602,5,3],[86,2600,4,3],[32,2589,5,5],[32,2581,4,3],[32,2572,5,5],[32,2549,89,48],[33,2549,5,3],[25,2533,6,5],[19,2528,6,3],[94,2522,6,3],[4,2514,4,3],[1,2495,4,4],[15,2478,95,57],[79,2465,4,3],[56,2457,4,3],[21,2452,6,3],[30,2404,92,54],[96,3977,5,10],[88,3934,6,4],[31,3906,3,3],[55,3898,6,3],[15,3861,80,18],[4,3861,3,3],[55,3856,8,3],[64,3855,3,3],[25,3855,27,3],[23,3840,9,3],[14,3840,5,3],[4,3830,6,3],[15,3828,6,3],[59,3813,5,7],[29,3778,75,53],[73,3771,13,3],[31,3768,37,6],[68,3757,19,3],[94,3745,3,3],[15,3680,74,26],[4,3619,6,3],[4,3613,4,3],[59,3610,16,6],[4,3608,4,3],[59,3604,31,5],[24,3604,67,67],[3,3604,3,3],[14,3603,3,3],[81,3601,7,3],[5,3588,3,3],[4,3582,3,3],[4,3548,4,5],[17,3542,66,48],[19,3536,61,4],[25,3530,38,5],[25,3507,4,3],[70,3501,4,4],[26,3440,101,45],[61,3426,6,3],[72,3424,4,4],[56,3423,4,4],[82,3421,5,4],[17,3356,106,67],[18,3309,6,3],[21,3301,4,3],[24,3269,109,80],[77,3260,5,3],[93,3258,4,3],[7,3226,4,5],[19,3200,106,59],[37,4797,9,3],[91,4796,3,3],[19,4779,74,19],[25,4778,21,3],[8,4774,3,3],[4,4773,3,3],[18,4731,78,49],[27,4693,63,31],[16,4615,69,67],[63,4602,7,3],[97,4601,4,3],[5,4588,4,5],[97,4583,8,3],[4,4581,6,3],[98,4567,4,3],[98,4560,4,3],[98,4542,3,3],[24,4533,69,67],[3,4532,9,14],[4,4518,3,3],[19,4461,71,67],[77,4447,4,3],[46,4440,5,5],[22,4440,22,9],[23,4378,65,67],[5,4357,7,11],[5,4353,3,3],[5,4347,3,4],[93,4303,6,3],[20,4286,68,73],[98,4266,7,10],[4,4200,5,9],[27,4199,69,69],[3,4115,4,4],[16,4113,68,75],[5,4099,3,4],[30,4089,64,11],[28,4057,4,3],[38,4021,16,3],[24,4021,7,3],[17,4015,5,4],[57,4013,4,4],[58,4003,4,3],[17,4864,4,4],[3,4843,4,3],[17,4825,4,15],[17,4816,4,5],[16,4813,93,70]],
	"pngs":[
		["pngs/txt/ARC-MUND-PUB-IIB-63-16a.00000.png","pngs/opencv/ARC-MUND-PUB-IIB-63-16a.00000.png"],
		["pngs/txt/ARC-MUND-PUB-IIB-63-16a.00001.png","pngs/opencv/ARC-MUND-PUB-IIB-63-16a.00001.png"],
		["pngs/txt/ARC-MUND-PUB-IIB-63-16a.00002.png","pngs/opencv/ARC-MUND-PUB-IIB-63-16a.00002.png"],
		["pngs/txt/ARC-MUND-PUB-IIB-63-16a.00003.png","pngs/opencv/ARC-MUND-PUB-IIB-63-16a.00003.png"],
		["pngs/txt/ARC-MUND-PUB-IIB-63-16a.00004.png","pngs/opencv/ARC-MUND-PUB-IIB-63-16a.00004.png"],
		["pngs/txt/ARC-MUND-PUB-IIB-63-16a.00005.png","pngs/opencv/ARC-MUND-PUB-IIB-63-16a.00005.png"],
		["pngs/txt/ARC-MUND-PUB-IIB-63-16a.00006.png","pngs/opencv/ARC-MUND-PUB-IIB-63-16a.00006.png"]
	]
}