{
	"name": "ARC-MUND-PUB-BULLETIN-IIB-8-1903-FASC-4_6",
	"blobs":[[29,767,202,33],[36,681,195,67],[27,582,204,80],[33,509,27,3],[29,497,200,66],[27,457,6,3],[34,424,183,54],[35,340,188,65],[23,279,54,6],[24,275,191,46],[50,275,16,3],[44,275,4,3],[28,275,8,3],[114,271,14,3],[232,229,19,3],[29,175,202,71],[111,170,5,3],[28,84,203,77],[24,60,82,6],[23,46,92,13],[49,41,47,3],[21,36,16,3],[21,32,16,3],[44,30,11,3],[72,29,4,3],[44,23,52,6],[27,1594,9,6],[27,1588,8,3],[37,1582,175,18],[29,1549,9,9],[29,1540,7,3],[29,1529,8,5],[29,1525,8,3],[29,1519,9,3],[28,1480,196,83],[30,1455,7,3],[40,1451,13,3],[38,1450,181,11],[29,1444,5,3],[30,1436,7,3],[30,1419,7,3],[115,1390,7,3],[29,1389,198,63],[30,1389,7,3],[29,1360,7,3],[29,1352,7,3],[29,1339,7,9],[29,1330,7,3],[113,1306,5,3],[81,1306,9,3],[29,1306,188,64],[29,1306,5,3],[114,1261,106,27],[33,1225,186,49],[29,1140,189,66],[27,1079,5,3],[28,1046,197,75],[27,989,5,3],[27,953,190,74],[28,893,5,3],[27,858,194,76],[29,830,5,3],[35,800,179,39],[114,2371,5,3],[31,2315,192,69],[30,2266,7,3],[29,2261,5,3],[147,2239,11,3],[36,2233,191,63],[30,2233,5,3],[115,2204,7,6],[32,2199,10,5],[31,2183,9,14],[31,2174,9,7],[31,2165,7,3],[31,2159,7,3],[31,2151,183,64],[124,2129,11,3],[143,2128,3,3],[73,2068,16,3],[36,2068,184,62],[30,2068,5,3],[36,1980,182,69],[29,1954,5,3],[29,1912,4,3],[35,1908,180,53],[30,1875,5,10],[146,1841,13,3],[137,1841,5,3],[36,1841,181,47],[30,1841,4,3],[30,1801,7,3],[30,1787,7,3],[30,1765,7,4],[30,1761,7,3],[115,1758,7,3],[30,1757,209,59],[30,1757,7,3],[32,1721,7,3],[32,1714,7,3],[32,1706,7,3],[32,1699,7,3],[32,1672,188,67],[27,1637,7,3],[27,1633,8,3],[27,1621,7,3],[27,1611,7,3],[113,1600,8,2],[27,1600,194,53],[29,3182,226,18],[92,3153,7,3],[105,3147,6,3],[40,3133,71,25],[32,3133,4,23],[30,3123,216,40],[29,3066,248,59],[29,3030,68,15],[93,3018,8,3],[161,3010,13,19],[27,3010,73,18],[174,2981,9,3],[109,2981,102,66],[27,2981,76,28],[51,2981,8,3],[168,2972,11,3],[155,2972,9,3],[118,2972,32,3],[49,2972,16,4],[31,2970,17,15],[67,2963,35,13],[28,2963,38,3],[114,2960,17,3],[31,2947,163,18],[30,2855,240,73],[29,2743,224,93],[30,2670,238,55],[29,2564,248,85],[29,2513,7,3],[28,2503,8,8],[28,2482,217,63],[29,2457,5,3],[29,2426,7,3],[29,2418,5,3],[29,2403,194,60],[31,3959,211,41],[32,3874,232,66],[33,3778,239,77],[209,3747,7,3],[205,3747,3,3],[201,3747,3,3],[223,3735,7,3],[215,3735,7,3],[207,3735,7,3],[199,3735,7,3],[191,3735,7,3],[176,3731,11,3],[30,3701,70,5],[27,3693,233,66],[192,3656,5,3],[186,3656,5,3],[180,3656,5,3],[174,3656,5,3],[192,3652,5,3],[199,3644,5,3],[193,3644,5,3],[192,3637,5,5],[142,3635,6,3],[115,3635,25,5],[32,3633,3,3],[32,3627,3,3],[29,3617,181,57],[119,3585,3,5],[211,3566,6,5],[204,3557,44,3],[31,3527,232,67],[29,3439,244,69],[49,3380,8,3],[35,3380,13,3],[30,3363,248,57],[31,3283,244,61],[29,3200,241,64],[33,4757,216,43],[75,4671,8,3],[42,4671,10,3],[33,4662,216,76],[32,4573,223,70],[33,4549,78,5],[33,4494,225,60],[32,4409,208,66],[34,4310,221,80],[34,4225,219,66],[54,4137,15,3],[45,4132,35,3],[29,4114,232,92],[31,4039,170,56],[138,4038,11,3],[31,4000,221,19],[30,5548,204,52],[30,5445,214,84],[28,5363,209,63],[32,5281,206,63],[54,5210,31,5],[35,5210,17,3],[31,5206,203,56],[41,5199,44,3],[115,5189,107,19],[143,5097,12,3],[31,5085,220,85],[31,4974,210,92],[34,4943,197,12],[33,4847,219,99],[33,4800,216,28],[32,5897,92,5],[35,5769,56,5],[29,5768,217,82],[74,5767,3,3],[115,5655,7,3],[30,5654,82,9],[182,5649,17,3],[30,5649,5,3],[30,5647,183,105],[36,5647,48,5],[115,5600,89,28]],
	"pngs":[
		["pngs/txt/ARC-MUND-PUB-BULLETIN-IIB-8-1903-FASC-4_6.00000.png","pngs/opencv/ARC-MUND-PUB-BULLETIN-IIB-8-1903-FASC-4_6.00000.png"],
		["pngs/txt/ARC-MUND-PUB-BULLETIN-IIB-8-1903-FASC-4_6.00001.png","pngs/opencv/ARC-MUND-PUB-BULLETIN-IIB-8-1903-FASC-4_6.00001.png"],
		["pngs/txt/ARC-MUND-PUB-BULLETIN-IIB-8-1903-FASC-4_6.00002.png","pngs/opencv/ARC-MUND-PUB-BULLETIN-IIB-8-1903-FASC-4_6.00002.png"],
		["pngs/txt/ARC-MUND-PUB-BULLETIN-IIB-8-1903-FASC-4_6.00003.png","pngs/opencv/ARC-MUND-PUB-BULLETIN-IIB-8-1903-FASC-4_6.00003.png"],
		["pngs/txt/ARC-MUND-PUB-BULLETIN-IIB-8-1903-FASC-4_6.00004.png","pngs/opencv/ARC-MUND-PUB-BULLETIN-IIB-8-1903-FASC-4_6.00004.png"],
		["pngs/txt/ARC-MUND-PUB-BULLETIN-IIB-8-1903-FASC-4_6.00005.png","pngs/opencv/ARC-MUND-PUB-BULLETIN-IIB-8-1903-FASC-4_6.00005.png"],
		["pngs/txt/ARC-MUND-PUB-BULLETIN-IIB-8-1903-FASC-4_6.00006.png","pngs/opencv/ARC-MUND-PUB-BULLETIN-IIB-8-1903-FASC-4_6.00006.png"],
		["pngs/txt/ARC-MUND-PUB-BULLETIN-IIB-8-1903-FASC-4_6.00007.png","pngs/opencv/ARC-MUND-PUB-BULLETIN-IIB-8-1903-FASC-4_6.00007.png"]
	]
}