{
	"name": "ARC-MUND-PUB-IIB-15",
	"blobs":[[29,760,91,40],[28,747,95,12],[1,733,10,3],[1,715,9,3],[1,700,9,11],[0,674,9,5],[1,668,112,73],[28,586,84,77],[0,524,9,8],[52,521,12,3],[0,512,9,10],[24,511,5,3],[12,510,83,69],[29,480,74,24],[12,442,78,32],[32,437,14,3],[19,334,55,8],[36,330,17,3],[13,317,70,11],[13,303,44,13],[20,296,45,5],[13,209,3,3],[28,203,50,5],[23,196,36,6],[64,178,3,3],[58,174,12,3],[17,172,65,22],[33,168,12,3],[33,161,36,6],[19,161,11,3],[1,1572,6,3],[43,1559,39,40],[12,1559,31,40],[0,1558,9,6],[27,1551,36,5],[0,1548,8,4],[72,1545,4,3],[28,1504,99,35],[0,1473,8,4],[0,1468,8,3],[1,1449,6,3],[1,1441,6,3],[0,1423,7,3],[13,1420,99,79],[27,1351,100,64],[1,1309,5,3],[0,1300,9,3],[14,1270,79,75],[28,1208,95,57],[28,1197,80,12],[1,1163,5,3],[14,1159,79,33],[0,1147,6,5],[14,1134,82,25],[73,1129,4,3],[27,1054,86,70],[27,1050,4,3],[0,1020,8,3],[1,1013,9,3],[0,991,8,3],[0,985,6,3],[14,984,89,61],[28,892,92,86],[1,874,10,3],[0,848,9,5],[1,840,8,3],[12,814,89,72],[1,812,8,7],[74,810,3,3],[29,800,84,5],[11,1797,66,38],[70,1795,4,3],[27,1736,64,54],[12,1680,66,51],[71,1678,4,3],[28,1605,70,68]],
	"pngs":[
		["pngs/txt/ARC-MUND-PUB-IIB-15.00000.png","pngs/opencv/ARC-MUND-PUB-IIB-15.00000.png"],
		["pngs/txt/ARC-MUND-PUB-IIB-15.00001.png","pngs/opencv/ARC-MUND-PUB-IIB-15.00001.png"],
		["pngs/txt/ARC-MUND-PUB-IIB-15.00002.png","pngs/opencv/ARC-MUND-PUB-IIB-15.00002.png"]
	]
}