{
	"name": "ARC-MUND-PUB-BULLETIN-IIB-92-BIBLIOTHEQUES-ANGLETERRE-1908",
	"blobs":[[23,759,168,41],[22,674,83,62],[108,672,85,65],[22,585,168,66],[22,502,170,62],[109,496,73,8],[22,495,79,6],[108,411,86,62],[22,411,84,62],[21,324,184,65],[21,324,84,45],[107,268,111,35],[131,264,16,3],[25,261,61,24],[153,260,12,3],[147,260,4,3],[107,260,15,3],[128,258,14,5],[123,199,10,4],[104,175,113,49],[150,171,20,6],[145,170,3,3],[169,168,3,4],[116,149,96,21],[114,137,123,16],[135,132,10,7],[144,127,9,7],[166,122,10,3],[122,118,36,11],[119,107,46,13],[130,106,3,3],[126,102,5,5],[139,101,7,7],[66,75,6,3],[14,74,50,5],[29,56,58,8],[34,52,41,3],[21,52,12,3],[38,45,12,3],[28,45,4,3],[51,40,13,3],[12,40,15,3],[41,35,7,3],[23,21,101,11],[21,1101,84,49],[21,1021,170,58],[22,1017,77,3],[109,1014,70,9],[108,962,83,31],[22,950,85,43],[108,930,78,31],[22,930,81,19],[21,863,84,45],[108,847,84,61],[22,847,80,14],[22,800,168,25]],
	"pngs":[
		["pngs/txt/ARC-MUND-PUB-BULLETIN-IIB-92-BIBLIOTHEQUES-ANGLETERRE-1908.00000.png","pngs/opencv/ARC-MUND-PUB-BULLETIN-IIB-92-BIBLIOTHEQUES-ANGLETERRE-1908.00000.png"],
		["pngs/txt/ARC-MUND-PUB-BULLETIN-IIB-92-BIBLIOTHEQUES-ANGLETERRE-1908.00001.png","pngs/opencv/ARC-MUND-PUB-BULLETIN-IIB-92-BIBLIOTHEQUES-ANGLETERRE-1908.00001.png"]
	]
}