{
	"name": "ARC-MUND-PUB-UAI-CONGRES-25-INT-UNIVERSITIES-1913",
	"blobs":[[19,442,78,29],[19,415,74,4],[107,404,74,16],[19,403,76,6],[19,392,74,7],[19,388,67,3],[19,381,66,4],[107,376,77,29],[107,375,13,5],[19,347,76,25],[19,340,66,3],[106,323,76,54],[19,322,75,17],[107,251,77,50],[21,251,77,50],[105,178,77,51],[21,178,79,51],[105,109,79,46],[19,108,81,48],[15,53,78,33],[15,36,74,19],[47,32,6,6],[38,31,3,3],[29,23,42,10]],
	"pngs":[
		["pngs/txt/ARC-MUND-PUB-UAI-CONGRES-25-INT-UNIVERSITIES-1913.00000.png","pngs/opencv/ARC-MUND-PUB-UAI-CONGRES-25-INT-UNIVERSITIES-1913.00000.png"]
	]
}