{
	"name": "ARC-MUND-PUB-UAI-CONGRES-39-STANDARDISATION-1913",
	"blobs":[[158,362,3,3],[21,319,153,56],[55,319,3,3],[48,319,6,3],[20,292,74,7],[107,288,76,11],[113,283,60,4],[20,243,77,47],[107,241,76,40],[19,204,79,16],[106,169,77,51],[20,169,75,34],[21,98,71,50],[107,95,76,53],[17,67,88,7],[17,53,77,13],[44,47,13,3],[62,39,13,3],[24,39,5,3],[18,39,5,3],[30,38,30,7],[14,22,71,11]],
	"pngs":[
		["pngs/txt/ARC-MUND-PUB-UAI-CONGRES-39-STANDARDISATION-1913.00000.png","pngs/opencv/ARC-MUND-PUB-UAI-CONGRES-39-STANDARDISATION-1913.00000.png"]
	]
}