{
	"name": "ARC-MUND-PUB-IIB-26",
	"blobs":[[28,758,78,42],[15,700,107,49],[71,696,3,3],[66,696,3,3],[61,696,3,3],[46,696,3,3],[7,696,5,3],[2,696,3,3],[54,695,3,3],[25,695,7,3],[33,694,7,5],[27,628,87,64],[18,581,112,38],[37,576,12,3],[52,575,4,3],[73,565,3,3],[63,565,3,3],[27,565,6,3],[9,565,4,3],[5,565,3,3],[77,564,6,3],[69,564,3,3],[38,564,3,3],[17,467,73,16],[31,460,23,3],[30,348,41,8],[1,348,4,6],[18,310,78,27],[24,303,41,4],[6,299,4,3],[74,298,3,3],[18,298,3,4],[13,298,3,3],[25,297,4,3],[83,296,3,3],[31,296,11,6],[34,285,32,10],[40,281,4,3],[24,281,4,3],[29,280,7,7],[78,279,4,3],[40,274,5,4],[72,271,12,5],[64,269,3,3],[84,268,3,3],[32,268,4,3],[39,267,8,5],[43,264,7,3],[58,261,25,8],[49,259,6,3],[24,259,5,3],[39,258,6,5],[62,257,5,3],[72,254,8,8],[44,248,4,5],[48,246,5,3],[76,244,7,3],[22,244,5,3],[28,243,4,4],[61,239,5,4],[33,234,26,19],[83,233,4,3],[66,230,3,3],[57,229,4,3],[7,218,4,3],[30,217,54,7],[71,182,5,3],[20,181,80,28],[24,178,4,3],[25,172,42,4],[29,1551,82,46],[12,1501,81,38],[14,1494,55,6],[33,1492,8,3],[64,1478,9,3],[1,1478,4,3],[78,1477,3,3],[58,1477,4,6],[53,1477,3,3],[23,1477,16,5],[7,1477,5,4],[41,1392,6,3],[15,1347,90,44],[54,1334,8,3],[28,1290,84,43],[46,1220,3,3],[2,1220,4,3],[54,1219,4,3],[14,1219,4,4],[8,1219,5,4],[80,1218,3,3],[61,1218,3,3],[13,1218,88,63],[21,1218,4,3],[54,1211,8,4],[29,1158,86,52],[13,1123,101,25],[39,1109,9,3],[16,1105,55,3],[30,1088,3,3],[14,1088,5,3],[2,1088,4,3],[9,1087,3,3],[67,1086,8,5],[61,1086,3,3],[54,1086,4,3],[46,1086,3,3],[34,1086,3,3],[21,1086,4,3],[80,1085,3,3],[26,1085,3,3],[42,1001,4,3],[14,945,76,18],[80,939,3,3],[67,939,3,3],[54,939,5,3],[46,939,3,3],[25,939,5,3],[9,939,4,3],[2,939,4,3],[28,884,81,52],[15,825,79,50],[28,800,104,16],[28,2379,16,3],[24,2378,69,22],[39,2363,7,3],[13,2314,85,37],[27,2255,78,48],[12,2199,79,46],[26,2145,85,44],[41,2131,7,3],[13,2085,80,46],[54,2071,8,3],[29,2026,80,44],[12,1965,81,50],[60,1951,3,3],[54,1951,5,3],[29,1904,81,46],[37,1890,6,3],[2,1849,3,3],[12,1847,80,42],[27,1792,81,44],[13,1730,80,51],[53,1716,7,3],[26,1668,86,47],[13,1609,80,48],[13,3155,89,45],[26,3137,73,7],[26,3126,17,6],[40,3125,65,12],[73,3111,23,5],[73,3104,26,5],[51,3103,58,20],[15,3046,88,46],[25,2982,85,53],[15,2946,80,25],[54,2938,10,3],[17,2932,35,3],[52,2904,8,4],[27,2851,79,25],[23,2834,60,6],[76,2829,4,3],[29,2821,34,12],[11,2796,84,26],[54,2782,3,3],[48,2782,5,3],[23,2736,88,45],[61,2710,13,3],[17,2675,86,50],[23,2616,83,47],[12,2553,81,51],[24,2492,79,50],[13,2430,83,52],[25,2400,68,13],[17,3952,84,48],[25,3893,92,49],[17,3835,87,48],[30,3764,98,61],[30,3764,3,3],[15,3731,4,3],[13,3706,93,48],[16,3706,5,3],[26,3687,5,3],[26,3669,5,4],[26,3649,5,6],[26,3644,96,52],[19,3630,5,3],[19,3585,92,49],[30,3537,4,4],[30,3533,4,3],[30,3526,94,49],[30,3526,3,3],[16,3509,4,3],[16,3461,91,54],[17,3461,5,6],[29,3446,5,4],[29,3437,4,3],[30,3430,5,3],[30,3411,4,3],[30,3405,4,3],[30,3401,5,3],[30,3397,95,53],[30,3397,5,3],[9,3384,3,3],[17,3355,97,31],[38,3347,12,3],[23,3347,7,3],[24,3319,74,7],[24,3302,76,16],[61,3276,11,3],[38,3276,17,3],[17,3275,18,4],[43,3271,7,3],[24,3267,17,3],[30,3218,78,17],[38,3203,9,4],[13,3200,70,2],[14,4735,66,64],[25,4651,65,74],[11,4568,75,74],[23,4492,67,67],[14,4413,68,69],[26,4391,87,12],[25,4355,8,3],[33,4341,16,3],[19,4341,7,3],[27,4250,101,55],[48,4203,4,3],[16,4187,96,54],[16,4187,3,3],[22,4160,3,3],[31,4128,92,49],[31,4128,5,3],[10,4091,3,3],[15,4070,92,47],[27,4014,91,45],[23,4000,61,3],[17,4000,5,3],[27,5595,44,5],[17,5550,7,5],[18,5537,6,3],[17,5527,92,58],[15,5527,8,3],[27,5508,7,9],[25,5458,73,57],[16,5396,96,53],[27,5358,5,3],[27,5351,6,5],[27,5333,93,54],[24,5333,5,3],[17,5260,97,63],[14,5260,4,3],[11,5117,75,55],[24,5113,21,3],[43,5021,11,3],[24,5021,10,3],[51,5014,17,3],[13,5013,33,7],[24,4948,62,30],[15,4878,65,61],[26,4808,69,61],[70,6386,4,3],[24,6384,58,16],[16,6308,95,65],[58,6294,4,3],[25,6238,97,58],[58,6198,4,3],[65,6171,5,3],[59,6166,18,4],[14,6166,95,62],[22,6151,3,3],[22,6099,92,57],[73,6085,3,3],[16,6039,74,50],[29,5962,92,67],[14,5904,90,48],[25,5834,68,60],[15,5775,96,49],[1,5767,8,4],[25,5712,97,53],[15,5653,92,49],[30,5600,91,44],[30,5600,4,3],[14,7175,69,25],[23,7170,11,3],[23,7165,35,8],[14,7165,7,3],[12,7024,84,42],[25,6963,82,51],[76,6929,6,3],[14,6905,64,48],[24,6823,70,72],[15,6745,84,67],[78,6666,5,3],[28,6664,83,70],[12,6629,68,24],[13,6600,83,24],[75,6559,3,3],[73,6535,10,3],[23,6535,72,54],[68,6477,4,3],[67,6473,6,3],[17,6462,73,62],[24,6400,90,51],[13,7922,124,72],[22,7835,110,74],[15,7828,5,4],[17,7778,103,45],[59,7771,16,3],[58,7758,4,3],[55,7751,4,4],[22,7719,90,28],[24,7701,5,4],[11,7466,76,69],[38,7462,6,4],[24,7387,70,69],[12,7309,75,68],[23,7228,74,72],[13,7200,70,18],[32,8793,21,3],[25,8793,4,3],[31,8779,4,3],[14,8742,78,14],[55,8734,7,3],[24,8731,27,6],[58,8699,33,11],[53,8690,40,8],[22,8654,78,58],[25,8649,11,3],[37,8647,43,6],[27,8640,8,3],[23,8623,8,3],[14,8576,80,30],[25,8488,72,75],[90,8476,4,3],[11,8434,66,42],[60,8424,6,4],[13,8422,54,11],[23,8409,4,4],[28,8382,4,3],[33,8363,100,41],[26,8352,17,5],[90,8344,4,3],[11,8275,4,3],[11,8268,136,76],[23,8177,114,82],[24,8175,4,3],[90,8166,4,3],[15,8097,114,69],[25,8003,121,85],[37,9598,26,2],[22,9596,13,4],[68,9595,5,3],[25,9552,86,25],[13,9480,80,61],[23,9413,106,57],[13,9373,78,33],[12,9348,80,29],[23,9289,112,52],[27,9275,44,4],[59,9267,5,3],[12,9261,41,5],[12,9234,76,26],[29,9220,31,3],[96,9203,3,3],[81,9189,6,18],[25,9164,76,7],[3,9140,3,3],[13,9093,110,60],[22,9038,78,48],[14,8987,104,41],[24,8981,4,3],[25,8918,99,50],[4,8860,3,3],[15,8853,75,54],[26,8817,5,3],[25,8811,100,31],[26,8804,58,5],[13,10362,85,38],[22,10290,78,61],[13,10225,86,54],[21,10164,78,49],[15,10105,112,48],[21,10032,84,61],[15,9968,110,53],[22,9913,110,44],[16,9885,73,13],[16,9870,74,14],[15,9856,77,12],[21,9850,37,5],[23,9792,80,43],[14,9725,98,55],[21,9653,81,61],[15,9603,78,41],[33,9600,21,2],[34,10582,7,3],[44,10570,4,3],[27,10556,78,13],[29,10545,51,11],[82,10544,5,3],[43,10531,3,4],[13,10482,81,36],[23,10420,77,50],[13,10400,73,9]],
	"pngs":[
		["pngs/txt/ARC-MUND-PUB-IIB-26.00000.png","pngs/opencv/ARC-MUND-PUB-IIB-26.00000.png"],
		["pngs/txt/ARC-MUND-PUB-IIB-26.00001.png","pngs/opencv/ARC-MUND-PUB-IIB-26.00001.png"],
		["pngs/txt/ARC-MUND-PUB-IIB-26.00002.png","pngs/opencv/ARC-MUND-PUB-IIB-26.00002.png"],
		["pngs/txt/ARC-MUND-PUB-IIB-26.00003.png","pngs/opencv/ARC-MUND-PUB-IIB-26.00003.png"],
		["pngs/txt/ARC-MUND-PUB-IIB-26.00004.png","pngs/opencv/ARC-MUND-PUB-IIB-26.00004.png"],
		["pngs/txt/ARC-MUND-PUB-IIB-26.00005.png","pngs/opencv/ARC-MUND-PUB-IIB-26.00005.png"],
		["pngs/txt/ARC-MUND-PUB-IIB-26.00006.png","pngs/opencv/ARC-MUND-PUB-IIB-26.00006.png"],
		["pngs/txt/ARC-MUND-PUB-IIB-26.00007.png","pngs/opencv/ARC-MUND-PUB-IIB-26.00007.png"],
		["pngs/txt/ARC-MUND-PUB-IIB-26.00008.png","pngs/opencv/ARC-MUND-PUB-IIB-26.00008.png"],
		["pngs/txt/ARC-MUND-PUB-IIB-26.00009.png","pngs/opencv/ARC-MUND-PUB-IIB-26.00009.png"],
		["pngs/txt/ARC-MUND-PUB-IIB-26.00010.png","pngs/opencv/ARC-MUND-PUB-IIB-26.00010.png"],
		["pngs/txt/ARC-MUND-PUB-IIB-26.00011.png","pngs/opencv/ARC-MUND-PUB-IIB-26.00011.png"],
		["pngs/txt/ARC-MUND-PUB-IIB-26.00012.png","pngs/opencv/ARC-MUND-PUB-IIB-26.00012.png"],
		["pngs/txt/ARC-MUND-PUB-IIB-26.00013.png","pngs/opencv/ARC-MUND-PUB-IIB-26.00013.png"]
	]
}