{
	"name": "ARC-MUND-PUB-BULLETIN-IIB-5-1900",
	"blobs":[[28,778,72,22],[50,774,17,3],[65,770,10,3],[58,770,5,3],[38,770,13,3],[28,770,9,3],[117,763,61,21],[141,763,3,3],[54,763,12,3],[56,698,42,3],[118,697,5,9],[30,697,80,43],[38,688,71,9],[31,682,78,4],[115,675,92,70],[30,672,79,9],[141,670,11,3],[55,670,12,3],[170,632,7,6],[28,632,66,20],[87,627,11,3],[63,627,23,3],[164,595,16,16],[114,594,82,58],[95,594,10,3],[81,594,13,6],[29,594,82,37],[165,582,15,9],[153,582,4,6],[114,582,21,9],[36,580,61,16],[30,557,75,5],[67,553,3,3],[115,533,86,28],[124,520,55,12],[29,509,88,48],[123,504,56,15],[58,504,5,3],[161,476,18,5],[169,466,6,3],[28,420,182,67],[29,343,181,60],[137,323,3,3],[114,265,97,55],[120,236,21,3],[130,232,39,11],[117,184,76,6],[138,171,20,3],[119,167,18,8],[162,160,9,3],[156,160,3,3],[142,160,11,3],[120,160,19,3],[123,150,15,3],[142,147,5,3],[114,141,12,3],[140,138,15,6],[129,132,10,3],[23,108,76,5],[45,90,15,4],[68,83,9,3],[63,83,3,3],[49,83,11,3],[25,83,19,3],[29,74,15,3],[48,71,5,3],[20,65,12,3],[46,62,17,6],[36,57,10,3],[25,1582,169,18],[169,1557,12,3],[24,1531,5,3],[169,1501,10,3],[56,1500,10,3],[24,1499,175,65],[169,1472,12,6],[110,1460,98,21],[112,1442,103,17],[26,1440,5,3],[111,1436,7,3],[171,1416,12,3],[26,1415,177,65],[143,1414,10,3],[61,1413,8,3],[57,1413,3,3],[112,1386,5,3],[112,1380,5,3],[112,1375,5,3],[112,1365,94,30],[122,1349,85,13],[123,1349,15,3],[30,1344,64,48],[55,1308,3,3],[116,1288,86,38],[130,1284,41,3],[159,1280,10,3],[140,1280,17,3],[123,1280,16,3],[142,1276,10,3],[30,1276,84,12],[28,1199,215,59],[28,1127,199,54],[116,1070,88,40],[139,1063,16,5],[129,1063,7,3],[142,1057,10,3],[30,1057,87,15],[70,992,12,3],[58,992,8,3],[52,992,5,3],[31,992,15,3],[29,987,174,53],[57,987,4,3],[29,911,199,58],[55,845,28,3],[35,845,19,3],[30,838,191,55],[56,837,11,3],[28,800,74,20],[113,2391,86,9],[27,2388,85,12],[27,2366,174,24],[169,2341,13,3],[26,2317,6,3],[151,2288,3,3],[26,2288,196,60],[58,2287,10,3],[26,2245,6,4],[26,2207,181,61],[24,2126,202,63],[57,2125,10,3],[145,2124,10,3],[170,2050,10,3],[57,2049,10,3],[24,2048,175,58],[173,2000,11,3],[174,1996,8,3],[172,1976,11,3],[84,1969,12,3],[26,1967,177,63],[25,1896,206,53],[25,1872,81,6],[25,1830,4,4],[25,1820,174,58],[24,1741,7,3],[60,1739,7,3],[56,1739,3,3],[23,1738,183,64],[110,1680,89,41],[23,1663,165,58],[25,1600,172,44],[82,3198,11,2],[115,3196,68,4],[24,3166,87,34],[115,3165,96,29],[56,3164,10,3],[171,3135,11,3],[25,3123,84,23],[170,3113,12,3],[114,3081,86,64],[25,3081,83,41],[164,3015,20,3],[26,2995,197,67],[115,2922,83,55],[25,2922,89,55],[24,2896,6,3],[24,2841,194,63],[23,2807,175,16],[82,2766,13,3],[23,2764,186,45],[55,2764,9,3],[23,2683,205,63],[168,2680,18,3],[56,2679,10,3],[23,2679,8,3],[113,2678,43,7],[22,2600,87,61],[115,2599,92,60],[81,2572,13,3],[80,2553,14,3],[24,2520,186,61],[174,2472,9,3],[25,2441,184,60],[27,2401,7,3],[27,2400,188,22],[25,3970,198,30],[25,3970,76,8],[25,3902,182,50],[57,3902,11,3],[24,3869,82,15],[117,3857,5,3],[117,3822,94,61],[24,3822,87,46],[113,3789,7,3],[22,3749,182,55],[25,3671,85,59],[114,3670,90,58],[26,3582,200,69],[24,3498,183,65],[56,3497,10,3],[172,3441,9,3],[24,3424,180,55],[84,3393,8,3],[81,3355,11,3],[24,3337,87,69],[114,3336,99,70],[25,3312,89,6],[25,3267,197,51],[25,3267,6,4],[25,3258,176,11],[25,3226,88,12],[114,3222,88,17],[114,3207,96,14],[25,3206,83,20],[115,3200,71,8],[33,3200,62,5],[34,4791,82,9],[118,4790,77,10],[119,4764,78,9],[33,4714,185,59],[65,4681,10,15],[120,4680,83,16],[54,4678,7,18],[121,4668,72,11],[161,4663,6,3],[152,4663,6,3],[169,4662,19,5],[38,4650,10,3],[119,4624,84,37],[33,4623,82,57],[34,4534,176,70],[34,4455,181,61],[120,4398,110,39],[124,4392,84,5],[121,4337,86,25],[31,4293,190,71],[36,4206,195,68],[117,4160,108,27],[134,4153,37,3],[152,4145,19,3],[134,4145,15,3],[124,4145,9,3],[115,4102,83,11],[25,4100,90,15],[24,4046,180,56],[25,4000,181,28],[119,5579,83,21],[35,5579,81,21],[35,5528,81,31],[36,5501,168,59],[34,5429,175,54],[34,5344,179,67],[123,5278,102,8],[34,5276,186,51],[60,5271,12,3],[121,5206,81,20],[33,5192,177,62],[35,5113,214,61],[35,5033,178,62],[36,4962,79,5],[32,4957,199,59],[37,4951,56,3],[117,4945,80,14],[33,4872,182,56],[137,4871,29,25],[34,4807,97,47],[119,4800,79,53],[34,4800,86,5],[36,6385,160,15],[37,6302,221,64],[169,6238,9,3],[131,6238,58,9],[128,6234,74,3],[34,6230,173,54],[33,6157,173,52],[120,6138,85,21],[34,6122,178,34],[37,6063,169,41],[48,6052,54,10],[45,6052,17,3],[121,6046,94,31],[33,5975,180,53],[36,5934,83,23],[36,5929,77,3],[36,5904,80,24],[37,5892,73,10],[123,5886,92,70],[120,5817,80,15],[34,5817,88,51],[34,5762,81,37],[48,5755,36,5],[63,5746,16,3],[48,5746,9,3],[40,5746,5,3],[120,5738,82,61],[34,5666,93,54],[120,5665,87,31],[35,5600,170,47],[35,7185,172,15],[184,7163,3,3],[37,7090,186,72],[124,7089,89,12],[37,7048,60,3],[36,7043,180,27],[36,7005,168,40],[36,6974,80,12],[34,6917,179,67],[36,6826,189,72],[36,6744,202,64],[36,6663,196,62],[37,6607,84,25],[37,6602,77,4],[37,6556,173,89],[36,6473,189,65],[36,6400,203,55],[34,7968,183,32],[37,7883,80,14],[36,7882,215,67],[131,7852,46,10],[119,7842,57,9],[121,7842,7,3],[41,7796,72,67],[121,7791,79,49],[138,7781,35,9],[37,7781,88,16],[117,7709,73,7],[36,7702,184,60],[42,7616,196,67],[142,7533,11,3],[39,7533,202,66],[144,7438,10,3],[41,7437,221,78],[90,7379,6,10],[50,7379,6,10],[40,7379,9,10],[36,7367,171,55],[36,7367,81,11],[89,7299,3,3],[59,7299,29,6],[55,7299,3,6],[37,7292,177,57],[162,7287,3,3],[156,7287,3,3],[149,7287,3,3],[155,7283,3,3],[149,7283,3,3],[148,7279,25,7],[141,7279,7,11],[37,7274,90,24],[123,7272,75,6],[35,7200,170,57],[107,8742,3,3],[101,8742,5,3],[27,8742,73,3],[27,8726,54,9],[26,8709,146,84],[81,8708,13,6],[27,8708,53,6],[142,8699,3,3],[138,8699,3,3],[27,8696,110,14],[97,8692,5,3],[27,8692,69,6],[103,8686,73,11],[51,8682,58,6],[36,8680,11,3],[51,8667,8,3],[137,8661,3,3],[131,8661,5,3],[27,8658,124,26],[27,8652,74,8],[89,8648,5,3],[73,8648,5,3],[27,8648,34,3],[127,8632,6,3],[123,8632,3,3],[117,8632,5,3],[86,8632,30,3],[121,8626,5,5],[113,8622,3,3],[107,8622,5,3],[27,8618,139,36],[35,8611,7,3],[95,8607,5,3],[54,8602,66,18],[84,8594,110,3],[50,8587,33,17],[67,8584,15,5],[116,8580,18,6],[96,8579,5,3],[83,8572,14,9],[54,8571,9,3],[29,8565,27,3],[41,8551,155,22],[118,8480,83,34],[131,8474,5,3],[122,8465,51,13],[35,8459,83,33],[36,8382,188,59],[37,8306,189,58],[41,8232,14,3],[35,8226,197,62],[34,8137,214,70],[35,8051,208,68],[34,8000,213,32],[119,9590,82,10],[36,9589,82,11],[121,9495,81,4],[35,9495,174,77],[35,9405,178,72],[33,9329,174,58],[121,9317,86,41],[33,9316,80,12],[58,9237,11,3],[32,9236,183,63],[34,9193,85,25],[33,9145,175,74],[33,9144,76,7],[119,9080,59,10],[34,9074,171,52],[165,9042,12,3],[133,9042,16,3],[33,9017,182,39],[36,9010,86,4],[118,8999,85,9],[118,8960,80,16],[34,8913,176,68],[133,8874,3,3],[54,8869,16,5],[32,8868,167,27],[138,8863,42,7],[155,8860,14,4],[121,8859,11,6],[149,8856,4,5],[174,8855,5,3],[186,8851,43,3],[169,8851,16,6],[32,8843,77,6],[52,8824,22,6],[37,8815,67,3],[32,8810,180,46],[32,10390,169,10],[122,10347,86,24],[32,10311,180,59],[36,10290,21,3],[122,10271,80,21],[35,10218,174,60],[36,10197,20,3],[119,10132,89,27],[34,10132,175,68],[39,10110,20,3],[38,10051,173,63],[14,10031,3,3],[38,9962,176,66],[120,9942,21,3],[35,9865,179,79],[35,9776,181,70],[34,9682,178,76],[36,9600,173,63],[102,10811,3,3],[106,10810,4,4],[121,10761,87,30],[119,10690,91,48],[120,10634,72,7],[123,10624,74,5],[155,10614,14,3],[131,10614,22,3],[36,10604,167,67],[121,10578,5,5],[121,10570,5,6],[127,10564,81,19],[121,10561,7,8],[35,10555,74,5],[35,10551,31,3],[37,10547,73,3],[35,10542,74,4],[35,10518,78,13],[35,10510,78,7],[35,10504,186,59],[131,10500,79,6],[120,10500,10,3],[154,10477,11,3],[140,10477,9,3],[129,10477,7,3],[34,10472,177,31],[32,10400,182,54]],
	"pngs":[
		["pngs/txt/ARC-MUND-PUB-BULLETIN-IIB-5-1900.00000.png","pngs/opencv/ARC-MUND-PUB-BULLETIN-IIB-5-1900.00000.png"],
		["pngs/txt/ARC-MUND-PUB-BULLETIN-IIB-5-1900.00001.png","pngs/opencv/ARC-MUND-PUB-BULLETIN-IIB-5-1900.00001.png"],
		["pngs/txt/ARC-MUND-PUB-BULLETIN-IIB-5-1900.00002.png","pngs/opencv/ARC-MUND-PUB-BULLETIN-IIB-5-1900.00002.png"],
		["pngs/txt/ARC-MUND-PUB-BULLETIN-IIB-5-1900.00003.png","pngs/opencv/ARC-MUND-PUB-BULLETIN-IIB-5-1900.00003.png"],
		["pngs/txt/ARC-MUND-PUB-BULLETIN-IIB-5-1900.00004.png","pngs/opencv/ARC-MUND-PUB-BULLETIN-IIB-5-1900.00004.png"],
		["pngs/txt/ARC-MUND-PUB-BULLETIN-IIB-5-1900.00005.png","pngs/opencv/ARC-MUND-PUB-BULLETIN-IIB-5-1900.00005.png"],
		["pngs/txt/ARC-MUND-PUB-BULLETIN-IIB-5-1900.00006.png","pngs/opencv/ARC-MUND-PUB-BULLETIN-IIB-5-1900.00006.png"],
		["pngs/txt/ARC-MUND-PUB-BULLETIN-IIB-5-1900.00007.png","pngs/opencv/ARC-MUND-PUB-BULLETIN-IIB-5-1900.00007.png"],
		["pngs/txt/ARC-MUND-PUB-BULLETIN-IIB-5-1900.00008.png","pngs/opencv/ARC-MUND-PUB-BULLETIN-IIB-5-1900.00008.png"],
		["pngs/txt/ARC-MUND-PUB-BULLETIN-IIB-5-1900.00009.png","pngs/opencv/ARC-MUND-PUB-BULLETIN-IIB-5-1900.00009.png"],
		["pngs/txt/ARC-MUND-PUB-BULLETIN-IIB-5-1900.00010.png","pngs/opencv/ARC-MUND-PUB-BULLETIN-IIB-5-1900.00010.png"],
		["pngs/txt/ARC-MUND-PUB-BULLETIN-IIB-5-1900.00011.png","pngs/opencv/ARC-MUND-PUB-BULLETIN-IIB-5-1900.00011.png"],
		["pngs/txt/ARC-MUND-PUB-BULLETIN-IIB-5-1900.00012.png","pngs/opencv/ARC-MUND-PUB-BULLETIN-IIB-5-1900.00012.png"],
		["pngs/txt/ARC-MUND-PUB-BULLETIN-IIB-5-1900.00013.png","pngs/opencv/ARC-MUND-PUB-BULLETIN-IIB-5-1900.00013.png"]
	]
}