{
	"name": "ARC-MUND-PUB-IIB-25-7-1902",
	"blobs":[[19,733,86,39],[65,728,10,3],[20,726,36,5],[87,632,3,3],[69,578,8,3],[17,578,96,50],[30,554,7,15],[18,552,3,3],[27,550,7,3],[26,514,94,55],[22,498,5,3],[22,483,7,12],[22,470,7,5],[21,460,6,3],[70,448,8,3],[22,448,91,57],[29,430,7,9],[8,423,3,3],[25,387,92,52],[87,374,3,3],[19,330,8,3],[18,327,70,45],[26,277,7,5],[25,274,96,44],[22,259,5,5],[18,215,103,50],[18,215,4,3],[71,211,7,3],[43,211,8,3],[32,200,3,3],[24,187,57,6],[23,162,62,14],[24,148,50,13],[20,148,17,4],[20,143,61,4],[25,72,92,62],[27,56,54,7],[26,30,56,15],[27,16,51,12],[24,16,16,3],[23,10,60,4],[29,810,57,6]],
	"pngs":[
		["pngs/txt/ARC-MUND-PUB-IIB-25-7-1902.00000.png","pngs/opencv/ARC-MUND-PUB-IIB-25-7-1902.00000.png"],
		["pngs/txt/ARC-MUND-PUB-IIB-25-7-1902.00001.png","pngs/opencv/ARC-MUND-PUB-IIB-25-7-1902.00001.png"]
	]
}