{
	"name": "ARC-MUND-PUB-UAI-CONGRES-52-INT-MATH-1913",
	"blobs":[[19,681,82,36],[18,606,175,54],[18,566,85,18],[18,560,78,3],[18,537,85,22],[20,533,79,3],[119,528,4,3],[106,514,90,71],[18,514,86,13],[105,440,86,53],[19,440,85,52],[19,363,173,56],[19,331,76,12],[106,326,84,17],[143,325,4,3],[19,315,76,10],[19,302,76,10],[19,295,75,3],[19,279,80,13],[19,274,72,3],[105,259,90,68],[19,258,80,14],[105,193,78,45],[19,193,78,44],[20,137,77,35],[20,129,70,3],[105,125,81,47],[19,121,74,6],[19,102,78,15],[105,101,78,25],[17,57,76,22],[50,40,15,3],[13,23,82,32]],
	"pngs":[
		["pngs/txt/ARC-MUND-PUB-UAI-CONGRES-52-INT-MATH-1913.00000.png","pngs/opencv/ARC-MUND-PUB-UAI-CONGRES-52-INT-MATH-1913.00000.png"]
	]
}