{
	"name": "ARC-MUND-PUB-BULLETIN-IIB-10-1905-FASC-1_6",
	"blobs":[[112,769,85,31],[26,769,86,31],[112,706,95,46],[26,706,86,47],[113,646,79,19],[25,644,181,46],[25,586,83,42],[113,585,83,42],[25,513,170,55],[112,483,85,14],[124,476,67,6],[112,465,85,10],[117,458,48,5],[114,426,76,5],[133,403,21,3],[158,396,9,3],[152,396,3,3],[137,396,13,3],[119,396,15,3],[120,387,15,3],[140,384,5,3],[112,379,26,3],[140,376,5,3],[153,372,3,3],[127,371,10,3],[30,334,86,17],[58,328,3,3],[114,322,21,3],[124,318,39,11],[29,299,80,15],[29,299,10,3],[24,273,4,8],[24,234,5,37],[103,226,3,3],[105,225,84,58],[22,216,86,67],[109,215,79,9],[27,159,210,39],[112,155,21,6],[29,125,74,10],[63,89,17,3],[47,89,12,3],[42,89,4,3],[31,89,8,3],[152,87,10,3],[27,87,168,72],[110,87,16,3],[23,45,96,28],[20,38,29,6],[72,33,4,3],[33,30,22,7],[47,23,52,9],[32,23,3,3],[163,1584,4,3],[30,1507,177,80],[30,1445,172,46],[29,1445,81,36],[29,1382,190,47],[29,1308,191,58],[27,1246,189,46],[28,1169,190,61],[28,1106,193,48],[27,1032,172,58],[26,972,181,44],[25,904,185,52],[25,904,86,44],[27,828,189,60],[27,800,167,12],[143,2398,12,2],[125,2396,12,3],[153,2388,10,3],[30,2357,80,23],[29,2328,225,72],[25,2297,4,3],[25,2293,4,3],[87,2288,13,10],[53,2288,5,12],[47,2288,4,3],[30,2288,22,13],[25,2288,4,3],[59,2287,50,18],[114,2280,106,31],[25,2270,81,17],[121,2269,105,10],[176,2264,32,3],[142,2264,33,3],[66,2263,75,4],[66,2259,3,3],[26,2258,39,13],[61,2255,4,5],[52,2249,3,5],[56,2242,4,3],[61,2232,16,25],[52,2227,7,7],[28,2226,16,3],[72,2223,21,5],[143,2216,5,3],[52,2203,21,22],[33,2200,7,5],[78,2199,12,3],[316,2187,81,3],[270,2187,45,3],[255,2187,14,3],[243,2187,11,3],[193,2187,49,3],[145,2187,47,3],[110,2187,34,3],[80,2187,29,3],[34,2187,8,3],[25,2187,8,3],[143,2183,3,3],[77,2182,14,3],[32,2178,11,4],[61,2174,13,3],[43,2173,36,28],[33,2169,7,6],[28,2159,84,12],[56,2154,10,3],[156,2127,36,10],[166,2126,8,3],[137,2125,5,3],[108,2125,4,3],[175,2123,9,3],[140,2118,30,15],[132,2118,7,3],[113,2118,18,5],[108,2118,4,3],[178,2115,5,3],[172,2114,5,3],[159,2113,5,3],[145,2113,11,4],[176,2110,8,3],[148,2108,23,4],[108,2108,39,9],[179,2105,8,3],[170,2105,8,3],[109,2102,3,3],[98,2101,9,3],[167,2096,17,7],[169,2092,18,3],[109,2090,3,3],[180,2088,5,3],[31,2088,112,51],[110,2084,4,3],[78,2084,7,3],[57,2084,4,3],[33,2084,13,3],[152,2074,3,3],[109,2072,85,35],[247,2062,10,3],[84,2062,9,3],[73,2062,9,3],[62,2062,9,3],[31,2062,28,3],[140,2058,4,3],[110,2056,136,18],[158,2054,19,4],[294,2047,28,3],[286,2047,7,3],[278,2047,7,3],[209,2047,68,3],[194,2047,14,3],[161,2047,32,3],[118,2047,8,3],[109,2047,8,3],[84,2047,9,3],[73,2047,9,3],[62,2047,9,3],[40,2047,16,3],[127,2037,33,19],[162,2035,11,3],[121,2034,3,3],[191,2023,60,3],[65,2023,25,3],[55,2023,9,3],[110,2017,80,22],[116,2011,11,8],[147,2010,7,4],[113,2004,71,10],[38,2000,56,14],[141,1999,9,3],[173,1981,11,3],[117,1975,15,3],[29,1938,78,16],[173,1933,9,3],[122,1933,12,4],[30,1926,81,10],[115,1925,76,59],[29,1882,80,28],[31,1876,74,5],[28,1861,166,49],[30,1821,82,23],[29,1795,176,49],[31,1733,165,46],[28,1733,85,42],[29,1663,184,54],[32,1639,186,8],[30,1603,172,35],[21,3172,178,28],[167,3152,7,3],[19,3122,170,29],[105,3097,113,23],[19,3097,80,27],[19,3026,208,53],[170,3006,7,3],[32,3006,7,3],[83,2965,13,3],[108,2957,89,27],[21,2956,188,49],[32,2936,7,3],[21,2884,201,50],[32,2864,7,3],[168,2863,7,3],[81,2860,3,3],[168,2851,12,3],[168,2814,8,3],[21,2812,185,51],[167,2790,7,3],[21,2736,172,58],[21,2684,183,34],[21,2663,176,35],[106,2653,81,17],[20,2653,72,9],[26,2617,3,3],[116,2609,7,3],[103,2609,8,3],[98,2609,4,3],[26,2609,3,3],[25,2598,4,9],[92,2593,7,3],[88,2593,3,3],[84,2593,3,3],[79,2593,3,3],[75,2593,3,3],[71,2593,3,3],[67,2593,3,3],[56,2593,10,3],[102,2588,5,3],[86,2588,15,3],[80,2588,5,3],[133,2580,31,3],[28,2578,13,3],[29,2576,166,59],[103,2549,6,3],[75,2549,27,6],[69,2549,5,8],[26,2549,42,6],[183,2531,5,3],[186,2526,3,3],[182,2526,3,3],[24,2510,162,48],[34,2506,15,6],[28,2501,7,7],[207,2499,13,3],[191,2499,15,3],[184,2499,6,3],[177,2499,6,3],[114,2493,13,3],[33,2493,57,10],[113,2491,63,11],[188,2449,6,3],[188,2443,6,3],[31,2421,219,52],[31,2400,220,4],[169,3998,12,2],[21,3984,171,16],[22,3953,81,14],[21,3909,8,3],[21,3906,183,60],[142,3905,10,3],[160,3885,15,3],[35,3885,11,3],[136,3845,30,3],[108,3837,91,7],[22,3837,205,47],[157,3816,18,3],[29,3816,18,3],[20,3766,200,49],[20,3692,179,56],[29,3671,18,3],[20,3645,170,28],[20,3619,178,28],[140,3618,10,3],[159,3598,18,3],[33,3598,12,3],[21,3548,172,49],[55,3547,10,3],[108,3478,83,22],[20,3478,172,52],[83,3450,10,3],[20,3406,187,54],[161,3386,11,3],[157,3386,3,3],[32,3386,12,3],[131,3369,37,3],[122,3364,63,3],[106,3343,119,20],[20,3341,180,44],[141,3330,10,3],[20,3330,172,13],[161,3310,17,3],[34,3310,12,3],[21,3253,185,56],[39,3232,3,3],[31,3232,3,3],[32,3224,65,6],[84,3220,9,3],[22,3220,45,3],[82,3202,9,4],[106,3200,100,35],[22,3200,82,19],[162,4784,12,3],[22,4769,86,19],[144,4730,8,3],[140,4730,3,3],[59,4730,10,3],[22,4730,176,55],[22,4656,182,56],[161,4634,15,3],[33,4634,12,3],[29,4634,3,3],[21,4621,84,12],[48,4617,32,3],[20,4584,181,49],[8,4583,4,3],[136,4534,32,3],[22,4517,181,50],[143,4513,11,3],[56,4513,11,3],[162,4492,10,3],[157,4492,3,3],[32,4491,19,3],[164,4458,16,3],[21,4451,173,33],[107,4441,85,12],[145,4436,3,3],[141,4436,3,3],[21,4436,82,14],[162,4414,11,3],[24,4404,85,14],[43,4400,51,3],[166,4355,13,3],[22,4354,172,60],[108,4353,109,21],[161,4333,11,3],[32,4333,14,3],[22,4298,166,34],[22,4281,178,36],[162,4260,12,3],[30,4260,17,3],[22,4208,179,51],[159,4188,15,3],[31,4188,16,3],[107,4170,87,7],[130,4166,43,3],[21,4133,179,54],[118,4110,62,5],[20,4053,202,62],[162,4032,13,3],[33,4032,13,3],[21,4026,77,5],[38,4022,60,3],[21,4000,179,31],[168,5598,10,2],[107,5588,103,9],[22,5563,170,37],[32,5542,14,3],[162,5541,11,3],[21,5489,179,52],[164,5468,10,3],[34,5468,13,3],[168,5428,12,3],[22,5421,181,46],[108,5410,91,10],[22,5410,91,25],[163,5390,11,3],[22,5337,181,56],[173,5291,5,3],[22,5284,88,36],[40,5279,52,3],[22,5266,189,54],[162,5246,13,3],[33,5246,14,3],[141,5197,13,3],[22,5197,198,48],[23,5169,86,11],[22,5121,184,59],[159,5101,16,3],[33,5101,16,3],[22,5049,184,51],[56,5049,11,3],[23,4960,185,71],[159,4940,15,3],[21,4907,182,35],[21,4879,178,33],[34,4859,12,3],[108,4852,89,6],[22,4852,8,3],[141,4805,12,3],[22,4805,186,53],[115,6364,67,36],[145,6360,10,3],[141,6360,3,3],[30,6359,82,41],[47,6339,3,3],[36,6339,7,3],[31,6339,3,3],[117,6338,100,3],[23,6305,175,32],[115,6299,65,8],[23,6290,94,14],[56,6288,11,3],[22,6213,177,57],[24,6136,172,60],[164,6116,11,3],[158,6116,3,3],[22,6063,177,56],[22,6063,86,17],[22,5997,175,49],[22,5926,175,54],[23,5893,80,13],[23,5873,83,19],[23,5857,173,52],[23,5802,81,14],[23,5782,183,57],[188,5773,6,3],[159,5763,18,3],[32,5763,17,3],[23,5710,183,52],[141,5709,13,3],[24,5638,182,53],[162,5617,14,3],[157,5617,3,3],[23,5600,175,20],[30,7194,84,6],[30,7176,170,24],[116,7124,112,34],[118,7120,71,3],[118,7111,16,3],[136,7109,37,8],[147,7104,13,3],[135,7104,8,3],[30,7097,83,33],[31,7031,173,48],[116,6960,81,23],[31,6959,180,55],[115,6912,107,30],[135,6907,34,4],[116,6903,69,3],[30,6895,82,24],[30,6827,84,51],[115,6826,82,51],[116,6781,107,29],[118,6772,61,6],[31,6761,84,21],[31,6734,82,10],[31,6723,83,10],[31,6714,77,6],[116,6711,83,33],[31,6705,75,3],[30,6668,83,36],[116,6667,91,46],[31,6631,81,18],[31,6610,66,6],[70,6603,16,3],[60,6603,9,3],[55,6603,4,3],[39,6603,15,3],[34,6591,196,59],[142,6587,11,3],[116,6521,89,32],[30,6521,84,48],[117,6485,80,19],[95,6473,3,3],[169,6457,6,27],[117,6457,47,27],[140,6453,10,3],[122,6450,12,3],[31,6450,85,54],[122,6445,10,3],[142,6443,45,13],[31,6436,86,10],[118,6435,78,8],[115,6406,77,12],[115,6400,74,5],[30,6400,79,16],[31,7966,82,34],[116,7965,93,35],[31,7880,214,68],[31,7880,81,20],[32,7801,231,62],[32,7722,222,62],[31,7722,82,56],[32,7641,220,63],[33,7569,179,55],[33,7497,190,55],[32,7470,77,4],[32,7407,81,37],[32,7406,201,74],[62,7386,3,3],[31,7339,189,50],[32,7255,222,66],[30,7200,185,38],[34,8780,176,20],[33,8710,188,54],[32,8654,173,39],[34,8650,42,3],[32,8621,79,27],[115,8620,92,36],[33,8563,82,11],[32,8519,184,84],[32,8447,177,56],[56,8386,20,3],[60,8380,11,3],[55,8380,4,3],[47,8380,7,3],[31,8370,190,60],[31,8338,82,14],[117,8285,118,68],[30,8284,83,50],[32,8207,221,60],[118,8206,83,25],[32,8143,78,3],[33,8140,186,49],[115,8121,84,21],[32,8121,82,17],[31,8047,176,57],[31,8018,78,8],[32,8015,207,15],[60,8014,3,3],[31,8000,167,16],[35,9569,88,17],[35,9530,176,38],[70,9466,7,3],[59,9466,9,3],[70,9459,7,3],[59,9459,9,3],[82,9458,7,4],[35,9451,175,62],[45,9444,9,3],[39,9438,161,15],[32,9364,175,57],[143,9302,26,6],[33,9292,177,55],[32,9220,177,56],[35,9142,192,62],[34,9097,66,3],[34,9094,198,32],[175,9093,4,3],[122,9091,19,4],[34,9045,193,48],[36,9004,54,3],[35,8939,172,90],[35,8853,173,70],[34,8800,174,36],[35,10228,78,6],[183,10215,34,3],[35,10196,188,57],[155,10193,27,5],[68,10162,12,3],[57,10162,10,3],[49,10162,7,3],[34,10154,191,41],[117,10110,64,25],[115,10079,86,30],[32,10004,197,59],[58,10004,11,3],[34,9956,76,3],[36,9949,79,6],[132,9932,39,5],[33,9921,193,66],[119,9856,103,48],[143,9852,8,3],[33,9770,179,59],[34,9741,96,13],[196,9733,3,3],[34,9733,90,6],[125,9729,70,23],[134,9724,20,7],[34,9719,77,3],[34,9708,88,7],[203,9704,4,3],[199,9704,3,3],[198,9700,3,3],[33,9683,166,43],[191,9682,7,5],[33,9682,87,5],[133,9678,57,11],[196,9672,7,3],[118,9672,13,4],[33,9672,84,3],[135,9662,8,4],[133,9661,62,19],[191,9648,4,3],[184,9639,4,7],[176,9639,5,8],[33,9639,168,24],[193,9631,4,3],[188,9631,4,3],[123,9631,6,6],[114,9631,3,6],[37,9619,67,6],[114,9618,4,7],[43,9613,44,3],[113,9604,87,42]],
	"pngs":[
		["pngs/txt/ARC-MUND-PUB-BULLETIN-IIB-10-1905-FASC-1_6.00000.png","pngs/opencv/ARC-MUND-PUB-BULLETIN-IIB-10-1905-FASC-1_6.00000.png"],
		["pngs/txt/ARC-MUND-PUB-BULLETIN-IIB-10-1905-FASC-1_6.00001.png","pngs/opencv/ARC-MUND-PUB-BULLETIN-IIB-10-1905-FASC-1_6.00001.png"],
		["pngs/txt/ARC-MUND-PUB-BULLETIN-IIB-10-1905-FASC-1_6.00002.png","pngs/opencv/ARC-MUND-PUB-BULLETIN-IIB-10-1905-FASC-1_6.00002.png"],
		["pngs/txt/ARC-MUND-PUB-BULLETIN-IIB-10-1905-FASC-1_6.00003.png","pngs/opencv/ARC-MUND-PUB-BULLETIN-IIB-10-1905-FASC-1_6.00003.png"],
		["pngs/txt/ARC-MUND-PUB-BULLETIN-IIB-10-1905-FASC-1_6.00004.png","pngs/opencv/ARC-MUND-PUB-BULLETIN-IIB-10-1905-FASC-1_6.00004.png"],
		["pngs/txt/ARC-MUND-PUB-BULLETIN-IIB-10-1905-FASC-1_6.00005.png","pngs/opencv/ARC-MUND-PUB-BULLETIN-IIB-10-1905-FASC-1_6.00005.png"],
		["pngs/txt/ARC-MUND-PUB-BULLETIN-IIB-10-1905-FASC-1_6.00006.png","pngs/opencv/ARC-MUND-PUB-BULLETIN-IIB-10-1905-FASC-1_6.00006.png"],
		["pngs/txt/ARC-MUND-PUB-BULLETIN-IIB-10-1905-FASC-1_6.00007.png","pngs/opencv/ARC-MUND-PUB-BULLETIN-IIB-10-1905-FASC-1_6.00007.png"],
		["pngs/txt/ARC-MUND-PUB-BULLETIN-IIB-10-1905-FASC-1_6.00008.png","pngs/opencv/ARC-MUND-PUB-BULLETIN-IIB-10-1905-FASC-1_6.00008.png"],
		["pngs/txt/ARC-MUND-PUB-BULLETIN-IIB-10-1905-FASC-1_6.00009.png","pngs/opencv/ARC-MUND-PUB-BULLETIN-IIB-10-1905-FASC-1_6.00009.png"],
		["pngs/txt/ARC-MUND-PUB-BULLETIN-IIB-10-1905-FASC-1_6.00010.png","pngs/opencv/ARC-MUND-PUB-BULLETIN-IIB-10-1905-FASC-1_6.00010.png"],
		["pngs/txt/ARC-MUND-PUB-BULLETIN-IIB-10-1905-FASC-1_6.00011.png","pngs/opencv/ARC-MUND-PUB-BULLETIN-IIB-10-1905-FASC-1_6.00011.png"],
		["pngs/txt/ARC-MUND-PUB-BULLETIN-IIB-10-1905-FASC-1_6.00012.png","pngs/opencv/ARC-MUND-PUB-BULLETIN-IIB-10-1905-FASC-1_6.00012.png"]
	]
}