{
	"name": "ARC-MUND-PUB-UAI-CONGRES-BUREAU-PANEUROPEEN-1910",
	"blobs":[[24,766,84,30],[26,761,31,3],[112,746,91,54],[25,746,86,12],[113,679,85,47],[25,679,84,47],[62,656,3,3],[26,618,82,36],[112,614,85,39],[27,605,76,6],[29,598,68,3],[43,591,38,6],[112,590,79,26],[112,525,82,45],[23,524,85,45],[27,486,81,17],[27,448,170,55],[111,381,84,46],[26,381,84,46],[27,356,75,3],[27,343,75,10],[27,338,69,3],[113,316,83,44],[114,304,74,9],[26,303,78,31],[111,245,76,38],[26,245,79,38],[25,213,72,10],[25,208,74,3],[25,204,73,3],[111,203,78,19],[25,199,70,3],[25,188,78,8],[111,184,74,21],[25,174,74,9],[26,170,63,3],[26,162,80,7],[111,145,80,41],[26,145,76,13],[109,87,81,38],[24,87,79,38],[20,39,82,27],[32,39,4,3],[38,35,40,3],[24,31,14,3],[48,27,17,7],[35,27,9,3],[81,20,5,3],[71,20,6,3],[17,20,20,6],[24,894,80,4],[24,882,75,9],[24,862,80,17],[24,836,82,21],[111,834,85,63],[165,811,11,3],[32,811,16,3],[24,803,79,6],[112,800,92,13]],
	"pngs":[
		["pngs/txt/ARC-MUND-PUB-UAI-CONGRES-BUREAU-PANEUROPEEN-1910.00000.png","pngs/opencv/ARC-MUND-PUB-UAI-CONGRES-BUREAU-PANEUROPEEN-1910.00000.png"],
		["pngs/txt/ARC-MUND-PUB-UAI-CONGRES-BUREAU-PANEUROPEEN-1910.00001.png","pngs/opencv/ARC-MUND-PUB-UAI-CONGRES-BUREAU-PANEUROPEEN-1910.00001.png"]
	]
}