{
	"name": "ARC-MUND-PUB-UAI-CONGRES-78-UNIV-INT-1913",
	"blobs":[[20,259,86,31],[21,220,81,19],[21,216,69,4],[21,212,71,3],[106,204,89,35],[21,197,79,14],[21,191,72,4],[106,185,90,17],[21,176,77,7],[106,169,84,18],[106,159,86,12],[21,159,77,8],[155,154,3,3],[106,92,77,47],[22,92,78,47],[16,52,75,19],[42,47,18,4],[38,43,43,3],[16,43,21,3],[20,37,47,4],[13,22,70,12]],
	"pngs":[
		["pngs/txt/ARC-MUND-PUB-UAI-CONGRES-78-UNIV-INT-1913.00000.png","pngs/opencv/ARC-MUND-PUB-UAI-CONGRES-78-UNIV-INT-1913.00000.png"]
	]
}