{
	"name": "ARC-MUND-PUB-IIB-25-14-1905",
	"blobs":[[29,781,74,19],[24,768,10,4],[25,744,9,3],[23,720,92,52],[30,680,7,3],[15,652,4,3],[38,651,89,60],[29,651,6,5],[59,639,15,3],[42,638,4,3],[54,637,4,3],[4,612,3,3],[4,588,4,3],[20,565,4,3],[76,563,7,3],[25,563,97,63],[35,509,86,45],[28,509,4,3],[25,435,94,65],[40,359,89,67],[28,359,4,3],[24,288,97,60],[4,281,5,5],[38,214,91,65],[27,214,4,3],[7,169,4,4],[26,145,94,59],[19,145,4,3],[76,141,4,3],[39,141,17,3],[29,71,88,60],[20,54,62,8],[20,37,44,6],[28,30,38,6],[20,23,53,6],[37,18,10,3],[47,14,18,3],[18,14,16,3],[19,9,62,4],[33,1596,9,4],[43,1587,60,13],[28,1587,13,8],[24,1569,9,8],[22,1521,90,56],[33,1499,11,13],[33,1490,10,7],[32,1459,89,53],[25,1423,3,3],[20,1391,86,57],[32,1324,93,56],[27,1324,18,5],[2,1309,3,3],[8,1308,4,5],[7,1281,4,8],[20,1252,12,7],[23,1249,84,58],[100,1235,4,4],[101,1205,3,5],[34,1185,9,5],[30,1179,8,3],[33,1176,92,53],[22,1103,107,62],[18,1103,5,3],[73,1098,6,3],[37,1098,16,3],[99,1085,6,3],[99,1069,4,3],[33,1021,77,34],[29,1021,12,6],[71,962,8,3],[22,962,82,48],[97,959,3,3],[30,897,85,56],[4,853,3,3],[22,839,7,3],[23,836,93,52],[43,830,3,3],[34,808,10,5],[33,800,83,29],[32,2389,9,11],[27,2372,89,28],[102,2361,3,3],[8,2349,3,3],[2,2343,3,3],[8,2342,3,4],[2,2333,3,3],[7,2327,4,4],[2,2324,3,8],[25,2319,9,3],[22,2304,88,58],[75,2291,3,3],[33,2281,7,3],[42,2228,81,58],[28,2228,13,13],[6,2183,3,3],[19,2167,89,51],[32,2125,12,18],[99,2116,3,3],[27,2100,91,57],[24,2062,8,3],[21,2043,12,17],[23,2040,84,50],[42,1977,71,53],[29,1977,9,6],[4,1965,4,3],[24,1938,9,6],[69,1914,11,3],[18,1914,79,54],[33,1868,9,10],[32,1851,81,54],[30,1851,12,9],[6,1851,3,3],[47,1847,16,3],[28,1847,12,3],[6,1847,3,3],[25,1811,12,11],[24,1784,87,56],[34,1762,9,13],[30,1756,8,3],[32,1723,91,52],[6,1723,5,5],[24,1705,14,8],[24,1695,10,3],[22,1663,92,51],[18,1650,4,3],[34,1638,12,6],[29,1600,91,44],[20,3139,85,61],[73,3129,4,3],[32,3063,97,65],[5,3044,3,9],[17,2988,5,3],[72,2985,5,3],[20,2985,94,41],[34,2955,10,20],[31,2945,12,6],[30,2928,7,3],[39,2917,86,58],[29,2917,5,3],[19,2884,10,3],[19,2859,95,49],[68,2855,11,3],[36,2855,16,3],[9,2842,4,3],[3,2840,5,3],[6,2834,3,5],[33,2817,8,6],[29,2800,8,3],[29,2789,8,6],[29,2786,98,37],[21,2735,10,5],[25,2724,81,51],[34,2705,10,6],[18,2694,4,3],[31,2658,86,55],[28,2658,12,3],[24,2639,9,5],[25,2628,8,3],[25,2621,8,3],[25,2611,9,3],[25,2597,14,13],[23,2590,13,6],[38,2588,63,59],[29,2574,3,3],[32,2549,13,13],[32,2534,10,12],[32,2530,9,3],[44,2510,69,53],[25,2509,16,18],[5,2494,4,6],[24,2491,10,8],[25,2463,9,17],[22,2449,13,10],[36,2446,77,53],[29,2434,10,3],[18,2431,4,3],[98,2420,4,6],[32,2418,10,7],[32,2411,10,5],[44,2400,73,27],[32,2400,9,6],[26,3280,12,7],[20,3280,4,7],[102,3249,4,3],[20,3238,4,40],[24,3217,88,73],[21,3200,81,12]],
	"pngs":[
		["pngs/txt/ARC-MUND-PUB-IIB-25-14-1905.00000.png","pngs/opencv/ARC-MUND-PUB-IIB-25-14-1905.00000.png"],
		["pngs/txt/ARC-MUND-PUB-IIB-25-14-1905.00001.png","pngs/opencv/ARC-MUND-PUB-IIB-25-14-1905.00001.png"],
		["pngs/txt/ARC-MUND-PUB-IIB-25-14-1905.00002.png","pngs/opencv/ARC-MUND-PUB-IIB-25-14-1905.00002.png"],
		["pngs/txt/ARC-MUND-PUB-IIB-25-14-1905.00003.png","pngs/opencv/ARC-MUND-PUB-IIB-25-14-1905.00003.png"],
		["pngs/txt/ARC-MUND-PUB-IIB-25-14-1905.00004.png","pngs/opencv/ARC-MUND-PUB-IIB-25-14-1905.00004.png"]
	]
}