{
	"name": "ARC-MUND-PUB-IIB-25-8-1904",
	"blobs":[[26,759,93,41],[19,746,3,3],[17,683,92,51],[27,648,7,4],[26,622,101,52],[52,619,7,3],[18,603,11,4],[3,554,6,4],[18,547,99,62],[26,485,96,52],[18,423,80,52],[26,348,90,64],[53,336,22,3],[25,336,3,3],[3,302,4,5],[4,290,5,4],[18,272,87,56],[97,259,3,3],[24,199,84,55],[16,136,80,53],[31,69,89,58],[23,54,61,6],[32,33,34,6],[22,15,54,17],[20,15,16,3],[21,10,60,4],[27,1570,70,30],[83,1557,3,3],[22,1523,9,6],[94,1519,3,4],[19,1517,10,5],[22,1504,96,51],[56,1495,3,3],[8,1492,4,3],[8,1475,4,5],[8,1468,4,4],[30,1427,98,60],[75,1425,3,3],[23,1412,6,4],[23,1368,5,3],[23,1363,95,54],[30,1292,85,60],[59,1287,4,3],[83,1285,3,3],[23,1222,73,57],[34,1213,3,3],[32,1202,10,8],[29,1161,73,51],[55,1158,12,3],[43,1158,10,3],[40,1145,4,3],[23,1089,94,56],[40,1075,3,3],[32,1040,8,3],[32,1031,8,3],[32,1022,89,56],[45,960,12,3],[17,959,98,52],[26,930,19,5],[26,896,76,52],[0,883,3,3],[102,882,3,3],[94,878,5,6],[93,871,5,4],[4,844,3,3],[15,822,100,52],[27,800,80,14],[11,2360,3,3],[18,2358,90,42],[7,2311,3,3],[26,2299,98,49],[23,2254,7,3],[23,2252,90,37],[46,2248,12,3],[35,2248,10,3],[33,2224,6,4],[33,2215,7,3],[78,2192,10,3],[33,2189,89,49],[15,2169,3,3],[17,2128,94,51],[32,2067,88,51],[23,2037,7,3],[23,2016,9,7],[23,2011,86,45],[74,1997,3,3],[32,1990,9,10],[28,1980,7,3],[27,1954,98,46],[80,1940,3,3],[23,1920,7,3],[23,1911,4,3],[18,1893,6,3],[23,1890,90,48],[97,1876,3,3],[32,1868,7,6],[32,1861,5,3],[28,1853,3,4],[32,1852,7,7],[9,1850,3,3],[32,1830,83,48],[67,1816,4,3],[21,1760,92,49],[38,1742,90,7],[30,1737,5,4],[82,1720,4,3],[30,1718,7,13],[26,1700,83,40],[23,1652,6,3],[23,1637,92,56],[49,1630,3,3],[18,1624,3,3],[13,1623,3,3],[39,1600,76,24],[31,1600,9,20],[21,3193,9,7],[21,3180,8,12],[22,3173,7,3],[28,3161,81,39],[20,3147,6,3],[25,3127,5,5],[32,3119,6,5],[32,3102,9,11],[32,3095,83,47],[19,3082,3,3],[22,3055,9,14],[22,3042,8,12],[22,3036,7,3],[30,3024,82,46],[19,3024,13,11],[34,3020,22,3],[45,3007,3,3],[32,2995,9,9],[31,2987,8,3],[31,2952,89,52],[19,2938,3,3],[16,2881,90,47],[44,2877,12,3],[32,2877,10,3],[28,2812,87,53],[19,2754,92,49],[61,2740,3,3],[12,2739,4,3],[10,2725,3,3],[16,2701,3,3],[30,2699,9,40],[30,2692,9,6],[38,2686,77,53],[18,2621,97,54],[30,2555,92,55],[19,2491,89,53],[31,2429,9,16],[30,2426,83,54],[60,2413,4,3],[31,2400,57,12],[23,2400,7,12],[28,3960,52,12],[22,3901,64,48],[14,3877,3,3],[30,3852,6,6],[26,3836,95,50],[22,3772,91,50],[17,3772,5,3],[46,3767,12,3],[34,3767,10,3],[9,3762,3,3],[29,3750,6,3],[29,3745,6,3],[29,3736,6,3],[29,3729,7,5],[29,3722,5,3],[29,3717,8,4],[37,3711,81,47],[71,3708,3,3],[100,3706,3,3],[22,3692,6,6],[22,3677,7,12],[22,3673,6,3],[22,3668,6,3],[22,3656,8,10],[30,3652,84,50],[28,3616,6,3],[29,3591,7,22],[28,3584,93,57],[8,3570,3,3],[2,3555,3,3],[23,3552,7,3],[23,3541,8,9],[18,3520,96,52],[31,3505,6,3],[95,3492,3,3],[19,3475,4,3],[69,3460,3,3],[26,3460,93,49],[23,3430,7,5],[23,3419,8,10],[20,3403,10,14],[24,3400,85,49],[30,3340,84,50],[24,3304,6,3],[21,3283,12,19],[20,3280,89,50],[33,3234,7,6],[33,3227,6,6],[33,3220,84,50],[66,3200,3,2],[31,3200,57,9],[21,3200,10,8],[21,4761,6,3],[16,4756,91,44],[32,4692,89,53],[27,4692,16,12],[18,4678,3,3],[21,4663,11,3],[21,4612,89,55],[25,4598,4,3],[31,4582,10,9],[31,4577,10,4],[31,4570,10,6],[31,4566,8,3],[31,4537,89,55],[18,4523,3,3],[55,4522,3,3],[40,4521,9,3],[60,4520,22,5],[24,4519,3,3],[28,4458,84,54],[26,4426,4,3],[32,4414,7,3],[31,4410,5,3],[20,4409,4,3],[27,4406,3,3],[25,4381,96,62],[18,4367,4,3],[84,4362,3,3],[62,4362,15,7],[15,4353,3,3],[66,4352,11,3],[23,4349,5,4],[22,4333,7,4],[22,4305,6,5],[21,4299,87,56],[31,4273,9,14],[31,4268,8,3],[31,4263,7,4],[31,4258,8,3],[31,4254,9,3],[38,4239,87,49],[54,4234,18,4],[43,4234,10,3],[23,4179,94,43],[25,4115,99,53],[25,4080,3,3],[29,4052,90,48],[25,4045,52,5],[22,4025,4,3],[64,4010,3,3],[19,5558,3,3],[23,5553,9,13],[16,5545,90,55],[25,5540,3,3],[23,5517,3,3],[30,5479,70,56],[24,5433,9,5],[17,5408,93,60],[22,5378,3,3],[28,5347,75,51],[22,5302,10,9],[16,5301,3,3],[22,5283,91,54],[45,5279,12,3],[34,5279,10,3],[27,5244,12,21],[24,5243,3,3],[23,5218,97,51],[23,5194,11,14],[22,5163,6,3],[22,5157,81,51],[73,5144,3,3],[32,5111,10,25],[32,5093,6,4],[13,5090,5,4],[40,5084,82,54],[22,5048,10,15],[16,5045,5,5],[17,5019,92,55],[30,5003,7,4],[31,4999,7,3],[31,4993,6,3],[27,4988,3,3],[31,4979,8,5],[32,4955,87,54],[21,4895,11,6],[17,4890,79,55],[33,4859,11,11],[12,4856,3,3],[25,4819,94,61],[32,4800,60,10],[20,4800,10,10],[23,6398,6,2],[21,6367,12,11],[71,6365,10,3],[23,6365,72,35],[28,6349,10,6],[26,6299,87,56],[22,6239,10,5],[69,6236,11,3],[21,6236,84,53],[33,6213,9,9],[10,6186,5,4],[33,6165,73,61],[71,6152,5,3],[17,6098,90,51],[59,6085,3,3],[80,6046,9,3],[33,6030,13,9],[33,6024,13,5],[32,6019,78,63],[42,6006,3,3],[21,5947,12,8],[21,5942,80,59],[32,5923,10,7],[28,5877,90,55],[20,5849,6,3],[20,5837,9,10],[20,5832,6,3],[20,5826,7,5],[21,5821,8,3],[28,5819,82,48],[44,5815,12,3],[33,5815,10,3],[34,5802,8,3],[33,5790,8,4],[33,5784,6,4],[33,5767,6,3],[30,5755,10,3],[33,5752,91,53],[2,5714,3,3],[6,5713,3,3],[18,5690,88,52],[31,5671,12,9],[32,5667,8,3],[10,5655,3,3],[99,5641,3,3],[23,5633,3,3],[27,5616,93,64],[75,5612,3,3],[33,5600,41,7],[23,5600,9,7],[4,7184,5,4],[19,7176,8,3],[4,7171,4,7],[19,7170,9,5],[17,7155,91,45],[4,7155,3,3],[32,7154,10,3],[33,7135,10,7],[33,7098,85,45],[19,7044,9,3],[21,7037,90,51],[33,7033,21,3],[30,6972,93,51],[20,6945,11,16],[21,6925,10,12],[18,6910,12,11],[30,6907,70,53],[20,6906,4,3],[33,6892,9,5],[80,6885,13,4],[30,6842,89,52],[1,6825,7,7],[4,6807,3,5],[5,6798,3,3],[94,6794,4,3],[4,6781,3,3],[20,6774,10,24],[5,6773,3,4],[20,6766,90,56],[96,6755,4,7],[29,6717,9,5],[29,6712,8,3],[26,6697,87,54],[22,6678,9,8],[22,6666,10,8],[22,6654,11,8],[22,6642,10,8],[31,6638,84,49],[29,6621,10,6],[28,6606,9,7],[24,6575,94,53],[25,6548,7,5],[25,6536,9,6],[25,6524,9,11],[20,6510,13,13],[35,6507,72,58],[29,6441,91,56],[77,6426,4,5],[33,6400,52,5],[23,6400,7,5],[20,7995,10,5],[4,7990,4,3],[4,7977,4,4],[30,7971,83,29],[1,7960,4,3],[33,7915,11,11],[43,7908,82,53],[57,7895,4,3],[18,7834,100,56],[25,7766,89,58],[9,7752,3,3],[23,7697,89,54],[80,7671,3,3],[29,7644,11,42],[27,7632,12,9],[39,7629,71,56],[21,7569,11,9],[21,7566,80,52],[29,7528,5,3],[10,7520,4,3],[29,7498,88,57],[25,7498,13,29],[24,7475,10,13],[70,7435,12,3],[24,7435,90,53],[28,7405,11,20],[28,7394,86,31],[40,7383,50,10],[28,7378,10,15],[25,7371,9,5],[5,7369,6,4],[37,7368,78,14],[25,7351,8,5],[25,7347,9,3],[25,7336,9,10],[5,7316,3,3],[33,7303,86,55],[6,7302,4,3],[71,7298,11,3],[38,7298,21,3],[93,7285,4,3],[58,7285,5,3],[52,7285,4,3],[47,7285,4,3],[35,7285,11,3],[16,7285,3,3],[6,7284,5,4],[42,7265,84,4],[32,7222,89,41],[31,7200,74,12],[20,7200,9,10],[19,8765,85,35],[59,8757,6,3],[25,8647,92,47],[98,8634,4,3],[35,8616,5,6],[35,8570,5,3],[35,8566,5,3],[30,8562,97,63],[32,8560,6,4],[62,8553,3,3],[23,8537,9,12],[23,8531,6,3],[20,8500,85,51],[29,8478,10,9],[63,8438,4,3],[29,8438,85,50],[25,8423,6,4],[25,8418,6,3],[25,8402,7,13],[25,8398,6,3],[25,8390,6,3],[33,8378,86,49],[30,8318,93,49],[42,8314,21,4],[57,8300,3,3],[19,8245,78,29],[31,8221,9,14],[31,8183,6,3],[39,8174,84,61],[26,8174,13,6],[22,8157,9,6],[22,8144,9,12],[20,8113,92,51],[31,8051,88,52],[1,8037,8,3],[89,8036,9,3],[63,8032,4,3],[4,8012,4,4],[32,8000,58,28],[20,8000,11,28],[31,8869,53,6],[36,8858,3,3],[19,8800,86,33]],
	"pngs":[
		["pngs/txt/ARC-MUND-PUB-IIB-25-8-1904.00000.png","pngs/opencv/ARC-MUND-PUB-IIB-25-8-1904.00000.png"],
		["pngs/txt/ARC-MUND-PUB-IIB-25-8-1904.00001.png","pngs/opencv/ARC-MUND-PUB-IIB-25-8-1904.00001.png"],
		["pngs/txt/ARC-MUND-PUB-IIB-25-8-1904.00002.png","pngs/opencv/ARC-MUND-PUB-IIB-25-8-1904.00002.png"],
		["pngs/txt/ARC-MUND-PUB-IIB-25-8-1904.00003.png","pngs/opencv/ARC-MUND-PUB-IIB-25-8-1904.00003.png"],
		["pngs/txt/ARC-MUND-PUB-IIB-25-8-1904.00004.png","pngs/opencv/ARC-MUND-PUB-IIB-25-8-1904.00004.png"],
		["pngs/txt/ARC-MUND-PUB-IIB-25-8-1904.00005.png","pngs/opencv/ARC-MUND-PUB-IIB-25-8-1904.00005.png"],
		["pngs/txt/ARC-MUND-PUB-IIB-25-8-1904.00006.png","pngs/opencv/ARC-MUND-PUB-IIB-25-8-1904.00006.png"],
		["pngs/txt/ARC-MUND-PUB-IIB-25-8-1904.00007.png","pngs/opencv/ARC-MUND-PUB-IIB-25-8-1904.00007.png"],
		["pngs/txt/ARC-MUND-PUB-IIB-25-8-1904.00008.png","pngs/opencv/ARC-MUND-PUB-IIB-25-8-1904.00008.png"],
		["pngs/txt/ARC-MUND-PUB-IIB-25-8-1904.00009.png","pngs/opencv/ARC-MUND-PUB-IIB-25-8-1904.00009.png"],
		["pngs/txt/ARC-MUND-PUB-IIB-25-8-1904.00010.png","pngs/opencv/ARC-MUND-PUB-IIB-25-8-1904.00010.png"],
		["pngs/txt/ARC-MUND-PUB-IIB-25-8-1904.00011.png","pngs/opencv/ARC-MUND-PUB-IIB-25-8-1904.00011.png"]
	]
}