{
	"name": "ARC-MUND-PUB-UAI-CONGRES-22-INT-CONDUCT_RULE-1913",
	"blobs":[[19,403,83,23],[20,329,173,53],[106,257,76,53],[20,257,79,53],[19,182,84,55],[105,181,79,56],[19,150,74,11],[19,121,75,25],[104,90,87,71],[19,90,78,30],[18,50,76,20],[46,45,7,4],[22,34,69,10],[26,34,4,3],[14,21,70,9]],
	"pngs":[
		["pngs/txt/ARC-MUND-PUB-UAI-CONGRES-22-INT-CONDUCT_RULE-1913.00000.png","pngs/opencv/ARC-MUND-PUB-UAI-CONGRES-22-INT-CONDUCT_RULE-1913.00000.png"]
	]
}