{
	"name": "ARC-MUND-PUB-BULLETIN-OCII-1-1908",
	"blobs":[[14,785,77,15],[14,734,91,45],[94,705,4,3],[91,696,6,3],[98,692,4,3],[14,684,88,44],[90,645,5,3],[14,635,82,43],[14,586,89,43],[14,536,96,44],[15,491,85,39],[14,435,97,49],[92,418,9,3],[14,387,94,42],[14,350,89,31],[27,344,24,5],[17,344,9,3],[87,332,8,3],[14,315,76,23],[96,281,4,3],[14,269,81,40],[14,237,76,26],[33,233,13,3],[17,228,40,3],[14,195,68,24],[14,160,81,29],[14,153,56,6],[22,141,58,6],[16,127,98,5],[30,116,16,5],[14,104,31,6],[26,100,16,3],[71,91,34,3],[55,91,15,3],[39,91,15,3],[20,91,18,3],[14,45,34,5],[26,35,78,3],[14,1567,77,33],[98,1545,5,3],[94,1523,5,3],[14,1518,89,43],[87,1507,13,3],[99,1492,4,3],[14,1469,84,43],[14,1420,76,43],[91,1395,4,3],[14,1373,76,41],[99,1344,4,3],[95,1344,3,3],[14,1331,88,36],[14,1314,100,11],[95,1293,5,3],[14,1279,87,30],[90,1248,5,3],[14,1231,97,42],[14,1216,88,9],[14,1179,93,36],[14,1127,99,46],[96,1079,5,3],[14,1077,100,44],[14,1026,93,45],[93,1003,10,6],[14,976,87,44],[90,955,9,3],[14,929,82,41],[14,882,80,41],[14,834,91,42],[14,800,88,28],[96,1871,4,3],[14,1858,81,27],[92,1844,5,3],[94,1836,4,3],[14,1810,84,42],[89,1773,7,3],[14,1763,79,41],[14,1714,74,43],[93,1704,7,3],[14,1664,85,44],[14,1616,76,42],[15,1600,77,10]],
	"pngs":[
		["pngs/txt/ARC-MUND-PUB-BULLETIN-OCII-1-1908.00000.png","pngs/opencv/ARC-MUND-PUB-BULLETIN-OCII-1-1908.00000.png"],
		["pngs/txt/ARC-MUND-PUB-BULLETIN-OCII-1-1908.00001.png","pngs/opencv/ARC-MUND-PUB-BULLETIN-OCII-1-1908.00001.png"],
		["pngs/txt/ARC-MUND-PUB-BULLETIN-OCII-1-1908.00002.png","pngs/opencv/ARC-MUND-PUB-BULLETIN-OCII-1-1908.00002.png"]
	]
}