ne : 3 
livre : 2 
plus : 2 
On : 2 
peut : 2 
à : 2 
les : 2 
pour : 2 
un : 2 
Le : 1 
subsistera : 1 
que : 1 
sous : 1 
deux : 1 
formes : 1 
: : 1 
le : 1 
d’enseignement : 1 
élémentaire : 1 
et : 1 
l : 1 
ouvrage : 1 
d : 1 
imagination. : 1 
songer : 1 
utiliser : 1 
fiches : 1 
apprendre : 1 
lire : 1 
aux : 1 
enfants : 1 
ni : 1 
leur : 1 
donner : 1 
premières : 1 
notions. : 1 
non : 1 
décomposer : 1 
poème : 1 
ou : 1 
roman : 1 
en : 1 
ses : 1 
éléments : 1 
ultimes. : 1 
