









                                                                          '
                          Institut International de Bi bl.ioq r-ap   hi e
                      PUBLICA TIOX No 25           . IXDICE BIBLIOGRAPIIIQUE [02.1./]




                     CLASSIFICATION               BIBLIOGHAPHIijUE


                                        DECIMAIill

                                              -·9·-


                           TABLES GENERALES REFONDUES
                                    etablies en vue de la publication du

                       REPERrOI RE      BI BLIOGRAPH IQU    E  UN IVERSEL



                                    EDITION     FRANQAISE

                                         publlee avec Ie concours du
                               BURE?U   BIBLIOGRAPHIQUE    DE PARIS



                                 F" ASCICULE             N°     11
                                      Tables de la division [617]

                        PATHOLOGIE EXTERNE













                               INSTITUT INTERNATIONAL DE BIBLIOGRAPHIE

                        BRUXELLES, I,  rue du Musee.     PARIS, 44,  rue de Rennes.
                                        ZURICH, 38,  Eidmattstrasse.

                                               190?











                                      MANUEL DU REPERTOIRE BIBLIOGRAPHIQ[fE
                                                         UNIVERSEL
                                          [PUnT.TCATION  N° 63  DE L'INSTITUT I?TERNATIONAL  DE BmL.IOGl?APHIE]

                                    Cette publication resume  et condense  en un seul volume mis  a Jour
                                  les diverses publications fragmentaires que l'Institut  International de
                                  Bibliographie  a fait paraitre jusqu'a  ce jour  sur  son  organisation,.  ses
                                  methodes et ses travaux. Elle contient les matieres detaillees ci-apres.
                                    L'ouvrag e comporte  un volume de plus  de 2,000 pages, relie  en pleine
                                  percaline, avec disposition speciale d'onglets facilitant sa consultation. Le
                                  prix de souscription  est fixe a 30 francs par exernplaire, port en plus. Les
                                  tables de classification reproduisent in extenso Ies tables publiees separe­
                                  ment dans la publication no 25.

                                  ORGANISATION, TRAVAUX,     METHODES
                                    Organisation.
                                         I. Le Repertoire bibliographique  universel de l'Institut Interna­
                                             tional de Bibliographie.
                                         II. Statistique generale  des services et des travaux.
                                        III. Actes officiels, statuts, et  .
                                    Catalogue des travaux.
                                        IV. Catalogue c1u Repertoire bibliographique  universel, (Prototype
                                                              •
                                             du manuscrit.,
                                         V. Catalogue  de Ia «  Bibliographia  Universalis », (Contributions
                                             imprlmees.)
                                        VI. Catalogue des publications  diverses.
                                    Regtes  et methodes.
                                       VII. Etablissement des repertoires  sur  fiches  : Repertoires  des
                                            matleres, repertoires des auteurs, autres repertoires.
                                      VIII. Redaction des notices bibliographiques.
                                        IX. Publication des  notices bfbliographiques  en recueils  et  sur
                                                            '
                                             fiches.
                                        X.  Modes "divers de cooperation  au Repertoire bibliographique
                                             universel ,    \
                                        XI. Organisation des diverses collections de documents.
                                       XII. Materiel et accessoires a l'usage des repertoires.
                                   TABLES DE CLASSIFIGATIQN BIBLIOGRAPHIQUE
                                           Expose et regIes de la·Classification declmale  .
                                           Table principale.
                                           Tables auxiliaires.
                                           Index alphabetique general.


                                                      MANUEL ABREGE
                                     DU REPERTOIRE BIBLIOGRAPHIQUE            UNIVERSEL
                                          lPUBI.lCAl'ION NQ 65  DE r.Txsrrrur INTBRNATIOb'AL DE BrotlOGRAPHIX]

                                    Ce Manuel abrege comprend  les memes matieres que .le Manuel com­
                                  plet (publication  nO 63) decrit ci-dessus, sauf pour les Tables de- Classification
                                   bibliographique, qui sont limitees  aux divisions principales (environ mille
                                   rubriques).  En souscription, 3 francs.
                                    Les souscripteurs  au Manuel abreg e pourront eventuellement completer  ..
                                   cet ouvrage par I'acquisition des fascicules des Tables de classification
                                  relatifs  aux branches qui les interessent. Pour la vente de ces fascicules,
                                   voir ci-apres .?lassificatio1t  bibliograpltique decimale (publication nO 25).











                                     PATHOLOGIE EXTERNE




                   617      Pathologie         externe.     Chirurgie.


                           DIVISIONS GENERALES DE LA PATHOLOGIE EXTERNE


                                617 (0)  ,  Generalites et ouvrages generaux.
                                617.0   Pathologie externe en general.
                                6'7.1   Traumatismes en general.
                                617.2   Complications des traumatiamce.
                                617.3   Ot-thopedie. Difforrnites.
                                617.4   Affections chirurgical?s et operations par syaternes.
                                617.5   Affections chirurgicales et operations par regions.
                                617:6   Odontoiogie.
                                6'7.7   Ophtalmologie.
                                617.8   Otologie.
                                617.9   Medecine operatoire proprement dite.


                    6I7 (0)   Genera lites.  Ouvrages gcneraux.
                                  La pathologic externe et toutes ses divisions peuvcnt etre combinees avec
                                    les subdivisions de general ites, de forme, de lieu et de temps. Voir les
                                    tables speciales des subdivisions communes. dont les principales ant ete
                                    reproduices SOllS 6r6 (0). Ex.  :
                                         617 (oS) (44) RevueJ1?a1/.Faise de Chi1'IM'gie.

                    617.0    PATHOLOGIE EXTERNE EN GENE­
                               RAL.
                                           SUBDIVI'SIONS  COMMUNES


                                  Le classcment par subdivisions  communes  se realise de ln rueme maniere
                                    que pour lu pathologie interne, a. savoir :  1° Pa1' org'anes et par systtimas:
                                    les cbiffres qui correspondent a. ces subdivisions sont precedes de deux
                                    zeros;  2" par maladies: les nombres' prcpres it  ces subdivisions  sont
                                    precedes d'un zero.
                                  4 Cos subdivisions sene leis memes pour Ia pat-hologxe exteme que pour la
                                    pathologic interne. Toutefois, vu leur importance en chirurgie, il a fallu
                                    multiplier les subdivisions de ln rubrique  :
                                            .
                                         :Opl  Lesions traumatiq ues diverses.
                                  Les subdivisions de cette-rubrique sont empr?ees a la division de la
                                    pathologic externe en parbiculier  :
                                         6r7. I  Lesions .trau?atiques en general.
                                  La mauiere de combiner les subdivisions communes avec Ies subdivisions
                                    principaies  a etc exposee  en detail  sous 616.CJ; il y  aura lieu de s'y
                                    reporter. Ex.  :
                                         617.553.0011  Br1,hwes d1t
                                                         tllbe,dlgesli/.  I
                                  II r?sulte des observations qui precedent que, dans nombre de cas,  on
                                    p ourmit  indi?'e,remmcl1t  classer certaines  maladies a.  In pathologic











                            617.1            PATHOLOGIE EXTERNE


                                            exteme ou a Ia pathologie interne. Par exemple, la tuberculose testicu­
                                            laire pourruit se classer a :
                                                 6r6.63.0025  [Patholog'ie interne).
                                                 6I7.558.81.o025 (Pathologie externe).
                                           Ce sera. la nature du tr'ai temen t habituellemcnt applique qui servi-a de
                                            guide. L'usage decide,  en eflet, dans telle  ou telle maladie, si elle est
                                            plut6t du ressort du medccin que du chiru rgien. Toutefois,  en  cas de
                                            doute, il faut classer de preference a la rubrique de In. pathologic interne,
                                            qui est consideree comme Ie siege principal.

                           PATHOLOGIE EXTERNE EN PARTICULIER.
                                    Lesions   traumatiques    en  general.
                                        II  ne s'agit ici que des lesions traumn.tiques en general. Des qu'jl a'agit d'une
                                         lesion limitee a  un organe determine, le classcment  a lieu  sons la rubri que
                                         de cet organe, subdivisee par la subdivision  commune correspondn.ntc ;.\ In.
                                         lesion envisagee. Ex.  :
                                              6J7.582.0015  Frac:hI1'C d'll fCIJI1I1-.
                                              6I7.587.00II  Geinre des orror/s.
                                . II   Brulures. Gelures .
                                . 12   Choc electrique, Insolations  .
                                . 13   Contusions. Commotions  .

                                ·14    Plaies. Traumatismes.
                                         Plaies par instruments tranchants
                                141                                   .
                                .
                                .  142        contuses  .
                                .  143        dechirees  .
                                .  144        par  instruments pointus  .
                                .  145        par  annes a feu  .
                                .146.         avec corps etrangers,
                                . 147         avec complete separation des  parties  .
                                .148          empoisonnees.
                                14.9                .
                                .        Autres plaies
                                . 15   Fractures .
                                . 16   Dislocations. Luxations  .

                                . 17   Entorses  .
                                . 18   Asphyxies  .
                                . 181    Asphyxie par  air  irrespirable  .
                                . 182                les  gaz  .
                                .  184               strangulation  .
                                .185                pendaison.
                                . 186                submersion .
                                . 19   Autres traumatismes  .






                                                                                       /




                                                                                                   '---











                                     PATHOLOGIE EXTERNE


                     617.2   Complications     des traumatismes    .

                        .21     Commotion. Choc traumatique  .

                        . 22    Inflammation des plaies  .
                        . 23    Suppurations.  Abces.
                                  Lorsqu'un abcee affecte un organe, le classement  a. lieu SOllS la rubrique de
                                   cet organe subdiv isee par  .. 0023  .
                        . 24    Ulcerations  .
                        . 25    Mortification. Gangrene.
                                  Observation identiquc a celle qui a etc faite pour 617.23, sauf que lu subdi­
                                   vision  comm.u ne correspondante est  .. 0024  .

                        .  27  Tetanos.
                    617.3    Chirurgie orthopedique,     Difforrnites  ,

                               Pour la clar te du olasscmenb, toute la matiere des difformites est reunie ici,
                                bien que leur traitement n'exige pas toujours une intervention chirurgicale. O?
                                pourr'a subdiviser chacune des rubriques qui sui vent counne 61[ Anatomic.
                                   Ex.:  up .974  Anatomic de l a main.
                                       617.31.974 Developpement incomplet de 1a main.
                               Voir aussi 573.8 Nains et geunts, 573.9 Monstruosites-et phenomenes humains,
                                613,91 Tares corrgenita.les  .
                        . 31   Developpement incomplet des· organes  .

                        . 32   Suture incomplete.  Bee de Iievre .
                        . 33   Suture anormale  .

                        . 34   Commissures exagerees. Dedoublernent apparent  .
                        . 35   Suture de fcetus. Freres siamois  .

                        . 36   Organes ou  parties d'organe supplementaires  .
                        . 37   Developpement disproportionne  .

                        . 38   Transposition  ou heterotopic  .
                        . 39   Malformations congenitales.  Pied bot. Pied plat.












                            617.4             PATHOLOGIE EXTERNE                                  .,
                                                                                                  , .'
                                                                                                   "
                                                                                                  .'
                             617.4   Affections et   operations chirurgicales.
                                           Classement par systernes.
                                          Les subdivisions de cette rub rique concordent  avec celles de la pathologic
                                           interne [6t6].  La plupart des operations chirurgicales  ont  un caractere
                                           regional et sont classees pour  ce motif SOllS la rubrique suivante [617.5],
                                           dont les subdivisions sont fort detaillees. Dans le doute,  ce sera toujours
                                           sous cettc derniere rubriqae qu'il fuudra clusser de preference.
                                . 41   Systerne circulatoire  .
                                .  413   Arteres  .
                                .  414   Veines .
                                 414.002
                                .              Phlebite  .
                                •  414.0034    Varices  .
                                .  42  Appareil respir atolre  .

                                .  43           digestif .
                                ·44             lymphatique  et  glandulaire.

                                .  46           genito-urinaire  .
                                   .
                                -47'   Appareil moteur et  tegumentaire.
                                .  471   Os et  cartilage  .
                                .  471•0894     Ligatures. Sutures  .
                              ,                 Osteotomies.
                                .471.0895
                                '.471.0896      Amputations.
                                .  471.0897     Resections .
                                .  471.0898     Osteoplasties  .
                                 472                .
                                .        Articulations
                                .  472.0032     Hydartliroses  .
                                .  472,.0891    Injections intra-articulaires  .
                                .  472•0895     Arthrotomies  .
                                .  4.72.08991     Reductions des luxations  .
                                .  472.08992      Desarticulations  .
                                ·472.5     Synoviales.
                                . 472.9    Autres affections articulaires  .
                                '472.92      Raideurs articulaires.
                                .  472.93    Ankyloses  .
                                .  472.94    Lesions trophiques  .
                                                       -
                                ·474     Muscles.
                                .475     Tendons  .
                                .  476   Aponevroses.
                                :471     Tissu conjonctif sous-cutane. Muqueuses.  Bourses
                                          sereuses des muqueuses, Gaines tendineuses.
                                         Peau .
                                        . Ongles.











                                     PATHOLOGIE EXTERNE


                    617.5   Affections et   operations chirurg    icales.
                                   Classement par regions.
                                 Voir pour les affections des dents 617.6 Odontologie, pour cellea des yeux
                                  6I7.7 Ophtalmologie, pOll!: celles des oreilles 617.8 Otologie.
                        . 51   Crane. Tete. Colonne vertebrale .
                        .5p      Crane.
                        . 5I2    Regions  diverses du crane .
                        . 513    Encephale  .
                       .
                        . 513.1    Cerveau  .
                        .513.3     Protuberance.
                        . 513.8    Meninges  .
                        .  514   N erfs intracrariiens  .
                        .515    .Colonne vertebrale.
                        . 5r6    Reg-ions  diverses de la colonne vertebrale  .
                        .517     Moelle  epiniere.
                        . 518    Nerfs intrarachidiens .
                        .52    Face.
                        . 521    Levres  .
                        . 522    Bouche  .
                        .523    _  J  oues.
                        .  524   Langue  .
                        . 525    Vofite palatine. Voile du palais. Luette. Amygdales  .
                        . 526    Machoires .
                        . 526.1    Machoire superieure  .
                                  .
                        .526:2     Machoire inferieure.
                        . 527    Glandes salivaires  .
                        -.529    Autres  organes  de la face.
                        . 529.3    Sinus faciaux .
                        .53    Cou.
                        . 531    Pharynx  .
                        . 532    CEsophage  .
                        .533     Larynx.
                        . 534    Corps thyroide  .
                        . 535    Trachee .
                        . 536    Vaisseaux et lymphatiques du cou  .
                        .54    Thorax  .
                        .  5,p   Cc:eur.
                        .  543   Gros vaisseaux intrathoraciques  .
                        .544     Poumons .
                        . 545    Plevre.
                        .  547   Mediastin .












                                             PATHOLOGIE EXTERNE


                             617.548     Cage thoracique.
                                 549     Autres organes
                                .                     du thorax  .
                                .549.2     Bronches  .
                                .  549.3   Thymus  .
                                . 55   Abdomen .
                                . 55r    Paroi abdominale  .
                                . 551.0895      La parotomies  .
                                .  551.93    Hernies abdominales  .
                                .  551.93r    Hernie ombilicale  .
                                . 551.937            inguinale  .
                                . 551.939     Autres hermes.
                                .552     Peritoine et cavite abdominale.
                                . 552.002     Pcritonites et infections perrtoneales  .
                                . 552.0025      Peritonite tuberculeuse  .
                                . 553    Tube digestif sous-diaphragmatique  .
                                . 553.1    Estomac  .
                                . 553.II     Pylore  .
                                . 553.2    Intestin grele  .
                                . 553.21     Duodenum  .
                                .553.291      Perforation intestinale.
                                . 553.292     Obstruction intestinale  .
                                .553.3     Region ileo-csecale.
                                . 553.31     Crecum .
                                .553.33      Appendice ileo-csecal.
                                . 553.33.002     Appendicite  .
                                . 553·4    Gros intestin  .
                                . 553·7    Rectum
                           ..                    .
                                .553.8     Anus.
                                .  554   Mesentere. Epiploon. Mesocolon .
                                .555     Foie et voies biliaires.
                                .555.1     Voies biliaires en general.
                                . 555.3    Canalicules biliaires et origine du canal hepatique  .
                                . 555·4    Canal hepatjque  .
                                . 555.5    Canal choledoque  .
                              ..  . 555·7  Canal cystique  .
                                . 555.8    Vesicule biliaire .
                                .556     Pancreas .
                                . 557    Eate  .
                                . 558    Voies urinaires et  genitales.
                                           Pour les orgnnes urinaires et g'enitaux de la femme, voir 618 .
                                . 558.008     Troubles fonctionnels  .
                                . 558.0081      Fievre urinaire  .
                                . 558.0083      Abces urineux  .
                                . 558.0084      Infiltration d'urine  .
                                . 558.0085      Anurie  .










    .
    _











                                    PATHOLOGIE EXTERNE                 617.577


                     617.558.0086.      Retention d'urine.
                       . 558.0087       Incontinence d'urine  .
                       . 558.1     Rein et ureter es  .
                       . 558.1.0897     N ephrectornie  .
                       . 558.II     Ureteres  .
                       . 558.12     Bassinets  .
                       . 558.15     Tissus pararenaux  .
                       . 558.2     Vessie  .
                       . 558.2.002      Cystite  .
                       . 558.2.0037      Calculs vesicaux  .
                       . 558·4     ?retbJre  .
                       . 558.4.0023     Urethrite blenuorhagique  .
                       . 558-4-00231  .  Urethri te blennorhagique aigu e  .
                       . 558-4-00232                          chronique  .
                       . 558+0034[       Ftstules .
                       . 558-4-00343     Retrecissements  .
                       . 558+0&)1       Catheterisme  .
                       .558+0895        Urethrotomie.
                       .  558+0898      U rethroplastie  .
                        . 558.5    Prostate  .
                       . 558·7     Appareil genital externe  .
                       . 558.76     Penis  .
                       . 558.8     Appareil g enitalinterne  .
                       . 558.81     Testicules  .
                       . 558.82     Epididyme  .
                       . 558.83     Tunique vaginale  .
                       . 558.83.0033    Hydrocele  .
                       . 558.84     Cordon sperrnatique  ..
                       .558.893       Vesicules seminales
                       .56     P etit bassin  .

                       . 57    Membres superieurs.
                                 Chacune des subdivisions de 6I7.57 et de 017.58 pent etre subdivisee a  son
                                  tour par les divisions suivantea  :  ,I Parties molles ;  .2 Muscles ;  .3 Vais-  .
                                  seaux ;  .4 Nerfs ;  .5 Os;  .6 Articulations. Ex.  :
                                    6I7.576  Main.
                                    617.576.2  Muscles de In. main  .
                       . 571    Epaule.  Clavicule. Omoplate  .
                       . 572     Bras.  Humerus  .
                       . 573    Coude .
                       .  574   Avant-bras. Cubitus. Radius  .
                       . 575    Poig net. Metacarpe  .
                       . 576    Main.  Carpe  .
                       . 577     Doigts. Phalanges.











                                       617·58            PATHOLOGIE EXTERNE


                                         617.58    Membres inferieurs,
                                                      Voir observation faite sous 617. 57
                                            . 581    Hanche .
                                            .582     Cuisse. Femur.
                                            . 583    Genou. Rotule  .
                                            .  584   J ambe. Tibia. Perone  .
                                            . 585    Cou de pied  .
                                            . 586    Pied. Tarse. Metatarse  .
                                            .587     Orteils.
                                        617.6   Odontologie.    Art dentaire.
                                            . 61   Pulpe dentaire  .
                                            . 62   Dentine. Cement.
                                            . 63   Perioste alveolo-deritair-e .
                                            . 64   Malformations et insertions defectueuses des dents .
                                            . 65   Odontalgie.  N evralgie dentaire  .
                                            . 66
                                                   Avulsions dentaires .
                                            . 67   Plombage des dents  .
                                            . 68   Transplantation des dents  .
                                            . 6g   Dents artificielles  .
                                                     Voir aussi 617.928.6 Prot hcsc, dentiers  .
                                        617.7   Ophtalmologie.
                                            . 71   Conjonctive. Cornee. Sclerotique  .
                                            .71 I    Conjonctive
                                            ·712     Cornee,
                                            ·715     Sclerotique,
                                            . 72   Iris. Choroide. Corps ciliaire  .
                                            ·721     Chambre anterieure.
                                            ·722     Tractus uveal.
                                            . 723    Iris .
                                            ·723.002   Iritis.
                                            ·723.0033    Colobome.
                                            .  723.0039  Hernie de I'iris  .
                                            .  724   Pupille  .
                                            .725     Corps ciliaire.
                                            ·726     Chambre posterieure.
                                            . 727    Choroide  .
                                            . 73   Nerf  optique.  Retirie  .
                                            .731     Nerf optique  .
                                            . 735    Retine.
                                            ·735.8     Hemeralopic.












                                   PATHOLOGIE EXTERNE                  617.85


                   617.74    Cristallin et parties  voisines.
                      741
                      .        Cristallin  .
                      ·741.5     Cataracte.
                      ·744     Capsule cristallipe.
                      ·74}     Hurneur vitree.
                      "'749    Globe de l'oeil.
                      . 749.5    Glaucome  .
                      ·75    Troubles de la vision.
                      . 751    Myopie  .
                      . 752    Presby tie  .
                      . 753    Amblyopie  .
                      .755     Daltonisme  .
                      . 756    H yperrnetropie  .
                      . 757    Astimagtisme.
 .nts.
                      .76    Appareil musculaire. Appareil lacrymal.
                      .761     Strabisme  .
                      . 766    Canal lacryrnal.
                      .77    Paupieres  .
                      . 78   Orbite et parties voisines.

                 617.8    Otologie.
                      . 8.008    Troubles fonctionnels  .
                      .8.0081     Troubles nerveux articulaires.·
                      . 8.0082     Otalgie  .
                      . iil.0084  Troubles de I'equilibre  .
                     . 8.0086     Vertige de Meniere .
                      . 8.0087    Troubles sensoriels  .
                      . 8.00871     Hallucinations  .
                      . 8.00872     Bruits subjectifs
                                                 .
                     . 8.00875      Surdite  .
                     . 8.00876     . Surdi-rnutite  .
                      .8.00877      Audition coloree  .
                     . 8.00878      Dysacousie  .
                     . 8.00879      Autres troubles.
                     . 81    o-em- externe  .
                     . 132
                             Pavillon de l'oreille .
                                             '
                                          _..:.:,:."
                     .83     Conduit auditif externe.
                     .  84   Oreille  moyenne  .
                     .841      Osselets.
                     . 85    Membrane du tyrnpan  .












                             617.86            PATHOLOGIE EXTERNE

                               617.86    Trompe d'Eustache.

                                  .  87  Cellules mastoidiennes  .
                                  . 88   Oreille interne  .

                              6I7·9   Medecine    operatoire.
                                 ·91     Appareil instrumental.
                                 . S)II    Instruments d'apres leur nature .
                                 . gl1.1     Lavage, irrigation. Seringues, canules  .
                                 . gl1.2     Ponction .
                                 :gl1.3      Exploration, bougies, sondes.
                                 ·911.4     Prehension, compression, ecrasement,
                                 . gl1.5    Section .
                                 . gII.6    Retraction, suspension. Speculums  ..
                                                                      .
                                 .gl 1. 7   Ablation. Cauteres,
                                 . gl1.8    Suture .
                                 . 912    Instruments d'apres leur  usage  .
                                            A subdiviser par  : suivi du nombre special aux. affections a la guerison
                                              desquelles les instruments sont destines. Ex. :
                                                   617.9I2  : 617.7  Instruments d'ophtaimologie.
                                                   617.912  : 619  Instruments d'art veterinaire .
                                 . 92   Appareils orthopediques et  bandages.
                                          Voir aussi 617.3 Chirurgie orthopediq ue.
                                 .921     Extension. Contre-extension. Redressement.
                                 . 922    Maintien  .
                                 .  922.1   Attelles .
                                 . 922.8    Pessaires  .
                                 .  923   Bandages  .
                                 . g23.3  .
                                            Bandages herniaires .
                                 .  928   Prothese .
                                 . 928.6    Dentiers  .
                                              Voir aussi  6I7.?9  Dents artificielles  .
                                 . 928.7    CEil artificiel.
                                 .g28.79      Lunettes  .
                                 . g28.8    Cornets acoustiques
                                                            .
                                 . 93   Materiel de pansement et  d'operation.
                                 .  938   Fils a  ligatures  et a sutures  .
                                                                                                      /
                                 ·94    Medecine operatoire.
                                 ·94 (07)   Enseignement.
                                 ·94 (074)   Musees et collections.
                                    : 31
                                 . 94       Statistiques operatoires  .
                                 .95    Chirurgie plastique._
                                 . 96   Anesthesie chrrurgicale  .
                                          Voir aussi 615.781 Auestbesiques












                                     PATHOLOGIE EXTERNE                  617.99


                     617.97   Asepsie  et antisepsie.
                        . 971   Preoperation  .
                        ·972    Operation.
                        .  973  Postoperation  .
                        .  98  Therapeutique chirurgicale  .
                        . 989
                                Operations d'apres leur nature .
                                 Ne  sont classees ici  que  les  etudes qui traitent  des operations  d'un e
                                  maniere generate. Des qu'il a'ag it d'une operation faite  sur  un organe
                                  determine, Ie classement doit avoir lieu  SOllS la rubrique de cet organe
                                  subdivisee  par  la subdivision  commune correspondante  a l'opera.tion
                                  consideree. Le devel oppemen t de la subdivision commune [ O?9 Traite­
                                                                      ..
                                  ment chirurgical] est empru nte a la presente rubrique. Ex.  :
                                       617.551   Paroi abdominale.
                                       017.551.0895  Laparotomie.
                                       6'7·558.I.0897  Nephrectomie.
                       .  989.1    Petites operations. Petite chirurgie  .
                       . 989.2     Ponctions .
                       . 989.3     Incisions  .
                       . 989'4    Sutures. Organoraphies. Ligatures  .
                       . 989.5    Organotomies  .
                       . 989.6    Organostomies  .
                       . 989.7    Organectomies. Ablations. Resections  .
                       . 989.8    Organopexies  .
                       .  989'9   Autres operations  .
                       ·99   Chirurgie militaire et navale.












                              6









                          'LASSIFICATION BIBLIOGRAPHIQUE DECIMALE
                              [PUBr.rCA'fIO:-l  Nf) 2'5  DE L'J),"S1'[TUT I?TER?ATIOX?\L  pE BIBLIOGRAPHIE]

                        NOTICE.  -  La Classification bibliographique decimale est
                                                                       universelle,
                      internationale, encyclopedique,  a la fois  particuliere et g enerale ; elle est
                      dooumentaire, elle  s'exprime en une notation concise, elle est fort etendue
                      (environ 25,000 divisions) et indefinimerrt extensible. Les bases en ont ete
                      adoptees par le Congres international de  Bibliographie en  1895 et en  1897
                      a. Bruxelles et  en  190"0 a. Paris, et elle  a deja recu une  large application,
                      tant en Europe que dans Ie Nouveau Monde.
                       Cette classification consiste en une vaste table
                                                           systematique des matieres,
                     dans laquelle tous les sujets de connaissances sont  repartis par classes,
                                            passant du  general au  particulier, du tout a. la
                     sous-classes et divisions, en
                     partie, du  genre a I'espcce.
                       Chacune des rubriques de cette table est representee par  un nombre
                     classificateur compose d'un ou de
                                                 'plusieurs chiffres, suivant le. degre de
                     .
                     generalite. Ces nombres sont decimaux, en ce sens  que chaque chiffre vel'S
                     la droite du nombre ne .modifie pas la valeur ordinale des chiffres
                                                                          prece­
                     dents, mais  correspond a une subdivision de la matiere  representee par les
                     chiffres  precedents. L'ordre dans  lequelles nombres se suivent est aussi
                     l'ordre decimal.           .
                       La table  systematique est  cornpletee par  un index  alphabetique des
                     rna  tieres, dans  lequel toutes les  rnbriques de .la  premiere table  sont
                     rangees  en  un seul ordre  alphabetique et sont suivies du nombre classi-
                     ficateur  correspondant. Exemples  :  .
                                          '
                       1  Philosophie.            Economie financiere      332
                     ?  2  Religion.            ? Economie politi que      33
                     s: 3  Sciences sociales.   ,g Monnaie                 332.4
                     ]  31  Statistique  ,      ]::  Philosophie           I
                     ;Z 32'  Politique.         .[ Politique, question du travail  331
                     e
                       33   Economie financiere.  .. Religion              2
                     :E 331   Questions du travail.  Sciences sociales     3
                                                ?
                     {!!. 332  Economie  politique.  .: Statistique        31
                       332,4    Morrnaie  ,  -    Travail                  331
                       L'indexation  suivant  ces tab1es,  ou  inscription  sur  les documents a.
                     classer du numero classificateur
                                              corresporidant a la matiere  principale dont
                     ils traitent, permet done de former des collections de documents  rangees
                     dans un ordre
                                .methodique parfait et  susceptibles d'accroissements et d'In­
                     tercalations continuels.
                      D'une maniere g enerale,
                                           comme classification des matieres uniforme et
                     internationale, la classification  bibliographique universelle est  susceptible
                     d'etre  appliquee  au classement des diverses  especes de documents et des
                     materiaux dont les travailleurs intellectuels ont a. se servir, et elle fournit,
                     a. cet effet, des cadres tout
                                          'prets, traces d'avance : classement des  reper­
                    toires  bibliographiques et des  catalogues; classement des  ouvrages eux­
                     memes dans les
                                 bibliotheques ; classement des  notes, observations, extraits
                     et documents divers destines a. des etudes .et a des travaux
                                                                     personnels;
                     classement des tables de matiere cles recueils  periodiques ; classernent de
                    documents  graphiques, illustrations  et  photographies,  de  cliclfes,  de
                    brevets, de  specimens, de  catalogues industriels, de circulaires  commer­
                                      applications  documentation, prise dans le sens
                    ciales et toutes autres     a la
                                         .
                    le plus large.          .            .
                                                                       repandue,
                      Le jour ou la classification documentaire universelle se sera
                          application aura He  generalisee,  au lieu d'avoir a.  se familiariser
                    ou son
                    avec  vingt cles  differentes, variant d'apres les institutions qui conservent
                    et qui classent les documents, le
                                                public des chercheurs  pourra, a. l'aide
                    d'une seule cle, c'est-a-dire d'une merne table de classification des matieres,
                    se faire ouvrir les tresors de tous les
                                                 depots de documents. Une economie
                    considerable de temps pourra etre realisee ainsi,  et le chercheur benefi­
                    ciera des avant ages de la connexion etroite etablie entre routes les sources
                    documentaires  de  nos connaissances. La classification bibliographique
                    universelle
                             permettra enfin de creer I'entente et la  cooperation dans les
                    travaux. Au point de  vue des collaborations  internationales, elle
                                                                         pourra
                    jouer  un role similaire a celui  qu'on attend de la  langue internationale,
                    qui ne cherche pas. a contrarier les  langues particulieres ni a s'y substituer,
                    mats bien a servir d'auxilialre et de  complement pour les relations exte­
                    rieures.








                            FASCICULES.  -  Cette  edition de la  classific  ion bibliographique
                          decirnale reunit Ies diverses  editions fragmentaires parues iusqu'a  ce
                          jour. Elle a ete publiee par fascicul.es. La souscription  a cette publication
                          est close, mais les 'personnes desireuses de recevoir les fascicules relatifs
                          a  une branche determinee peuvent  souscrire aces fascicules  aux prix
                          indiques  au tableau ci-apres.
                            Dorenavant, pour recevoir en entier les Tables dive1oppees. il y aura lieu'
                          de souscrire au Mauuel dn Ripel'toil'e bibliouraphique  uniuersel (voir publication
                          no 63), dans Iequel elles ont ete incorporees.


                    ?  Jl                   ::n.I.[.A.TI::ERE                    ?oo]   PRIX
                                                                                  e ?·o
                    ??.g  1========;====================:==                     ???     EN
                     ?  ?     I??                                                      FRANCS
                    z  J!  JllDLloGRAl'IIlQUE  I      DENOAJI:-< ATIO\'          .z  -B
                                   ..
                                »        Expose  et regles dela Classification decimale  .  32  I»
                         [(.),'- ," ", :,A-Z]  Table des subdivisions communes.  .  .  .  .  .  84  2»
                               [53]     Sciences physique's [Mecanique  rationnelle et Phy-
                                          sique)    ....                          46   I
                                                                                          »
                      4        [77]     Sciences photographiques                  30   I  »1
                      6       [629,1]   Industries de  la Locomotion (Locomotion  par-
                                          terre et, par eau, Aerostation)..  ..    8   I
                      7        [79]     Sports [Tourisme, Cyclisme, Automobilisme)  10  I
                      8       {34]      Droit  .                                  132'  2
                      9       [615]     Therapeutique  .                          26   I
                     10       [616]      Pathologic  interne                       28  I
                     II       [6I7J      Pathologic externe                        I4  I
                     12       [612]      Physiolog ie,                            38   I
                     13     [618+619]   Gynecologte,  Pediatrie. Medecine comparee  12  I
                     14        [35]     Administration                            44   I
                     IS        [9]      Histoire. Geographie. Biographie. Genealogie  .  100  2
                     16         »        Resume des tables. Tables generales methodiques
                                          abregees.  Index alphabetique general abreg  e  .  44  I  »
                     17        [0]       Generalites, Bibliographie.  Bibliotheconomie; So-
                                          cietessavantes, etc..  ....          .  52   2  »
                     18        [3]       Sciences sociales. Statistique. Economie
                                          Enseignement.  Assistance. Folklore  pOlitique'l  68  2))
                                                                               .
                                                                             .
                                                                         .
                                                                           .
                     19        [I]       Philosophie. QuestiOlls  morales.  .  .  .  .  .  .  28  I))
                     20        [63]      Agriculture. Agronomie.  Sciences agricoles  46  I»
                     2I        [2]       Sciences religieuses  .                   68  2»
                     22       [4+8]      Philologie et Litteraiure                45   2»
                     23     [355--1-623]  Sciences militaires                      33  2))
                     24      151+52]     Mathematiques  et Astronomie              18  I))
                     25    [548+549+55]  Mineralogic. Crlstallographie. Geologie   22  I»
                     26   [56+57+58+59]  Sciences biologiques. Paleontolog ie. Anthropo-
                                          logie. Botanique. Zoologie  .            74  2  »
                     27        r6II]     Anatomie                                  31   I  »
                     28      [613+614]   Hygiene privee  et Hygiene publique       22   I  ))
                     29        [7]       Beaux-Arts: Architecture. Sculptur-e.  Peinture.  ,I
                                          Photographie. Gravure. Musique           96  2.))
                      30     [64+65]     Sciences appliquees  diverses  :  .Economie  domes­
                                          tique. Stenographie. Imprlrnerie  et edition. Tran-
                                          sports .comptabilite  .  .               28  I»
                                               .
                      31                 Sciences de l'Ingenieur  : Mecanique.  Electricite
                                          industrielle. Mines. Ponts et chaussees.  Che­
                                          mins de fer et tramways.  Travaux maritimes et
                                          hydrauliques. Technologie sanitaire. Locomo­
                                          tion en general.                        II3   3»
                      32     [54+66]     Sciences chimiques  :  Chimie  pure.  Industries  223  4»
                                        1  Industries diverses. Professions et metiers divers.
                                          chimiques. Metallurgie
                                                                         .
                                                             .
                      33   [67+68+69]
                      34        II        Construction.                           II8   3))
                      35        »        Index alphabetique. general  .  .  .  .  .  .  .  .  350  3»
                                         Organisation, travaux methodes de l'Institut Inter­
                                          national de Bibliographie,  .           176   2»
                                                     NOMBRE TOTAL  DES  PAGES     2259
                                                  ..

