







                          Institut International de     Bibliographie
                       PUBLICATION N' 2S                                [o,S-1]





                      CLASSIFICATION              BIBtlOGRAPHIijUE

                                                          '.,
                                        DEOIMk ,J'
                                                   :II' ..  .cr..o


                        TABLES GENERALES REFONDUES'

                                E'fABLJES  EN  VUE  DE  LA  PCBUCATION  DU
                      REPERTOIRE BIBLIO         liAPHIQUE UNIVERSEL
                                                                ,


                                  EDITION FRAN<;AISE
                                       publiee av.e 'e eenceurs du
                               BUREAU   BIBLIOt,L' .?,PHIQUE  DE PARIS



                                     F.A.SCl.UVLE N"0 2

                           TABLES DES SU[] ?j ?SIONS COMMUNES















                                             BRUX1':LLES
                               AU SIEGE  DE L'n;STITGT,  I,  RUE  DU MUSEE
                              r-
                                               1900











                         Tables generales  de la Classification bibliographique  deeimale
                            PUBLICATION NO 25 DE LINSTITUT INTERNATIONAL'DE BIBLIOGRAPHJE
                         L'Edition francaise deve10ppie ei refondue des TABLES GENERALES de
                        la Classification bibliograplzique decimals a ete preparee par l'Institut Interna­
                        tional de Biblographie avec le concours d'un grand  nombre de collabora­
                        teurs et plus specialement du Bureau bibliographique de Paris. Cette
                        edition reunira les diverses editions fragmentaires publiees jusqu'a ce jour "
                        elle paraltra par fascicules successifs. Afin de  ne pas entraver la bonne
                        marche de l'impression, l'ordre suivi dans la publication  sera celut dans
                        lequel  les  manuscrits prepares  par les  collaborateurs parviendront  :it.
                        l'Institut.
                         Quand Ia collection sera complete, il sera facile de faire relier les fasci­
                        cules en un vo ume dans I'ordre methodique des rnatieres et conforrnement
                        au tableau d'arrangement qui sera publie  ulterieurement.  Pour faciliter
                        cet arrangement, les tables n'ont pas recu  de pagination c1"mtinue, mais les
                       . introductions et les index alphabetiques ont ete imprimes sur papier teinte  ,
                          On peut des a present souscrire a I'edition complete,  au prix  de 20 fr.;
                        port compris.
                          L'ouvrage complet porte le nO 25 des publications de l'Institut Interna­
                        tional de Bibliographie,  en  outre les divers fascicules  sont numerotes
                        separement, Les souscripteurs recevront separernent les divers fascicules
                        au moment de leur publication.
                                             Ont paru a ce jour:
                        Fascicule no I  -  Introduction gimfrale au» Tables de la Classification  Decimals et
                          Risu11ti des regles de la Classification Decimate.
                        Fascicule nO 2  -  Table des Subdivisions Communes,
                        Fascicule nO 3  -  Tables de la division [53]. Sciences Physiques (Micaniqlte ration­
                          nelle et Physique).


                                           J.Y.[ A :::r:-;r "IT E L S
                        pour l'usage des Repertoires bibliographiques specta ux

                          Concurremment avec I'edition des Tables generales, l'Institut a prepare
                        une collection de MANUELS  au Guides a l'usage  des repertoires biblio­
                        graphiques de chaque science particuliere.vCes  manuels comprennent,
                        outre la partie des tables  generales  propre a la science envisagee,  un
                         abrege des tables generales,  les tables des subdivisions  communes, un
                         expose general des principes de la classification, des regles pour la redac­
                         tion des notices bibliographiques  et des regles pour  la publication des
                         recueils bibliographiques et la formation des repertoires  sur fiches.  Ces
                         manuels S011t destines  aux specialistes  de chaque  branche des connais­
                         sances. 11s reproduisent, sous une forme pratique,  les divers documents,
                         deja parus ailleurs, pour la preparation et l'emploi des  recueils  et des
                         repertoires bibliographiques speciaux.
                          Les divers manuels de la collection se vendent separernent. I1s parai­
                         tront successivement dans le meme ordre que les fascicules correspondants
                         des Tables generales de la Classification. Chaque manuel forme un numero
                         special des publications de I'Institut International de Bibliographie.
                                             Ont paru-a ce jour  :
                         Publication nO 26.  -  Manuel Ii l'usage du Ripertoire Bibliographique des Sciences
                            Physiques [0254_: 53].                  Prix: 2 francs.



































                                          TABLES



                                                 DES
                                              .

                           SUBDIVISIONS OO?flVIIJNES




























                         On trou vera ci-apres les tables de diverses categories de subdivisions
                        qui peuvent servir it un tres grand nombre de rubriques de la classification
                        bibllographique et qui par suite ont ete designees so us le nom de subdivi­
                        sions comnutues, On a donne dans le Resllme des Regles de Ia Classification Decimals
                        les explications necessaires pour I'ernploi de ces subdivisions et pour leur
                        combinaison, soil entr'elles, soit avec les divisions principales.  Par suite
                        de I'extension donne e it  ces divcrses tables,  ces combinaisons sont fort
                        multiples en principe, mais en fait il n'a pas ete necessaire de les realiser
                        toutes.  En beau coup de  cas  elles ri'auraient pas  eu de sens,  ou elles
                        auraient donne lieu  it des subdivisions inutilcment detaillees,  ou bien
                        encore elles auraient fait double ernploi avec des divisions deja forrnees
                                                                                 .J
                        d'autre maniere.
                         Pour ces motifs on do it consiclercr les subdivisions des tables suivantes
                        comme une reserve, ou , suivant les cas, on a puise les elements pour former
                        les divisions jug ecs necessaires. C'est dans les tables de classification
                        particulicre ,\ chaque branche des sciences, qu'cn trouvera des indications
                        preciscs sur les applications qu'on  a faites des subdivisions communes.
                         Les Tables des subdivisions. communes sont les suivantes :
                              1. Table des subdivisions de forme et de generalite.
                              II. Table des subdivisions selon le lieu.
                             III. Table des subdivisions par langue ou idiome.
                             IV. Table des subdivisions selon le temps.
                              V. Table des subdivisions analytiques communes.











                                                              I.  -  Formes;







                                                I

                    Table des subdivisions de formes et de       g eneralites






                    ,(0)'  Indice documentaire.
                             Cct indice place apres  un nombre classificateur pennet de creer  une subdivision du
                           sujet en tant que forme d'ouvrage.

                    (00)  Subdivisions de  forme propres  a  chaque Slljet.
                             Voir Tables parficulieres de classification de chaque science.
                    (0 I)  TMorie  generate  de ...

                            Subdivision co-nprenaut les ouvrages qui traiteat du sujet dans son ensemble an point
                           de vue de  ses pt-incipes  et de ses lois generales, de  sa .ph.ilosophie, de  ses methodes
                           scientifiques, des systemes et hypotheses auxquels it  a donne lieu et  en general, du
                          _ sujet envisage daus sa science,
                    (or r l  Notion. definition, nature, fondeinents, origine, limites et etendue,
                            objet, problema, but de la science:
                    (012")  Classification, divisions de la science'.
                    (or3)  Valeur, importance, utilite , usage, place ef rang,  defense et eloge
                                         '          .  ,
                            de la science.
                          Langage, tenninologie, etymologie,  synonymes, notations',  syrn­
                            boles, abreviations,  en usage dans la science.
                             Lei vocabulaires et g lossaires de termes techniques sont classes n (o3S).
                    (orS)  Theories scientifiques diverses sur le sujet.
                             A cliviser s'il y.  a lieu  comme ln division 5 Sciences pures, Ex :
                                Sr Mathematiques.
                                368 (oI5!) Theories mathematiques des assurances.
                    (orS)  Methodes scientifiques et techniques. Pro cedes scientifiques.
                             v. aussi (077) 1\fethodes pedagogiqucs et (078) Instruments.

                    (02)   Traites de ...
                            Subdivision comprenant  les ouvrages exposant b. matiere dans son ensemble  sous
                           forme systematique, tels que traites, manuels, guide- manuel, aide-memoire, abreges,
                           introduction generale a Ia science, principes, precis, compendium, elements, rudiments,
                           syllabus.j-epetitions ecrites, memento, A.B.C. etc.












                         1.  -  Formes.

                         (021)  Grands traites.
                                  A sous-classer facultativement par Ies divisions de langues. Ex: 58 (02I}  = 45 Grands
                                 traites de Rotanique ecrits en langue francaise.
                         (022)  Moyens traites Oll Eltments.
                                  A sous-clusscr facultativemeut pur les dvisions de langues,
                         (023)  Petits traitcs  ou Rudiments. Manuels pour les debutants. Traites
                                  et Tracts populaires destine s a la propagande  et a la vulgarisa­
                                  tion. Resume de notions usuelles.
                                  Les Manuels classiques du premier degre et livres elementaires il. l'usage des ecoles
                                 sont classes a l075}.
                                  A sous-classer facultativement par les divisions de langues.
                               Ouvrages de diverses natures, destines a des categories speciales
                                 de personnes.
                                    Ex: 59 (024). Traite de Zoologie a l'usage des agriculteurs,
                                  Cette subdivision sert  a grouper les ouvruges d'apres  leur destination. Les  ou­
                                 vrages destines a l'enseignernent elementairc dans les eccles sent classes a (075).
                                  Dans les Repertoires bibliographiques on pourra sous-classer facultativement (024) par
                                 les nombres principaux propres a ux mutieres dent s'occupent  ces personnes. Ainsi le
                                 nombre 63 etaut celui de l'agriculture  on peut, dans I'exemple ci-dessus, former, de la
                                 facon suivante, une division plus detaillee S9 (024: 63).
                         (026)  Reserve a des divisions propres  a chaque science, et dont le sens
                                 est specifie dans les tables particulieres.
                                  Pour l'application voir les tables de classification des sciences particulieres,
                                      Ex: 3? (37) (026) Manuela de Droit Romain exposes dans I'ordre des Institutes.
                                         Modernes Institutes.
                         (027)  Resen;e  aux memes applications que (026).
                         (03)   Encyclopidies  de ...
                                  Subdivision comprenant les ouvrages generaux exposant la matiere sous forme alpha?
                                 betique, tels que encyclopedies, dictionnaires, lexiques, glossaires, vocabulaires  de
                                 termes techniques, etc.
                                  Ne sont classees ici que les encyclopedies reelles, L'encyclopedie formelle de chaque
                                 science est classee s'il y a lieu a un nombre special.
                                      Ex : 340:11, Encyclopedic formelle du Droit.
                         (031)  Grandes encyclcpedies, grands clictionnaires, etc.
                                  A sous-classer faculta.tivement par les divisions de langues.
                         (032)  Moyennes encyclopedias, dictionnaires moyens, etc.
                                  A sous-classer facultativement par les divisions de langues.
                         (033)  Petites encyclopedies, petits clictionnaires, etc.
                                  A sous-classer facultutivement pal les divisions de langues.
                         (038)  Dictionnaires, lexiques, glossaires, vocabulaires de termes tech­
                                 niques.
                                  A sous-classer facultativement par lee divisions de langues.
                                Essais de ...
                                 Subdivision coruprenant les ouvrages qui traitent de divers points d'une matiere sans
                               epuiser le sujet, teIs que essais, conferences, discours, adresses, lettres, propositions. dis­
                               sertation, lecons et cours autres que les traites et les manuels classiques, etc. Le sens general
                               de cette subdivision est precise par opposition  aux divisions (02) (03) et (05)  traite s
                               systematiques, encyclopcdies alphabctiques et publications periodiques.











                                                              1.  -  Formes.


                    (o.p)  Brochures, pamphlets.
                           Cette division n'a pas d'emploi en bibliographie. EUe est prevue pour Ie classement des
                          catalogues de bibliotbeques,  ou il peut etre utile d'indiqucr Ie cas echeant que l'ouvrage
                          ;L etc range dans une serie speciale, celie des brochures, par opposition aux Iivres et aux
                          articles de revues et de journaux.
                    (042)  Conferences, cliscours, adresses, lecons [autres que les traites (02)
                           et les manuels classiques (075)] et en general les travaux destines
                           it etre dits oralement.
                          Theses, propositions, dissertations, et en general les travaux desti­
                           nes a etre discutes oralement.
                          Lettres, corresponclances,  et  en general les travaux s'aclressant
                           directement a une ou plusieurs personnes determinees,
                          Articles de revues, mernoires publies clans les actes d'une societe.
                           Cette division n'a pas d'emploi  en bibliographie. Elle est prevue, comme (04I), pour
                          I'usage des bibliotheques. El le peut servir a indiquer que le travail ne se prescnte PJ.S sons
                         . forme separee, mais doit etre rechercbee dans un recueil  .
                         Articles de journaux quotidiens.
                           Cette division n'a pas d'ernploi  en bibliographie. Elle est prevue,  comme (041) pour
                          I'usage des bibliotheques.
                   (0.+7)  .Petttes informations, chronique, faits divers relatifs au sujet.
                           On classcra egalement ici, les tr'avaux qui, so us lc titre de Revile jlCbdomadaire? Revu?
                          annneiie, etc., donnent un bref resume des faits recents concernant la matiere. Ne pas
                          confondre  en  €e  cas  avec (05) Revues, pericdiques ct (058) Annuaires.
                          Analyse bibliograp.hique d'ouvrages.
                           Subdivision comprenant les analyses, comptes rendus, commentaires, etudes et notices
                          Iittera.ires, critiques relatives a un ou plusieurs ouvrages concernant Je sujet.

                   (oS)   Periodique  de ...
                           Subdivisions coruprenant les recueiIs f\eneraux concernant le sujet qui paraissent par
                         fascicules a des inter-vales determines, tels que revues, magazines, annales, bulletins, jour­
                         naux speciaux.
                           Sont classes ici:  XO les publications elles-memes  en taut que recueils ;  2° tout  ce qui
                         concerne ces publications, comrue leurs tables, leur historique, leurs reglcs techniques, les
                         comptes rendus critiques qui les interesseut. Mais les articles contenus dans les revues sont
                         classes simplement au sujet special qu'ils conccrnent.
                           I .. es periodiques concernant chaquc matiere sont classes par pays all il s sent publies, puis
                         par titre de periodique.  Pour la facilitc du classement, et afin d'eviter les confusions entre
                         titres identiques,  all fait precedcr le nom du periodique du nom de la ville au il est public.
                          A  remarquer que les  revues d'ordre general, c'est-a-dire calles qui ne a'occupent pas
                         exc1usivcment d'une specialitc scientifique sont classees it la division principale oS. Ainsi,
                         -Ia Revue des 'Deux flfJudes. sera indexc 05 (.t4).
                          Le?journaux s'occupant de questions generales, dits journaux quotidiens, journaux poli­
                         tiques au gazettes, sent classces a la division principale 07. Ainsi le Temps, qui  se publie
                         a Paris,  sera indexe 07 ( .J.4). Mais ies journaux speciaux  sont assimiles  aux  revues et
                                        .
                         classes avec chaque specialite. Ainsi le Jourl1al A.;ric()le? publie il Paris,  sera indexe
                         63 (05) (44).
                          Les periodiques publies par des sccietes, des institutions puhliques, des univeraites  et
                         d'autres institutions scicntifiques, sont 'classes ici par dupl icata, bien qu'ils figurent ausai
                         sous certains autres nombres, afin de reunir ainsi toute la Iitteruture 1?,I(1five a ces institu­
                         tions ou en emalfallt.











                          1.  -  Formes.

                         (058)  Annuaires, Agenda-annuaires, Agenda-carnets, livres d'adresses,
                                 speciaux it une science  ou it une branche de  commerce et d'in­
                                 dustrie.
                                  A subdiviser comme (oS). A sous-classer d'apres le lieu 'de publica.tion par les subdi­
                                 visions geog'raphiques de pays.
                          (059)  Almanach, calendriers speciaux it une science Oll it une branche
                                 de commerce et d'industrie  .
                                  .A subdiviser comme (05). A sous-claescr d'apres Ie lieu de publication par les subdi­
                                 visions geographiques de pays.
                          (06)  Socitttfs, institutions,  collectivittfs diverses de ...

                                  Les subdrvisions de gene-ralites relatives aux Societes et Institutions [ (06) et ses divi­
                                 siena (071) et ses divisions (072) et (07"?)] sont sous-classees geographiquemcllt d'apres Ie
                                 pays Otl celles-ci ont leur siege. Elles reunissent ?L la fois ce qui est relatif a ces institutions
                                 (acta et gesta, travaux, organisation, histoire)  et ce qui emane d'elles comme editeurs
                                 (Bulletin, Annates, Annuaires, Rapports, Statuts, Regleruents, Comptes-rendus, Pro­
                                 ces-verbaux des seances, Recueil de iravaux, Circulaires, etc.)  Facu ltativement, et si
                                 I'ubcndunce des documents le comporte, on pcurm dans chaque pays pousser Ia subdivi­
                                 sion jusqu'a grouper ensemble tout ce qui concerne '(me institution et meme  r epartir  en
                                 sons-groupe les documents de nature similaire emallallt de au rclatijs Ii cette institution.
                                 1\ cet cffet on sous-classera chaque pars par villes placees dans I'ordre alphabetique  -­
                                 drrns chaque ville par  nom dinstitution  --  et chaque institution d'npres les divisions
                                 suivantes. On aura par exemple  :
                                        58 (062) (44) (Paris  --  Societe Botanique] 4.
                                        58 (062) (493) Bruxelles  --  (Societe Lirrneeune] 4.
                                   Listes des membres de la Societe Botanique de Paris et de la Societe Linneenne de
                                 Hruxelles.
                                   1.  --  Publications regul ieres de l'Institution concernant  ses reunions et  trnvuux ?
                                 .lIulletin , An11a1e5, Memoires, Recueils periodiques de travaux irupr-imes.
                                   2,  --  Publications eventuelles concernant les actes, operations, travaux et mnrche de
                                 I'Lnstitution : Proces-verbaux et Comptes-rendus des deliberations, Comptes, Commu­
                                 nications, Annuuires, Rapports periodiques, etc.
                                   3.  ?- Documents  concernant specialernent !'orgauisali011 de I'Institution: Statuts,
                                 Reglements, etc.
                                      Documents concernant specialement le personnel de I'Instituticn  Liste des
                                   +.                                        .
                                    --
                                 membres, etc.
                                   5.  --  Documents concernant des rbtllious exce_/>U011'nellcs, Congres.
                                   6,  __ Documents concernant des Expositions, des Concours, des Exarnens, des Distri­
                                 butions de recompenses, organises par l'Institution.
                                   7,  --  Documents concernant des fetes! excursions, banquets, concerts, representations,
                                 receptions, etc.
                                   8.  --  Documents concernant des institutions patronnees  ou des services organises
                                  par elle.
                                   9·  _- Documents  concernant des faits ayant un caractere historique : Anniversaires,
                                 jubilee, honneurs rendus, etc.
                                   Les monographies emanant des institutions et etablissements specifies ci-apres et
                                  dont ils sont les editeurs,  sont classees  avec le sujet special dont elles traitent. Leurs
                                  publications polygraphiques et periodiques sont classees lei. Leurs periodiques sont
                                  aussi classes par duplicata it (oS).
                          (061)  Institutions oflicielles.
                                   Sont classees ici les iusritutions-relatives a la matiere, qui, sous des noms var-ies, sont
                                 fondees, dirigees  ou administrees par les pouvoirs publics: (Commissions, Comites,


                                                                                               ...











      I                                                         I.  -  Formes.
      ,.                     Conseiis, Corps administratifs et electifs, Administration, Bureau, Sections, Etablisse­
      I                      ruents, Services publics organises, etc.).
                      (062)  Institutions libres.
                               Sont classees ici les institutions d'etudes, d'interet p rofessionnel  au d'ugrement, qui
                             so us des  110111S varies, sent creecs et admiuistrees en dehors de I'ingerence des pcuvoirs
                             publics et sont relatives il In. matiere: [Societes scientifiqncs, syndicats professionnels,
                             commissions, comites, cercles, clubs, associations, unions, Iigues, etc.) Les institutions
                             comrnerciales, industrielles au financicres sont clussees '?L (065).
                      (063)  Congres, Conferences, Reunions, etc.
                               Sent classees ici, toutes les Assemblees tempornires de personnes, qui sous des noms
                             varies, se reunisent pour exposer et discuter les questions se rattachant a la matiere.
      I'                    Expositions temporaires.
                               Sont classees ici, d'une ruanierc geuerale, les reunions temporaires d'objeis relaeifs a
      ..
                             la matiere, et organis6es en vue de les montrer au public. Les expositions permanentes
                              sont assimileee aux musees et clussees a (074). Les concours et essais sont classes a (079I).
                             Representation, execution, audition, demonstration et experience
                                                                     .
                             publique, ceremonie.
                               Sont classees ici, d'une maniere generalc, toutes les reunions de personnes assemblees
                             dans le but cl'assister  ou de prendre part f'I la mise en activite  ou  an fonctionncment
                              de I'objet.
                      (065)  Institutions commerciales.
                               Sent classes lei les institutions et etublissemenrs qui  sous des  110111S ct. formes j uri­
                              diques varies  ant  un objet commercial,  industrial  au financier: [inaisons, fumes et
                             societes, exploitations, etablissemcnt de commerce). Ces institutions sont classees  au
                             pays et a Ia ville ott clles ont leur siege, leur domicile legal ou leur principal etabl issement,
                      (069)  Personnes qui s'mteressent au sujet, I'etudient, s'en occupent ou
                             exercent une profession ou une fonction qui s'y rattachent. Leur
                             caractere, leur condition, leurs devoirs, la description du genre
                             de vie qu'elles menent et tout ce qui les concerne.
                               Ne  sont classes ici que les  ouvrages qui trnitent de ces questions au point de vue
                             general et theorique. Les biographies .iudividuelles de personnes nomruement designees,
                             sent classees a 92 (A-Z). Les biographies collectives a 92: sui vi du noru hre clussificateur
                             de la matiere a Icquelle se ruttacheut lcs biographies.
                               II n'est pas fait usage de  ce nombrc lo69) Iorsqu'il oxiste deja  un nombreprincipnl
                             pour classcr In. rueme rubrique.

                      (07)  Enseignement  et etude de ...
                            Enseignement,  etablissements d'euseignement  et  Etudes  :lUX
                              divers degres.
                               Subdivision ccmprenant l'orgnnisation gencrale,  les programmes,  Ie personnel, les
                             cours, les exumcns et les grades, les conditions d'ndmission aux eccles,  et tout  ce qui
                              est relatif aux etnblissements d'enseignement special du sujet, les eccles professionnelles
                             au techniques, les facultes,  les cbaircs,  etc  ...  Lcs questions generales d'enseig ne­
                             iuent, notamment cellcs relatives a l'euseignemeut pr imai re, moyen et universitaire,
                             sont classees a l'enseignement en general, a Ia division principalc 37 et a ses subvisions.
                             Les degres dont il s'agit dans les subdivisions suivantes sont ceux de l'enseignement de
                             la matiere elle-meme, e?  non la place occupee par  ces matieres dans l'enseignement
                                                               .
                             general.
                               A sous-classer geographiquement.
                              Enseignement et etude au degre superieur ••
                              Enseignement et etude au deg're moyen.










                      I.  -  Formes.

                      (0713)   Enseignemeut'et etude au degre inferieur,
                      (07I4)   Enseignement a. categories speciales de personnee.
                      (072)  Etablissements de recherches, d'experiences, d'analyses  ou  d'es­
                               sais, laboratoires, stations, serninaires, instituts, cours pratiques:
                               leur description,  leur technique, leurs publications,  leurs  tra­
                               vaux.
                            Musees et collections d'objets se rapportant  a une science ou a.un
                               art. Diviser par pays, par villes et par noms des Institutions, ou
                               par noms des particuliers auxquels appartiennent les collections.
                              .
                               Technique generate et institutions detenninecs. leur description, leurs rapports, cata­
                              logues, publications, etc. Les expositions permanentes sont assimilees nux  mu?ees. Lee
                              expositions tempera.ires sont classees sons (06+).
                      (075)  Manuels classiques. Livres pour l'enseignement.
                       (076)  Problemes et questions, leur solution et  leur reponse.  Exercices
                               pratiques  sur le sujet.
                      (076I)   Enonces de problemes et de questions.
                      (0762)   Solution de problemes.
                       (077)  Methodes pedagogiques ou d'enseignement propres a une science.
                               Pour les methodes pedagogiques en general, voir 37I. Pour les methodes scientifiques
                              et techniques voir (018).
                             Instruments, appareils et accessoires, outillage, modeles et moyens
                               materiels d'enseignement, relatifs aUK sujets.
                               II n'est pas fait usage de cette division si, ?l. raison de leur importance,  un nombre
                              classificateur principal a deja ete assigne  aux divers instruments et au l?lateriel d'une
                              science. Exemple  : 522 Instruments astronomiques; 654. I Instruments telegraphiques.
                               Les subdivisions de (078), soit (07B.I), (078,2), etc., ant, pour chaque science, un semi
                              variable et special, quoique derive de la signification generale  e instruments, appareils
                              propres a  ...  ». Ces subdivisions sont indiquees dans les tables particulieres de chaque
                              science ..
                       (079)  Concours, primes, subsides, bourses d'etudes et de voyages,  re­
                               compenses, titres et ins ignes honorifiques, moyens  d'encoura­
                               g ement relatifs au sujet.
                       (a79I)   COl1COUIS et essais publics. Pour les expositions voir (064).
                       (0793)  Excursions, voyages, explorations, missions concernant le sujet,
                       (0795)  Enquetes.

                       (08)  Polygrapht:es,  ceuvres en collections, melanges,  etc.
                              On entend ici" par palygraphies,  des ouvrages composes de plusieurs travaux distincts,
                               .
                               et autres que les periodiques.
                       (08I)  Polygraphies individuelles.
                              Reunions de travaux divers d'un rueme auteur, rel abifs  au sujet, tels que melanges,
                             extra.its, citations, uirtximes, etc. Cette subdivision  ne  concernc quc les ouvrages polygra­
                             phiques considercs comme tels; chacun des travaux au mernoires uinsi reunis est-en outre
                             classe au sujet qu'il  concerne. Cette remarq ue s'applique  aux subdivisons ?082), (0821),
                             (082).  --- Les editions d'ceuvres completes d'un auteur sont classes avec la matiere qui en
                             fait l'objet principal. Si I'auteu r s'est occupe de questions tres diverses, ses ceuvres sont
                             classces a la division OSI des tables generales. On pourra d'ailleurs retrouver toute l'ceuvre
                             d'un auteur en consultant le Repertoire alphabetique des auteurs a la division correspon­
                             dant a son nom.










                                                           1. -.Formes.

                 (082)  Polygraphies collectives. Collections.
                        Travaux distincts, relatifs au sujet. emanant de plusieurs auteurs ct publies en collection.
                       Cette subdivision ne  coucerne 11i les ouvrages publies  en simple collaboration, qui sont
                       traites comme des ouvragcs a auteur inrl ividuel, sauf it placer  un duplicata SQUS lc nom
                       de chaque collaborateur dans le repertoire des auteurs ---11i les publications dont l'editeur
                       est  en realite  un corps administratif,  une societe  au institution quelconque et qui sont
                       classees sous les divisions correspondantes de (05) et de (07),  --- ni  enfin les' pclygraphies
                       collectives peribdiques, qui sont classees SOllS {OJ)  .
                 (0821)  .  Bfblictheques ou -Series.
                        Suites cl'ouvrages distincts sur Ie sujet, eman"ant d'aute-irs differents.mais reunis sous le
                       nom de Bibliotbeques on Series. Ex, :  I (OS21) Bibliotheque de Philosophie contemporaine
                       publiee it Paris, par F. Alcan.
                 (0822)  Anthologies, melanges, extraits, ruaximes, citations de plusieurs auteurs.
                 (083)  Formulaire, recettes, tables: tables numeriques, tables de resultats,
                 (083r).  Recettes.
                 (0832)  Formulaires.
                 (0833)  , Formules abregees. Formules mathematiques.
                 (0834)  Tables et tableaux divers.
                 (0835)  Tables numeriq ues.
                 (0836)  Tables de resultats.
                     .
                 (084)  Cartes, planches de modeles, albums,  tableaux synoptiques  et
                         autres, diagramrnes concernant un sujet special et publies  sans
                        texte, avec un texte  accessoire  ou separement du texte qu'ils
                        doivent illustrer. Atlas de planches diverses, dessins. croquis,
                        fac-similes de toutes especes reproduisant ou illustrant les objets.
                        Les cartes geographiques sont classees au nombre principalera.
                                                                          .
                 (085)  Publications commerciales relatives au sujet, tels que prospectus,
                        circulaires, tarifs, prix-courants. catalogues  autres que les cata­
                        logues de Iivres et de musees,  albums de renseignernents  com­
                        ·merciaux sur des objets speciaux,
                        A diviser par pays et dans chaque pays par ville, puis par ordre alphabetique des noms
                       des etabl issetuents. Ne sont classes ici que les catalogues speciaux a un objet determine.
                       Les catalogues commerciaux, tout a fait generaux sont classes a In matiere dent it traitent
                       principalement. On peut aussi classer les catalogues a la division (065)  avec les maisons
                       ou ctablissements dent ils emunent.
                        Les catalogues des maisons d'edieion et ceux relatifs au commerce des livres sont classes
                       ala division principale 017,
                 (086)
                 (087)
                 (0871)  Documents, actes et pieces, travaux ecrits de toutes nature emallll1ti de ou C01n.poses par ...
                         Il n'est fait usage de cette division q u'a la suite des Hombres classificateurs qui desi­
                       gnent  une clasec de personnes  on d'institutions dcterminees  et lorsque les documents
                       speciaux officiels ou non, eruauant d'elles ne sont pas deja classes a u n nombre special.
                       Ne pas confondre la division (0871) qui camp rend des travanx separes  avec la division
                         (082) qui comprend les collections,
                       Cette division trouve son eurploi pour introduire dans les repertoires bibliographiques des
                         divisions facultatives qui permettent  de grouper par duplicata certaines categories
                         d'ouvrages sur line base autre que la matiere dont ils traitent.
                          .
                              Ex.  271.5 ]esuites
                                  271 ,j(087,l) Ouvrages composes par des] esu ites.
                 (088)  Varia.
                 (0883)  Curiosa. Anecdotes, Micellanees. Melanges. Iucertse sedls.










                           I  -  Formes.

                           (08g)  Recueils £actfces. Suites.
                           (0891)  Recueils factices.
                                  Cette division n'a pas d'emploi en bibliographie. EUe est prevue pour Ie classement des
                                 ouvrages dans les bibliotheques, beaucoup de biblicthecaires ayant cree eux-memes artifi-:
                                 ciel.lement des ouvrages polygraphiques  en reliant -ensemble diverses mouographies  aux­
                                 quelles ils ont donnes une denomination commnne.
                           (0892)  Suites.
                                  Cette division n'a pas d'emploi en bibliographie. Elle est creee pour le classement des
                                 bibliotheques auxquel les des necessites d'ordre interieur imposent parfois de classer
                                 ensemble,  en attendant leur uchevement, les ouvrages paraissant par parties successives,
                                 autre que les periodiques.
                           (09)  Histoire de ...

                                   Les ouvrages anciens sont classes avec les onvrage rncdernes, mais sous chaque nombre
                                  classificateurs les notices bibliographiques peuvent etre rangees dans l'ordre progress if
                                  des dates de publication. On y trouvera ainsi les ouvrages anciensen tete et ensuite les
                                  ouvrages plus recents,
                                   Suivant la nature des sujets la division (09) Histoire precede ia subdivision par pays,
                                  ou lui fait suite, ou bien encore est remplacee par les divisions chronologiques. Exemple:
                                       52 (09) (44)  Histoire des sciences astronomipues en France.
                                       3'?7.62 (-?4) (09)  Histoire du mariage dans Ie droit francais,
                                          75 (45) «IS» La Peinture en Italie au xv!" siecle.
                                   Cependant, il part les exceptions formellement enoucees dans la table des classifications
                                  speciales, l'Histoire de chaque science est en regle generate sons classee par pays et "par
                                  epoque de la maniere et dansl'ordre de sequence suivants :
                                  (09)  .Histoire du sujet a toutes les epoques et dans tons Ies pays. Ex. :
                                       52 (09)  Histocre gbui'rale de I'Astro1lomle.
                                  (09) (3 a 9)  Histoire du sujet lhuitee a un au plusieuts pays mais a toutes les epoques.
                                           Ex.  :
                                       52 (og) (44)  Histotre de I'Aslro1lomie en Fra-nca,
                                  (09)  « .•. »  Histoire dans taus les pays rua.is limitee a une certaine epoque.
                                       5? (og)  (( 15  a Hrstorrc de I'Ast-rouomic au XVI'll stecte,
                                  (o9) (3 a 9)  (l' .... »  Histoire du sujet Iimitee a. un ou plusieurs pays et i une epoque
                                                determinee. Ex.:
                                  52 (09) (44)  « IS »  Histcire de l'Astronomie, en France au XVP siecle.









                                                r?  , .. '
                                                 .
                                                               II.  _:._  .Lieu,
                                                ,                  .




                                              II

                           Table des subdivisions selon le lieu




                     Ces subdivisions pont toujours inscrites entre parentheses.




                   (3)  Geographi e anclenne  .  '(42)  Angleterre.
                                                 (43)  Allemagne. Germanie.
                   (3r)  Chine ancienne.
                                                 (431).  Prusse.
                   (32)  Egypte ancienne.
                                                 (432.1)  Saxe.
                   (33)  judee ancienne,                Bavicre
                   (34)  Inde ancienne.          (433)  Alsace.  ,
                   (35)  Medo-Perses. Chaldee,: As,-  (434.4)
                                                 (434.5)  Lonaine.·
                          syrie, Babylone, Mesopo­
                                                 (434.6)  Bade.
                          tamie.
                                                 (434.7)  Wurtemberg ,
                   (36)  Celtes. Ancienne Gaule.
                                                 (435.I)  Hambourg  ,
                   (37)  Rome. Italie ancienne.
                                                 (435.2)  Breme.
                   (38)  Grece ancienne.
                                                 (435.4)  Brunswick.
                   (39I)  Iles anciennes de I'Archipel
                          grec. Samos. Rhodes, etc.  (435.6)  Westphalia.
                                                 (436)  Autriche.
                   (392)  Asie -Mtneure occidentale.
                                                 (437)  Boheme.
                ...       Troade. Ionie, etc .
                                                 (438)  Pologne.
                   (393)  Asie-Mineure.orientale. Cap­
                          paeloce. Chypre,  etc.  (439)' Hongrie.
                   (394)  Syrie et Arabie.       (439.5; Bosnie.
                                               .  (439.6) Herzegovine.
                   (395)  Asie elu N ord-Ouest, Colchi-  France.
                          de, etc.               (44)
                                                 (45)  ltalie.
                   (396)  Asie centrale.Bactriane.Hyr­
                                                 (456)  Marches.Ombrie. Latium.
                          canie.
                                                          Etats pontificaux.
                   (397)  Afrique. Numielie. Carthage,
                                                  (458)  Sicile.
                          etc.
                                                  (459)  Sardaigne.
                   (398)  Europe du Sud-Est,  Dacie.
                                        •         (46)  Espagne.
                          Illyrie, etc.
                                                 (469)  Portugal.
                   (4)  Europe.                  (47)  ,  Russie.
                   (4I)  Ecosse.                 (47?   Filllanele.
                   (4 I 5)  Irlande,             (479)  Caucase.










                        II.  -  Lieu.

                        (48)  Scandinavie.             (65)  Algerie.
                        (481)  Norwege ..             (66)  Afrlque centrale du Nord.
                        (485)  .  Suede.               (661)  Sahara.
                        (489)  Danemark.               (662)  Soudan.
                        (491)  Islande. Iles Ferae.    (663)  Senegambie.
                        (492)  Hollande.               (664)  Sierra-Leone.
                        (493)  Belgique.              (665)  Guinee superieure.
                        (494)  Suisse.                 (666)  Liberia.
                        (495)  Grece,                  (667)  Achantis (Pays des)
                        (496)  Turquie.                (668)  Dahomey.
                        (497)  Principautes balkaniques.  (669)  Cote d'Or.  .
                                                          .
                        (497.1)  Serbie.               (67)  Afrique centrale du S?ld.
                        (497.2)  Bulgarie.            (671)  Guinee inferieure,
                        (497.3)  Montenegro.          (672)  Loango. Congo francais.
                        (498)  Roumanie.              (675)  Congo independant.
                        (499)  Autres Etats de l'Europe.  (678)  Zanzibar.
                                Iles de I'Archi pel grec.  (679)  Mozambique,
                                                      (68)  Afrique meridionale.
                        (5)  Asie.
                                                      (682)  Transvaal.
                        (51)  Chine.                  (683)  Zululand.
                        (52)  Japon.                  (684)  Natal.
                        (53)  Arabie.                 (685)  Orange.
                        (54)  lnde.                   (686)  Cafrerie.
                        (55)  Perse.                  (687)  Cap (Colonie du)
                        (56)  Turquie d'Asie.         (688)  Cote occidentale.
                        (:i64)  Chypre,               (689)  Interieur.
                        (569)  Palestine.             (69)  Madagascar.
                        (57)  Siberie.                (698.1)  Reunion
                        (58)  Asie centrale.          (698.2)  Maurice.
                        (581)  Afghanistan.
                        (584)  Turkestan.             (7)  Amerique du Nord.
                        (588)  Beloutschistan,        (71)  Canada.
                        (59)  Indo-Chine.             (718)  Terre-Neuve.
                        (591)  Binnanie               (72)  Mexique.
                        (593)  Siam.                  (728)  Amerique centrale  .
                       .
                        (596)  Cambodge.              (728.1)  Guatemala.
                        (597)  Cochinchine  francaise,  (728.3)  Honduras.
                        (598)  Annam.                 (728.4)  San-Salvador.
                        (599)  Tonkin.                (728.5)  Nicaraga.
                                                      (728.6)  Costa-Rica.
                        (6)  Afrique.
                                                      (729)  lodes orientales.
                        (6Il)  Tunisie.               (729.1)  Cuba.
                        ,612)  Tripolitaine.          (729.2)  jamaique.
                        (62)  Egypte.                 (729.3)  Saint-Domingue.
                        (63)  Abyssinie.              (729-4)  Haiti.
                        (6f)  Maroc.                  (729.5)  Porto-Rico.











                                                              II.  :..:_  Lieu.
     II                                                Borneo.
                  (7?9·8)  Barbades.            (gIl)
                  (729.9)  .Bermudes,           (912)  Celebes.
                        ,
                  (73)  Etats-Unis.             (913)  Moluques.
      II
                                                (914)  Philippines.
                  (8)  Amerique du Sud:               Sonde (lIes de la),
                                                (g2)
                  (81)  Bresil.                 . (921)  Sumatra.
                  (82)  Argentine. Patagonie.   (g22)  Java.
      ,t¥         (83)  Chili.                  (-93)  Australasie.
    ?             (84)  Bolivie.                (g31)  Nouvelle-Zelande,
                  (85)  Peron.                  (g32)  N ouvelle-Caledonie.
                  (86)  Colombie.               (94)  Australie.
                  (861) Equateur.               (946)  Tasmanie,
                  (87)  Venezuela.               (g5)  Nouvelle-Guinee.
                  (88)  Guyane.                 (g6)  Polynesie.
                  (881)    »   Anglaise.         (g6g)  Hawai,
                  (882)    »   Francaise         (97)  Iles isolees de l'Ocean.
                  (883)    ))  Hollandaise.      (g8)  Regions arctiq ues. P.6leNord,
                  (8g)  Paraguay.               (99)  Regions  antarctiques.  Pole
                  (891)  Uruguay.                        Sud.
                  (9)  Oceanie,
                  (gl)  Malaisie.






























     ,
     ,


       1
       I
       I'




                         III.  -  Langues.



                                                                                              ,


                                                   III

                          Table des subdivisions par langues        au idiornes






                            La subdivision, des ouvrages d'apres la langue en Iaquelle ils
                         sont composes se fait a l'aide des nombres classificateurs .du tableau
                        suivant precedes du signe bibliographique  =>, La table suivante sert
                        aussi a former les divisions de la  Philologie '4  et de la Litterature 8.

                              Anglais.                   91
                        = 2                            =     Autres langues. indo-euro-
                        =      Anglo-Saxon.                      peennes.
                           29
                        = 3  Allemand.                 =  9I.1  LanguesIndiennes.
                           39  Langues germaniques  au-  ?- 9I.5  'Langues -iraniques.
                        =
                                  . tres que ·l'allemand.  .= 9I.6  Langues celtiques.
                         •
                           39.1  Bas allemand.        ,=  9I.7  Langue russe.
                           39.2                          9I.8
                        =        Frison, Vienx Saxon.  =       Langues  salves  autres
                           49.3                                   que le russe,
                        ?        Hollandais. Flamand.
                           39-4                              Langues semitiques (Syria­
                        =        Platt Deutsch.
                           39.5                                  que, Hebreux, Arabe),
                        =        Scandinave  en general.
                           39.6                          93  Langues harnitiques (Egyp­
                        =        Vieux norse. Islandais.  =
                           39.7                                  tien, ancien Copte).
                        =        Suedois.
                           39.8                              Langues touraniennes,
                         =       Danois. Norwegien.                             ou­
                           39.9  Gothique.                       roaltaiques  (Finois,
                         =
                         =   Francais.                           Turc, Hongrots).
                           4
                           49
                         =     ProvencaL               =  95  Langues  asiatiques.  Chi­
                         = 5  Italien.                           nois.
                           59  Vallaque.               =96   Langues
                         =    .                                     africaines.
                           59.9                          97
                         =        Roumain.             =     Langues de l'Amerique du
                         = 6  Espagnol.                          Nord.
                           69  Portugais.              =98   Langues de l'Amerique du
                         =
                           7
                         =   Latin.                              Sud.
                         = 8  Grec.                    =99   Langues  Malayo polyne­
                                                                           -
                         =   Autres Iangues.                     siennes.
                           9











                                                          IV.  -  Temps   .






                                             .  .  -
                                           IV


                           Table des   ,subdivisions  de  temps







                   Ces subdivisions sont forrnees. en inscrivant Ies millesimes entre
                 doubles parentheses ou guillemets, selon Ia computation ordinaire des
                 annees. Ainsi, l'anriee  1467  s'ecrira  «  1467  »  et  un evenement de
                 I'Histoire de France se rattachant a cette annee  sera classee  :
                                       Histoire de  Fr?nce  en 1467-
                   Les armees etant exprimees  en nombres decirnaux, pour marquer
                 les siecles ou les decades il suffira d'ernployer des nornl.res de deux
                 ou trois chiffres. Ainsi seront f01111eeS Ies divisions:
                           «  14 »..  XVe. siecle  .
                           « ?5·))
                          .
                                   XVle siecle ..
                           « 155))  La periode d'an;1ces ecoulee de 1550 a 1560.












                                 V.  -  Analyques    communes,










                                 Table   des   subdivisions    analytiques    .commuries
                                   etablies   d'apres   divers    points   de  vue    sous
                                    lesquels  sont traitees les  questions.





                                          Cette table a ete dressee en vue de faciliter le developpement des divisions 5,6 et 7 de
                                        la classification bibliographique decimale correspondant aux branches des sciences pures
                                        et appliquees des beaux-arts, de facon a permettre de n'etabfir dans  la classification
                                        de ces parties, que des divisions par categories d'objets 01.1. par categories d'operntions, de
                                               ?'usage
                                        fanctions ou  se rapportant ;). ces objets.
                                 oor   Points  de  vue de  concept?:01i,  de la creation et du
                                         perfectionnemen;  de  l'objet. (Etudes theoriques  et

                                         experirnentales. )
                                 OOIl  Conception g enerale d'un projet. Plan d'ensemble. Programme.
                                 0012  Etudes de realisation d'un projet. Conditions speciales a remplir.
                                        Etudes theoriques  d'un appareil  ou d'un  organe.  Calculs s'y
                                        rapportant.
                                 0013  Description et mode de fonctionnement de l'objet.
                                 0014  Essais et experiences de mise en marche et de fonctionnement.
                                 0015  Recherches et experiences en cours de service de l'objet.
                                 0016  Recherches et essais de modification et de perfectionnernent.

                                 002   Points de vue l'execution et de la construction:

                                 0021  Mise  en execution. Mesures preliminaires concernant la prepara­
                                         tion, la production, la construction ou la fabrication de l'objet.
                                 0022  Operations de preparation, de production, de construction ou de
                                         fabrication. Precedes speciaux s'y rapportant.
                                          (-!\. completer,  en subdivisant les precedes par nature,  avec renvois par soudure, aux
                                         embranchements correspondants des dive?ses sciences.)
                                 0023  Elements constitutifs de l'objet. Produits entrant dans la construc­
                                         tion.
                                 00231   Elements organises.











                                         v.  -  Analytiques    communes.

                          Elements chimiques organiques.
                           A subdiviser commc 547.
                  00233   Elements chimiques inorganiques.
                           A subdiviser cornme 546  .
                         . Matieres premieres. Materi aux.
                          (Leurs proprietes en rapport avec l'objet considerc.}
                           A subdiviser comme 691.
                  0024  Produits employes .accessoirement pour la  production  au la  cons­
                          truction de l'objet [matieres consommables).
                  00241   Combustibles.
                           A subdiviser comme 669.r8.
                          Enduits, peintures, etc.
                           A subdiviser comme 698.1.
                          Lubrefiants, etc.
                           A subdiviser comme 621.891,
                  0025  Machines employees pour la production, I'exploita lion on le service
                          de 'l'objet.
                  00251   Gros outillages et machines.
                           A subdiviser comrue 621.7_
  e
                  00253   Engins, outils, etc.
                           A subdiviser comme 621.8.
                  00253   Machines-outils.
                           A subdiviser comme 621.9.
                  003   Points  de  vue  economique  et utilitaire.  (Industrie  et

                          coml1zerce.  )
                  0031  Conditions econorniques  de  la production.  Prix  de  revi ent des
                         matieres premieres et des materiaux.
  i'
                  0032  Prix de revient. Main d'ceuvre.
                  0033  Frais generaux et frais accessoires.
                  0034  Prix de revient final de l'objet.
                  0035  Conditions economiques de la vente. Prix de vente.
                  0036  Resultats de l'exploitation  , Profits et pertes. Benefices.

                  004   Point de  vue du service et de l' emploi. Explodation.
                           Conduite.
                  0041  Destination et usage des objets. Application. Utilisation.
                  0042  Service et emploi. Regles d'emploi et de manipulation. Conduite.
                  0043  Manutentions. Transports emballag e.
                  0044  Mode de conservation. Emmagasinement. Recipients.
                  0045  .  Entretien. Soins et visites.
                  0046  Usure. Accidents. Alterations ct maladies du prorlui t.  Reparations.
                  0047  Mise hors de service. Destruction. Demolition.













                       v.  -  Analytiques    communes.


                       0048  Utilisation des residus et sous-produits.
                       0049  Autres operations du service courant.
                       005   (Section  rese1'vee  disponible).
                       006   Point de vue des locaux et etablissements.

                                On n'emploiera cette subdivision que pour Ies details rl'organisntion interieure et de
                              sen-ice. Pour les questions d'architecture  et de construction, 725-4- Les subdivisions
                              peuvent etrc subdivisecs uniformement  par:  I Emplacements, terrains, situations plans,
                              contenance;  2 Immeubles, dipoaitions generales; 3 Installations inter-ieures ; 4 Mobilier
                              et materiel de service; 5 Materiel d'exploitation ou de fabricntion.
                       006r  Etablissernents et locaux de direction et de commandement.
                                Batimeuts de direction et dadmiuistrabion generate. Batimeuts d'habitation du per­
                              sonnel di rigeant.
                       0062  Etablisseruents et  locaux  se rapportant it l'eturle des projets et it leur
                             .
                              conception.
                                Bureaux d'etudes et de dessins. Laborutoi res de recherches. Champs d'expericnces
                              agricoles ou autres Champs de tiro
                                         ,
                       0063  Etablissements se rapportant it la fabrication ou it la construction de
                              l'objet.
                                Chantiers, usines, ateliers manufactures.
                       0064  Etablissements et Iccaux se rapportant it l'exploitation industrielle
                              ou commerciale,
                                Maison de commere, batiments d'exploitation.
                       0065  Etablissements et locaux  se rapportant  au  service  courant  ou it
                              l'usage de l'objet.
                                Magasins, depots, pares, etc ..
                       0066  Etablissements  et locaux  se  ra pportant  ?l  Ia protection  et it la
                              surveillance.
                                Logement de gardiens, concierges et caserncs.
                       0067
                       0068
                       0069  Autres etablissements.
                       007   Point  de  vue  du  personnel spici(l,l  se  rapportant  it
                               l'objet.
                       0071  Personnel de direction et d'etude (personnel scicntifique}.
                       0072  Personnel dexecution.
                       0073  Personnel d' exploi tati on.
                       0074  Personnel de service ou de gardienuag e.
                            (Agents de divers ordres. Personuel de service.  Domestiques. Gar­
                              diens, surveillants, concierges.)
                       008   (Section  reseroee  disponible.)
                       09g             Id.              )




































































































































































































                                                I'MPRIMER1E
                                                            BJBLIOG?PHIIC
                                             INTERN"TIONAL  DE
                                  DE L'INSTITUT
                                                       BRUXELLES.
                                          RUE VEYD'r, 70,











































                                                                              ........
                                                     ----------





























                             DEPOSITAIRES DES PUBLIOATIONS
                        de l'Institut International de Bibliographie


                                     (Consulter l'Amzuaire de l'Institut.)





                       BRUXELLES: Au siege de l'Institut International de Bibliographie, I, rue
                         du Musee.
                       PARIS: Au siege
                       ,             du Bureau Bibliographique, 28,  rue Serpente (Hotel
                         des Societes savantes}.
                       YIENNE: Au siege du Secretariat de l'Institut pour l'Autriche, III Haup­
                         strasse, 6.
                       ZURICH: Au siege du Concilium Bibliographicum, 38, Eidmattstrasse.

