    ,
     .=!lillllllllllllllllllllllllllllllllllllllllllllllllflllllllllllllllllllllilHIIIIIIIIIIIIIIIIIIIIII1IIIIIIIIIIIIIIIIIIUl!=.

         ?IIIIIJIIIIIIIIIIIIIIIIIIlIIIIIIIIIIIJIIIIIUlllllllrlllllllllllllllllllllllIlrlllllllllrllll?
         I  Ce   que                    I

         I      tout inventeur          I
         I           doit savoir
         =                              II
                                        ;
             \
         ?1111I1II1111111111Jlllrlllltlllllllllllllllllllllll1ll1l1lllllt11lrlll111II11111111lllllllliF.  .-







         .:.1111111111111111111111111111111111111111111111111111111111111111111111111111111111111111111111:..
         i  Office International des Inventions l
         ?             0  0            ?
                                       ?
         I     :J\[ deposez pas            =
                   e
         '§  et  ne faites  pas deposer  vos
         =
             brevets d'invention, etc., avant
             de consulter
              l'Office International
                  des Inventions
              Hainaut  MONS  Belgique
                       ?  @
              Conseils en matiere de propriele
                 induslrielle depuis 1904
              ••                 ••
            Elude I;erieuse des Inventions, Dep81
             de Brevets d'Inveniion, Marques de
              [abrique, Modeles,  Dessins in·
               duslriels  en tous pays a des
                conditions  excessivement
                    apaniageuses,
                   •          •.
              .7«ise  en  ll!ul>re  des Inventions,
             Cessions de licences, 'Proces en con­
            irefacon,  Conseils pratiques pour la
            negocialion,  Traductions  techniques
            en toules langues. Achat ei  vente de
            brevets, Recherches.
         ?
         §  Coereeccndente de 1<'1' ordre en tous pay,s'  .i:
         ?  ,  Postal Address  :            ?  -
         ?  Office International des Inventions  ?
         §         MONS Hainaut Belgique,   §
         §',           Telephone 845    :;  ==
         ?llllI1111111111111111111111111111;1I11111111111;'11I1I1I1I111I111I11I1I111111111111111111111*  II
                                    -
        ...--
                                 .          ==
     ?IIlIIIIIIIHlIIIIIIIIIIIIIIIIIIIIIIIIIIIIIIIIIIIIIIIIIIIIIIIIUIIIIIIIIIJIIIIIIIIIIIIIIIIIIIIIIIIIIIIIIIIIIIIIIIIIIIIIW





































































           111111111111111111111111111111111111111111111111111111111111111111111111111111111111111111111111
            OFFICE  INTERNATIONAL  DES  INVENTIONS
                 Joe G. STEPHENSON
                 International  Patent  office
                      MONS (Hainaut) Beleiaue

           Telephone 845    Adresse Te/egraphique
                          STEPHENSON MONS








                        LE


           BREVET D'INVENTION


                 au point de   vue
                          _

               INTERNATIONAL






                       ?llIill?
                       ?Illllnf.?     ,',



















          111111111111111111111111111111111111111111111111111111111111111111111111111111111111111111111111




















                                                  I




               INVENTEURS


             Avant  de  deposer  vos  brevets
                     ecrivez  a  I'

                 Office International
                 -  des Inventions  -
                 Joe G. Stephenson

                 -  Mons (Hainaut)  -
                      [Belgique

            qUI  VOllS  conseillera gratuitement
















         L_------.!




         111111111111111111111111111111111111111111111111111111111111111111111111111111111111111111111111
          OFFICE  INTERNATIONAL  DES  INVENTIONS
               Joe G, STEPHENSON
               International  Patent  office
                    MONS (Hainaat) Beleiaue



               LE    BREVET
               D'INVENTION
         au point  de vue international

               prosperite  et  Ie developpernent de
         LA  l'industrie  et du  commerce d'un pays
       Ii    se rattachent intimement a la protection
             de la propriete  industrielle,
           Tpus les pays, environ cent (li ['exception
         de  ceux OU l'industrie  est peu developpee),
         ont  reconnu la necesaite d'assurer li l'inven­
         teur la propriete temporaire de  son invention
         a condition de faire  une declaration prealable
         loyale et complete, de payer une taxe annuelle
         et d'exploiter dans un delai determine, (I)
           Les brevets sont, pour ainsi dire, nes avec
         I'industrie. Auparavant  ils navaient, en effet,
         aucune raison d?exister.
           C' est  en Angleterre que 1a question de la
         protection  des inventions fut  ii l'ordre du
         jour en premier lieu et c' est sous Ie regne de
         Jacques 1,  en l'annee 1623, qu'il fut possible
         d'obtenir des brevets d'invention  pour des
         appareils, produits  ou precedes  nouveaux.
           II  est  inutile  de dire  que  les Anglais
         s'empresslnent de mettre a profit les avantages
         de  cette loi, laquelle  eut les plus heureux
         effets au point  de vue industriel.
           De merne, les etrangers trouverent Ie moyen
         d'utiliser la Iaculte de faire proteger  leurs
         decouvertes  en Angleterre et ils y obtinrent
         des privileges qu'ils cederent ensuite a bon
         .compte.
           On cite merne le  cas de  grosses fortunes
         realisees de la sorte,
           Les Irancais  et les belges (ceux-ci plus
         -rares] qui use rent du privilege anglais  sont
         !tres nombreux  et on  retrouve  encore aujour ..
         .d'hui les titre. de brevets concernant diverses
                    nos compatriotes d'alors firent
         .inventicns <Jue
         proteger en Grande-Bretagne.
           Ces brevets enrichirent  non seulemet  cer­
          tains de leurs auteurs, maisenrichirent surtout
          nos voisins les anglais  et leur  permirent  de
          prendre  une serieuse avance dont l'industrie
           (1)  Voir  noire Brochure: Qu'est-ce 'qu'un  Brevet
          d'Inventioo, enlJoyec gratis  sur demande.
         :111111111111111111111111111111111111111111111111111111111111111111111111111111111111111111111111
                  -




            1111111111111111111111111111111111111111  4  1111111111111111111111111111111111111111

            dU: Royaume-Uni profite  encore  en  ce  mo­
            ment.
             Dans l'acte de constitution des Etats-Unis
            d'Amerique, date du 17 Septembre 1787,  on
            peut voir qu'a l'exemple de  I'Angleterre, les
            Etats-Uni. reconnaissent qu'il  est necessaire
            d'accorder  aux inventeurs  un droit exclusif
            sur leurs ecrits et sur leurs decouvertes pen­
            dant  un  certain  temps,  afin  d'exciter  Ie
            progres des sciences et des arts utiles.
             La France decreta, a I'Aeeemblee-Nationale
           en date du 13 septernbre 1790, la loi sur les
            b?evets  qui fut prornulguee Ie 7 janvier 1791.
             Depuis cette loi, des re?lementations, des
           arretes, des  jugements, sont intervenus  et la
           legislation e,n  matiere  de.propriete industrielle
           en France  est  considerablement changee.
             Depuis I? Tapport du Chevalier de Bouffiers,
            rapporteur de la loi du 7 janvier 1791, Ia
           legislation  a subi de.  telles  modifications
           qu'on peut dire qu'il  ne  reste que bien pen
           de chose du projet primitif,
             Les pays qui protege rent ensuite les inven­
           teurs furent Ia Prusse Ie 14 octobre 1813  ; la
           Belgique qui, en 1816, etudiait une loi qui fut
           prornulguee  en 1817. Puis vinrent, de 1820 a
            1843  :  I'Autriche. I'Espagne,  la Baviere,
           I'ltalie. Ia Suede, Ie  Wurtemberg, Ie  Portugal,
           la Saxe, Ie Grand Ouch" de BlIde.
             Aujourcl'hui,  comme  nous le disions plus
           haut, la plupart des pays protegent les droits
           des inventeurs ..
             Pour repondre aux nombreuses demandes
            qui  nous parviennent  pour l'obtention  de
            renseignementa  sur les Iormalites a rernplir
            pour obtenir un brevet conlerant la protection
            d'une invention dans ious les pays du monde,
            ou tout
                 au moins , dans les principaux pays
            industriels,  nous dirous  que certaines mai­
           sons, bureaux de brevets, font une publicite
           assez allechante a premiere  vue, publicite
           dans laquelle ils parlent de  « brevet inter­
            national.  »  Nous  repondrons done .since­
            rement a tous ceux qui  nous demanderont  ce
           qu'est  Ie  brevet international  :  le breoei
           inlernational esl une uiople,  ou tout au moins
           une chose presque irrealisable. Les demandes
           qui  DOUS  parviennent  a  ce sujet,  sont  une
           manifestation de J'esprit de  simplification qui
           est cher  aux inventeurs  et  un eHet de leur
           imagination creatrice. Aces demandes,  nous
           ne  pouvons  que repondre  comme -le  fait
           Ie  Bureau  International  de  la  Propriete
           lndustrielle. dans Ie journal  « La Propriete
           lndustrielle.  »
             Le Bureau International recoit  sou­
                                  assez
           vent des lettres d'inventeurs qui lui d'eman-
           111111111111111111111111111111111111111111111111111111111111111111111111111111111111111111111111



       r:1I1I11I 11111111111 1111111 11111111  5  111111111111111111111111111111111::-1


         dent de leur indiquer les demarches qu'ils
         :Qot a faire pour obteoir un brev?t international
         ou la protection de leur invention dans toute
         une serie de pays, parfoismeme dans tous les
                        .
             du monde.
         pays
         -
           \1  n'existe  pa?  de  brevet  international
         .conferant la protection dans plusieurs  pays
         aimultanerneut,  en  sorte .que,  pour quune
         invention  so it protegee partout au il  existe
         des lois  sur la matiere, il faut qu'elle eoit
         l'leposee dans chaque [pays separernent,
                               .
           On  ne  peut  ,pas indiquer  d'une Iacon
         satisfaisante les demarches a Iaire pour cela,
         merne !!n f.curnissant  .aux i'nt,eresses le texte
         complet des lois et reglements  en vigueur
         dans les pays  en cause.
           II s'est forme presque part out une pratique
         administrative etjudiciaire qu'il faut connaitre
         pour pouvoir donner a la description de lin­
         vention,  aux .revendicatione qui la resument
         .et  aux dessins qui I'expliquent,  une [orme
                    ,
         repondant aux exigences de.I'Administration
         tout  en assurant a l'invention la protection
         Is plus complete,  II faut aussi avoir  une
         grande habitude des teqactions techniques
         'pour decrire l'inventicu  en termes: a Iii fois
         .assez larges pour comprendre  toutes les va­
         riantes qu'elle cornporte, et. assez precis pour
         indiquer quels sont les elements constitutifs.
           De plus, les demandes de brevets  at les
         documents qui sy  rapportent doivent etre
         rediges correctement et, sauf quelques  rares
         exceptions, dans la langue du  pays  au Ie
         brevet. est demande,  ce qui n'est p,as  a la
         portee  de  tout le. monde.· Enlin, plusieurs
         legislations exigent  des personnes residant
         au dehors, qu'elles demandent leurs brevete
            I'entremiae. d'un mandataire ?tabli dans
         par
         Ie pays.
           Le brevet international. u'exiete  pas  ;  il
         constitue  un  reve dont [a, realite.  sera tres
         difficile  et  ne  peut  etre  envisagee  que
         dans un tres lointain avenir. La diveraite des
         legislations  en matiere de brevet  est trop
         marquee,  les interets trop divergents pour
         qu'on puisse envisager  I'eventualite du brevet
         international cornme prochaine,
           Une certaine unification des legislati,ons
         .nationales  en matieres de  brevets  est  une
          ceuvre [enternent progressive  de la doctrine,
          de la presse speciale  er des  congres  interna­
          tionaux qui preparent  I' opinion  des cercles
          intereeses, des gOllvernements et des legisla­
          teurs. Actuellement,  les lois nationales pre­
          sentent entre elles de profondes differences,
          les caracteres de brevetabilite et l'etendue de
          protection des inventions, les Iormalites  re­
          quises pour le depot,  l'examen  et la di!li?
          111111111111111111111111111111111111111111111111111111111111111111111111111111111111111111111111





            1111111111111111111111111111111111111111  6  1111111111111111111111111111111111111111
            vrance des demandes de brevet, Ies condi­
            tions de maintien  en vigueur  et de defense
            juridique tant active que passive des brevets,
            tout cela  est different.
             L'uniformisation integrale des legislations
            en  matiere de brevets  ne  peut  etre  que
            I'oeuvre d'une tres longue peri ode de I'histoire
            de I'industrie.
             L'enregistrement international des brevets
            avec  examen  prealable  de  I'invention  se
            heurterait  a de  tres  grosses difficultes  de
            realisation: diversite profonde des legisla­
            tions  et des reglements de chaque pays  en  J
            matiere de brevets;  traduction de la des­
            cription originale  en plusieurs langues  ; len­
            teurs de la correspo"ndance  officielle d'un
            pays Ii I'autre ; inexperience de fonctionnaires
            disposant d'une documentation incomplete et
            de  moyens insuffisants ; frais generaux  to u­
            jours tres eleves  ;  inertie  et  routine d'une
            administration irresponsable.  L' organisation
            d'un enregistrement international des brevets
            apparait  comme  une  ceuvre compliquee, de
            fonctionnement peu pratique. de valeur et de
            portee incerte ines et de realisation difficile et
            releguee dans un lointain avenir.
             En resume: Ie brevet international, l'unifi­
            cation des legislations nationales  en matiere
            de brevets  et l'enregistrement international
            des brevets avec  examen prealable  n 'existent
            pas  et constituent  actuellement de simples
            vues de l'esprit,
             L'inventeur doit  donc deposer  une de­
            mande dans chaque.pays OU il desire proteger
            son invention. II fixera Ie choix des pays sui­
            vant la nature de son invention et l'importance
            de ses moyens financiers. (I) L'inventeur doit
            charger son ingenieur-conseil  :
             De deposer de toute urgence  sa demande
            de brevet dans  un pays  sans  examen prea­
            lable, pour acquerir, dans la mesure du pos­
            sible, un droit de propriete  sur son invention
            avant to us autres.
             II Ie chargera ensuite de faire les recher­
            ches sur la  no uveaute de I'invention  en  con­
            sultant les  archives  des brevets anterieurs
            et la documentation technologique.
             Comme  ces recherches sont tres longues et
            co iiteuses, il  est preferable de deposer  une
            demande de brevet dans un, deux  ou trois
            pays Ii  examen prealable, tels  que I'Allema­
            gne, I'Angleterre  et les Etats-Unis, qui  ont
            organise  un exarnen prealable tres serieux sur
            la'  nouveaute  et la brevetabilite des inven­
            tions. Le Patentarnt  de Berlin, les Patent
             (I)  Neue conseillerone tOlljOUIS lea intereesee  gra­
            tuitement a  ce eujet  ,
            IIIIIIIIIIIIIIIIIIIIIIIIIIIIIIIIIIIIIIIIIIIIIIIIIIIIIIIIIIIIIIIIIIIIIIIIIIIIIIIIIIIIIIIII?



        1:111111111111111111111111111111111  7  111111111111111111111111111111111:-]


           Ollices de Londres  et de Washington, font
           des recherches d'anteriorite tres completes et
           ne delivrent les brevets que si l'invention  est
           reconnue nouvelle.
            En eifet, les examinateurs des bureaux offi­
           ciels  4e  brevets a B-;'rli";"  etc., ont a leur dis­
           position les copies de tous les brevets, bro­
           chures, circulaires, journaux, catalogues, etc.,
           t raitant de tous les appareils et de  tous les
           procedes,
            II convient,  autant que possible, de depo­
           ser  une demande de brevet dans  ces trois
           pays et ce, de suite  ap res Ie depot dans Ie
           pays  sans examen.]
            Les conditions de brevetabilite y sont dif­
           ferentes et l'examen y est pratique  de fa?on
           speciale dans chacun d'eux ; leurs resultats
           se completent  mutuellement.
             Ces recherches oflicielles exigent plusieurs
           mois  et il importe d'etre  fixe  avant  que Ie
           delai de douze mois, accorde par la  conven­
           lion  {lour deposer les demandes de brevet
           dans les autres pays etrangers, soit expire.
             L'etucie, la preparation, Ie depot des de­
           mandes de brevet;  I' obtention, Ie maintien
           en vigueur et la defense juridique  tant active
           que passive des brevets exigent le concours et
           l'assistance d'un ingenieur-conseil specialise
           en matiere de propriete industrielle  et ayant
           les  connaissances techniques de l'ingenieur
              sa formation dans une grande Ecole,  une
           par
           instruction juridique approfondie,  une prati­
           que jcurnaliere et une longue experience.
             L'ingenieur-conseil  en matiere de propriete
           industrielle est Ie mandataire attitre de l'in­
           venteur, de  l'industriel  ou du  commer cant
           aupres des auto rites qui delivrent les titres de
           propriete (brevets  d'invention  ou certifieats
           d'enregislrement de dessins et modeles  ou de
           marques de fabrique).
             II est,  en  outre, Ie conseil des inventeurs
           ou des createurs de modeles  et de marques,
           et doit,  a  ce titre, pouvoir les guider pour
           lout  ce qui  concerne l-obtention, la conserve­
           tion  ou la revendication des droits de pro­
           priete industrielle dans les divers  pays du
            monde.
  ,          Finalement,  comme 11 recoit, detient,  con­
  I
            lrole et maintient  en vigueur les brevets,  mo­
            deles  ou marques de  ses clients, il remplit
            a  ce titre,  pour la propriete industrielle,  un
            role analogue a celui du notaire pour la pro­
            priete ordinaire.
             Ainsi qu'il  est bien  connu,  la propriete
            d'une invention u'est assuree a l'inventeur que
            si celui-ci a depose  en temps utile  une de­
            mande de brevet d'rnvention accornpagnee de
         LIIIlIlIlIIlIlIIlIlIlIIlIIIlIlIllIlIlIlIlIlIUIIIIIIIIIIIIIIIIIIIIIIIIIIIIIIIIIIII:_j



                         -
         r:1?1I1111111111111111111111111111  8  111111111111111111111111111111111:-1

           documents techniques ?desoriptions  et des­
           sins) dont la preparation ,a  une importance
           capitale, puisque Ie brevet,  rneme deliyre,
           peut  etre attaque  en nullite, PO,U,! de  nom­
           breuses  causes et  potamm,ent ,P0ljr .ca,us," de
           description.insuffisante ou''obs<;ure.  .  .
           :., L'inventeur qui  ne p,?ut.:etre 'Iamiriarfse
           avec les lois definissan! Ies f'ondition? de
           brevetabilite des inventions et.de, validite des  f
           brevets, s'adresse donc a I'ingenieur-conseil  :
           celui-ci ecoute les confidences et explications
           de, l'inventeur, lui  ,eose  les questions neces­
           sal res, lui suggere dans certains cas Ge falre
           dabord des recherches sur' la nouveaute de
           l'invention, lui demande Ie plus souvent des
           indications complementaires 'indispensables
           pour [aire un expose clair' et complet de l'in­
           vention  ; puis, s'il y  a lieu, prepare, les des­
           criptions  et les  dessins de Is. demande de
           brevet de maniere que  ces pieces soient,  non
           seulement con formes  aux prescriptions ,regIe.
           mentaires, mais  encore  assurent  a l'inven ..
           teur la plus large protection -de la Ioi.
            jusque-la.I'ingenieu r-conseil  a joue, aupres
           de l'inventeur, le.rele de conseiI: il va devenir
           son mandataire des que Ie depobde brevet
           etant decide, il va;  en  vertu d'un pouvoir
           signe par l'inventeur, intervenir directement
           aupres de l'Administtation cornpeteute, pour
           deposer les pieces reglementaires, payer Ies
           taxes legales, recevoir le certificat  oiii ciel de
           depot, repondre aux communioations diverses
           ulterieutes de l'Administration er, tinalement,
           recevoir Ie titre olliciel du brevet.
            Le brevet etant delivre, l'ingenieur-conseii
           qui tient des registres speciaux  sur lesquels
           so nt repertories to us les depots faits par  son
           intermediaire, adresse a l'inventeur,  en temps
           voulu, des avis lui rappelant les diverses con­
           ditions i\ remplir pour eviter la decheancede
           son titre, paiement d'annuites, mise  en exploi­
           tation dans les delais legaux, etc.
            Si l'inventeur entre
           ,              en pourparlers avec des
           tiers,  pour leur conceder  une licence d'ex­
           ploitation de. son brevet, il vient encore con­
           sulter son ingenieur-conseil qui, dans I'interet
           des deux parties, veille a  ell que Ie contrat
           com porte des stipulations tres claires, notam­
           ment en  ce qui  concerne les redevances, Ie
           mode de contrele,  les solutions  a prevoir
           pour Ie  cas de nullite  ou de dech"ance. du
           brevet, pour le cas de contrefacon, etc.
             Si.enfin, I'inventeur estime qu'i! est' centre­
           fait, il convient de soumettre le 'cas a son  in­
           genieur-conseil qui, apres avoir. compare Ie
           brevet  et I'appareil  ou, le .procede argue de
           contrefaeon, en tenant compte des documents
           anterieurs  a sa connaissance suscepfibles de
           "11111111111111111111111111111"""""11111"""11"""11"1""""""""""""""111



        1:111111111111111111111111111111111  9  1111111111111111111111111111111111111111


          limiter I" po rtee du brevet. donne  son avis.
            Si la poursuite  est decidee, l'ingenieur­
          conseil prepare  le dossier technique pour
          l'avocat, execute, s'il y.a lieu. des dessins et
          modeles demonstratifs et colla bore avec l'avo­
          cat devant les tribunaux pour faire les de­
          monstrations utiles ou donner les explications
          techniques complementaires qui peuvent o1trE!
                                     .
          sollioiteee.
            Lorsque les tribunaux,  comme cela arrive
          souvent en ces matieres, nomrnent des experts,
          I'ingenieur-conseil represente I'inventeur de­
          vant ces experts, presente  nne argumentation,
          refute celle de I'adversaire et prend en un mot
          ditectement  ell mains la defense de I'inven­
          teur jusqu'au  moment ou, le rapport des ex­
          perts etant depose, l'affaire revient devant les
          tribunaux pour etre plaidee par les avocats.  ?
             La protection dans les pays
          etrangers.     Pays  a  examen
          prealable  : Etats-Unis,  Angle­
          terre, Allemagne, Pays Scandi­
          naves.
          f rOn  a surtout envisage jusqu'ici Ie role de
          l'ingenieur-conseil  au point  de  vue de 'Ia
          pjotection des inventions  en Belgique  et en
          France. Si l'Inventeur, I'industriel ou Ie com­
          mercant veulent cornme c'est naturel, s'assurer
          la propriete de leur invention. de leur modele
          ou de leur marque dans les pays etrangers.
          le concours de I'ingenieur-conseil leur devient
          encore plus indispensable.  ,
            Les lois sur la propriete industrielle sont;
          en elfet, tres dilferentes d'nn pays a I'autre et,
          en dehors de 1a question de traduction de la
          description de I'invention dans les diverses
          langues, l'inventeur serait dans I'impossibilite
          a peu pres complete de preparer Iui-msme les
           dilferentes pieces reglementuires pour eflec­
           tuer, dans les principaux pays. des demandes
           regulieres  en  vue de proteger  ses  propres
          creations.
            Mais a  cette premiere difficulte, vient s'a­
           j'outer une autre plus irnportante et qui serait
           generalement instlrmontable pour I'inventeur.
           Dans beaucoup de pays, la loi sur les brevets
           exige que la description soit terrninee par des
           revendications qui precisent les pretentious
           de I'inventeur et, dans  ces  pays, Ie brevet
           n'assure un droit privatif  a son possesseur que
           dans la limite de la teneur des dites revendi­
           cations, la  description proprement dite n'etant
           plus qu'une simple explication detaillee des?i,
           nee a faciliter simplement I'interpretation des
           revendications, mais n'ajoutant rien au champ
           111111111111111111111111111111111111111111111111111111111111111111111111111111111111111111111111

                                                  r


           1111111111111111111111111111111111111111  10  1I111111111111111?1I1I11I11I11I11I11I1I
           de protection rigoureusement  deli mite  par
           celles-ci. Or, il n'y a peut-etre pas deux pays
           parmi  ceux qui adrnettent un tel systeme, et
           ils  sont nombreux, OU il soit possible d'em­
           player la merne redaction pour les revendica­
           tions relatives a une merne invention, si I'on
           veut  se conformer a l'esprit de Is loi  et il la
           jurisprudenoe de chacun des pays consideres,
           c'est-a .. dire, si ron vent s'assurer Ie maximum
           de protection.
             L'ingenieur-conseil, qui  est  tenu de  con­
           naitre, de  par sa profession, les legislations
           des differents pays  en matiere de propriete
           industrielle et qui possede d'ailleurs des cor­
           respondants de  merne profession dans les
           principaux pays, prepare alors les pieces ne­
           cessaires pour chacun des  pays ou l'inven­
           _teur veut  se proteger,  en faisant appel, s'il y
           a lieu, a la competence speciale de  ses  cor­
           respon danta,  et  l'inventeur  entre  ainai  en
           possession de  titres presentant Ie maximum
           de garantie.
             Dans un grand nombre  de pays etrangers
           d'ailleurs, surgit  une autre difficulte qUI  im­
           plique  encore plus irnper ieusement le  con­
           cours de l'ingenieur-conseil  :  nous voulons
           parler des pays au fonctionne I'examen prea­
           lable  sur la nouveaute et la realite de l'inven­
           tion  ; pour  les  modeles  et les marques, il
           s'agit d'examiner a'il y  a  nouveaute et si Ie
           modele au la  marque repondent  aux  autres
           conditions de la lei nationale, prescrites pour
           de tels enregistrements.
             Cet  examen prealable donne lieu  a des
           objections de  toutes  sortes de la part des
           examinateurs officiels;  celles portant  sur la
           nouveaute  renvoient .J'interesse  Ii  des  do­
           cuments auterieurs,  brevets  de  to us  pays,
           ouvrages techniques, etc., que Ie demandeur
           doit se procurer, Iaire traduire  et etudier en
           vue de preparer  une reponae  Ii l'exarnina­
           nateur: suivant  que le document ante rieur
           est plus  ou moins voisin de I'invention objet
           de la demande soumise Ii I'examen, l'intereese
           doit generalement modifier Ie texte de Ia: des­
           cription  et  des revendications  de la dite
           demande,  de  maniere  Ii' leur  donner  une
           portee plus Iimitee, tenant compte de  ce qui
           etait anterieurernent  connu. La reponse peut
           etre suivie d'une nouvelle objection de I'exa­
           minateur, et ainsi de suite.
             II y a  d'ailleurs g?lIeralement deux, meme
           trois degree de juridiction d'examen dans les
           pays a  examen prealable et il  n 'est pas  rare
           de voir les  commissions superieures revenir
           sur lee decisions des commissions du premier
           degre, Si I'on considere que I'examen prea­
           lable existe  pour les demandes de brevets
           111111111111111111111111111111111111111111111111111111111111111111111111111111111111111111111111





           1111111111111111111111111111111111111111  11  III III 1I11111111!1I1111111111111 II 1111 III
           notamment aux Etats-Unie,  en Angleterre,  en
           Allemagne,  en Autriche  et dans les  trois
           pays scandinaves, on voit qu'il est impossible·
           II I'inventeur qui veut proteger  son invention
           dans lee principaux pays industriels, d'eviter
           la procedure de I'examen prealeble.
             Une fois les?brevets  etrangers  delivres ,
           I'ingenieur-conseil pourra d'ailleurs, grace ?
           son organisation,  assurer pour le compte des
           inventeurs, notamment Ie versement a l'etran­
           ger des  taxes annuelles "o u  autres  pour le
           maintien  en vigueur des dits brevets, dans
           des conditions plus regulieres et moins one­
           reuses  que  ne pourrait  le faire l'inventeur
           lui-rneme  ; or, la regularite  en I'espece  a une
           importance capitale, puisqu'un simple retard.
           dans un paiement apres l'expiration des delais
           legaux  entraine la  decheance du droit  de­
           propriete.
             Comme  on  Ie comprend,  I'inventeur  ne
           peut agir seul  et  ce n'est qu'avec Ie  con­
           cours de I'ingenieur-co nseil qu'il peut  se de­
           fendre  utilement  aupres  des  commissions
           a'examen etrangeres  et obtenir  un brevet lui.
           assurant la protection de  ce qu'il a reellement
           invente. Les difiicultes pour I'enregistrement
           des modeles et des  marques dans les pays a:.
           examen prealablc sont du meme ordre  et im­
           pliquent  pour les memes  raisons I'interven.·
           tion de I'ingeuieur-ccnaeil specialise.
             Le point de vue international. dont Ie role
           est si important  en matiere de brevets,  ne
                     sommairement rraire ici ; nean  ..  ·
           peut etre  que
            moins, Ie lecteur qui prend interet aux inven.·
            tions  y  trouvera  un  premier jalonnement..
             Commencons par quelques mots d'explica­
            rions quant aux brevets.
             On accorde des brevets  pour des inve)1-
            tions qui"  en merne temps que nouvelles, soot.
            exploitables  industriellement. Leur duree est
            maximum de quinze ans, pour autant que I'on:
            en acquitte les  taxes annuelles. Aux Erats­
            Unis d'Amerique,  Ie  brevet dure dix-sepr
            ans et  ne paie pas  a'annuites.  En Belgique,
            vingt  ans.Cl) Sont,  en general.  exclues des
            droits  au brevet,  res  inventions  contraires
            aux 'lois  et  aux boHnes  moeurs :  ainsi  que,
            dans la plupart des Etats,  les  comestibles.
            destines a I'alimenta:tion humaine ou animale,
            ainsi que leurs precedes de fabrication; ega:
            lement exdus, les rernedes ;  a  noter,  toute­
            fois, qu'en Suisse, lea precedes chimiques de'
            fabrication sont brevetables pour dix ans; par
            centre, la brevetabilite ne s'etend pas en Suis­
            se,  aux precedes et moyens purement  mecani-
             0) "Dans Quelques  pays, [a duree  est Iimitee entre
            15  et 20  ana.
            111111111111111111111111111111111111111111111111111111111111111111111111111111111111111111111111




          11111111111111111111111111111111111111111  \2  1111111111111111111111111111111111111111

          ques pour l'amelioration des fibres textiles.
            On  ne considere pas comme -nouvelles res
          inventions qui,  au moment du depot de la de­
          maude de brevet. ont ete, de Iacon notoire,
          utilisees,  ou decrites dans des publications
          imprimees, d'une fa?o'n sufiisante  pour per­
          mettre a des perscnnes de la profession  en
          question de les mettre a execution.  En Suis­
          se,. en Allemagne et en certains  autres  pays,
          il n'y a que I'utilisation-dans le  merne
                                 pays
          qui entre  en ligne de  compte,  tandis  que,
          dans d'autres Etats,  on tient compte de I'em­
          ploi dans Ie  pays  et fI I'etranger.  Ce qui
          constitue l'essence caracteristique d'une in­
          vention ne peut e..lre delin; d'une Iacon  non
          equivoque, Citons, ici, quelques jugements y
          relatifs, rendus  par des tribunaux : Le trait
          essentiel constituantune invention reside dans
          une idee creatrice grace 11 laquelle  on arrive,
          a.J?res  avoir surmonte  une certaine difficulte
          d ordre technique, a faire naitre un nouvel effet
          utile d'ordre technique,  qu bien grace a la­
          quelle  on aboutit a un effet utile et technique
          deja connu, mais en.y arrivant par  une voie
          non encore' connue et constituant un progres
          technique. D'autre part, il y  a lieu de, noter
          que Ie legislateur protege de la merne manie­
          re et dans la  merne etendue les inventions
          importantes  ou insignifiantea et que la loi  ne
          peut refuser cette. protection a  une invention
          du fait que l'effort intellectuel exige  pour la
          prcduire n'aurait ete que minime.  Si I'on  se
          trouve en presence d'une conception  verita­
          blemerit nouvelle, pouvant etre employee avec
          avantage et n'ayant, jusqu'alors, jamais  ete
          concue par quelqu'un d'autre, cela sullit,  en
          general, a justifier  In conclusion  que  cette
          nouveaute u'a pu etre engendree
                                que  comme
          resultat de l'etat d'activite intellectuelle gene­
          ralement appele  « ingeniosite ».
           On voit, par  ce qui precede, Is diffic,ulte
          qu'il y a,  en certains cas, A se rendre compte
          si I'on est en presence d'une invention Ii
                                     pro­
          prernent parler ou bien tout bonnement d LIne
          amelioration ayant trait a l'habilete dans la
          profession. Le brevet confere A I'inventeur Ie
          droit exclusif d'exploiter industriellement l'in­
          vention  ; il peut donc y renoncer, Ie trans­
          mettre a des heritiers, ou en passer licence Ii
          une ou plusieurs tierces personnes. Telle est
          Is situation resultant d'un brever.,
           Au point de  vue international, il convient
          d'observer que les inventions ne jouissent de
          la  protection que dans les Etats  oil elles ont
          obtenu le brevet. Les depots de demandes
          de brevets dans les pays importants repre­
          sentent deja  une mise de fonds qui,  en bien
          des  cas, surpasse deja les ressources pecu­
          niaires de I'inventeur. Quant II la
                                 conception
          111111111111111111111111111111111111111111111111111111111111111111111111111111111111111111111111




           1111111111111111111111111111111111111111  13  1111111111111111111111111111111111111111

           ideale verslaquelle  011 dirige  ses efforts de­
           pUIS longtemps et suivant laquelle u'ne inven­
           tion, de par Ie depot dun brevet en un pays,
                           brevetee en' differents
           serait, du meme coup,
           a ut res Etats,elle echoue a  cause deIa grande
           diversite des legislations  sur la propriete in­
           dustrielle  en vigueur dans Ies, differents Etats
           comme nous I'avons clairement explique dans
           les pages qui precedent,
            Abordons a present Ie chapitre' de la diver­
           site des procedures pour I'accord d'un brevet,
           .
            En these generale,  il y  a lieu de considerer
           h; procedure cl'examen  ..
            On peut y joindre la procedure de ipubli­
           cation, ayant pour effet I' exposition des pieces
           a la  vue du public, afin de permettre qu'on
           signi6e opposition Ie  cas echeant, La proce­
           dure. de depot  sans  exam en relatif a la  nou­
           veaute est pratiquee dans les  pays de  race
           latine ainsi qu'en Suisse  et  en Hongrie ;  en
           ce demier  die marche de pair avec l'ex­
                  pays,
           position publique.  ,   .     "
            Dal)s .les pays qui u'examinenr pasla .nou­
           veaute, tout ce qui est depose conlormement
           aux. prescriptions administratives obtienr  un
           brevet, independamment de  ce qu'il  s' agit,
           d'une. chose  nouvelle  'ou ancienne,  dune
           invention veritable  ou- non; c'est pourquoi
           les brevets accordes  en  ces  pays n'ofllent
           aucune garantie  pour les droits de. brevet.
           Ceux-ci  ne  sont determines  que lors d'une
           action en Justice, generalement par ?ne pro­
           clamation de nullite de brevet  en  cas de
           questions  se  rapportant  a  la contrefacon.
           Les  brevets n'ayant  pas  fait I'objet d'une
           decision de tribunal peuvent, merne s'ils ne
           tiennent pas debout, etre neanmoins main ..
           tenus  en vigueur pendan]  toute leur duree
           legale: ils  ont alors I'effet le plus .perturba­
           teur pour I'industrie,  et entravent'l.e progres,
           II est facile de cornprendre que des bre  ets
           non soumis a I'examen et non exploitee par
           le brevete lui-merne,  ne  se pretent que di$­
           cilement a  une mise  en valeur si I'invention
           ,,'est pas  en meme temps protegee  par  un
           brevet dans  un  pays  a  examen prealable ;
           c'est dans cet, ordre d'idees que l'on attribue
           une  importance  route  pa rticulrere  au brevet
           allemand,  en raison de l'examen approfondj
           qu'il doitsubir.             ,
            En genera!,  on peut ranger parmi" les Etats
           pratiquant l'examen,preal?ble  sur Iii question'
           de nouveaute, les pays germaniques, la Fin­
           lande, la Pologne e,t 'Ia Tcheco;Slqvaquie.  Les
           Etats.Unis cl'Ameriqueont egalement instjtue
           I'examen, mais dans  un sens tout a fait dif?
           ferent, et l'Arigleterre limite son examen  aux
           publications faites en Grande-Bretagne.
               11 11 11 11111111111 111iiiII 111111111111111111111lliiil 11111111111
        L:1I111                    1I1111111i1l1l::.J




          1111111111111111111111111111111111111111  14  1111111111111111111111111111111111111111

            Dans Ies pays a examen, particulierement en
          Allemagne, les examinateurs sont des experts
          en Ia branche dont il s'agit, joignant 11  une
          grande culture scientifique  une  vaste expe­
          rience dans leur specialite.
  I
  ?I        Toutes Ies anteriorites s'opposant a la de­
  I
          'man de de brevet sont signifiees au deposant
  I       de celle-ci, Iequel peut,  au bien developper
  I
          les raisons sur Iesquelles il base la brevetabi­
          'lite de son invention,  au bien restreindre Ia
          portee de  ses revendications,  au bien encore
          retirer sa demande de brevet. Par l'accumule­
          tion des textes d'objections et des argumenta­
          tions retorquees il celles-ci, il se forme un baga­
          ge d'archives auquel  on peut puiser utilement
          des donnees  au  cours d'une publication de
          I'invention  au d'une assignation  en nullite  ,
          En consequence, les brevets accordes en ces
          pays reposent  sur des bases de tout premier
          ordre, sont rarement perimes Iaute d'avoir ete
          main tenus, et il est  rare que I' on ose se Iivrer
          'il Ia contrefacon, etant donne les suites graves
          -qu'elle entrainerait.
            L'Union internationale pour Ia protection
          de la propriete industrielle  a ete fondee  en
          1883.  avec bureau 11 Berne.  La convention
          d'unio n  assure il quiconque  a regulierement
          opere  son depot  en I'un des pays contractants
          le delai de priorite dans Ies autres pays  con­
          'tra ctants  so us  reserve des droits de tierces
          personnes.
            II s'ensuit que des faits qui  se  seraient
          accomplis durant  ce delai de priorite,  no­
          '1amment le depot ulterjeur par un tiers. Ies
          publications  ou Ia mise dans le commerce de
          I' objet de ['invention,  ne peuvent invalider la
          protection dans Ies  autres pays contractants,
          pourvu que I'inventeur  ne manque pas d'o­  i
          perer le depot  en  ces pays avant l' expir?tion  I
          du dit delai, lequel  a ete fixe il douze mois
          pour les brevets.
            Taus les pays importants font maintenant
          partie de cette union, dont les clauses ant ete
          edifiees comme resultantes de diflerentes con­
          !ferences  de  revision  ;  cette convention  a
          done  une portee universelle,  et  exerce des
          effets extrernement bienfaisants. En premiere
          Iigne, elle permet il I'inventeur de commencer
          par operer dans un seul pays Ie depot de  sa
          demande de brevet. puis de mettre il profit Ie
          delai de priorite pour la mise au point defini­
          tive  au la mise  en valeur de  son invention
          'par voie d'exploitation.  au bien pour se pro­
          curer les fonds necessaires afin d'operer les
          depots dans les autres pays.
            Quant a In clause de reserve des droits de
          tierces personnes, inseree dans la Convention
          internationale,  ce simple membre de phrase
          111111111111111111111111111111111111111111111111111111111111111111111111111111111111111111111111




          1111111111111111111111111111111111111111  15  1111111111111111111111111111111111111111

          semblait,  au debut,  n'avoir qu'une portee
          anodine,  mais,  par  la suite, il  a pris  une
          importance de plus en plus considerable. En
          somme, une demande deposee durant Ie delai
                     un tiers,  ou bien  brevet
          de priorite par        un
          obtenu par celui-ci, doit ceder Ie pas devant
          la demande  beneficiant de la priorite. Or,
          I'on trouve, dans la legislation des brevets de
                    entre autres de la Suisse,
          bien des pays,              une
          clause relative au droit de premiere utilisation,
          en  ce  sens qu'un brevet demeure  sans effet
          vis-a-vis de celui qui, lors du depot de la
          demande, avait deja, de bonne foi, fait usage
          de I'invention  ou precede a des preparatijs
          en vue de semblable utilisation:  ce dernier a
          done Ie droit d'exploiter I'invention dans  ses
          propres ateliers  ou dans des etablissements
          appartenant  11 d'autres personnes.  Ce droit
          ne peut etre transmis a  un tiers qu'en rnerne
                   I'etablissement lui-merne  II  est
          temps  que               ,
          clair qu'un droit de  cette  nature doit jouir
          de la protection lorsqu'il  a pris  naissance
          avant  Ie premier depot,  soit dans  Ie PllYS
          en question, soit a l'etranger. Or, il peut  se
          faire qu'un  brevet  ait  ses effets fortement
          diminues du fait de pouvoir  etre utilise  en
                      un autre que l'inventeur  ; il
          merne temps par
          peut merne, en certaines circonstances, perdre
          la totalite de  sa  valeur  et il  ne peut  pas
          retroagir sur des faits qui  se seraient passes
          avant le depot. L'interpretation actuellement
          donnee 11  cette clause concernant la reserve
          des droits de tierces personnes implique que
          des droits d'utilisation precedents, memeayant
          pris naissance durant Ie delai de priorite, doi­
          vent jouir de la protectionvis-a-vis  d'un brevet
          depose en invoquant Ie droit de priorite, Une
          situation dangereuse surgit de cet etat de cho­
              car des  industriels  consciencieux
          ses,              peu
          peuvent  avoir  connaissance d'un depot de
          brevet 11 l'erranger et immediatement se forger
          un droit de pre-utilisation  avant que I' on corn­
          mence 11 exploiter Ie dit brevet, d'autant plus
          que la mauvaise foi n'est pas toujours possible
           11 dernontrer.
            Les efforts  en  vue d'abolir  cette malen­
          contreuse clause de pre.utilisation  ant echoue
           encore a la conference tenue, pour la revision
          de  cet article,  en 1911, a Washington, echec
           de. particulierement  a l'attitude des delegues
           de la Suisse. Cependant,  ce pays a solutio nne
           la question,  dans  un  sens figuratif, par  une
           loi edictee en 1914,  en  ce sens que,lorsqu'il
           existe un droit de priorite pour une invention,
           du fait deson depot a ['etranger,  un droit de
           co-utilisation de l'invention  ne peut exister
           pendant  le delai de priorite,
            II est a esperer que cette Iacon desinteressee
           de trancher la question  sera suivie, tout  au
           111111111111111111111111111111111111111111111111111111111111111111111111111111111111111111111111

                                                  l


            '1111111111111111111111111111111111111111  16  1111111111111111111111111111111111111111
            mains si ron  ne parvient p?s it supprimer
            radiealement  eette clause de I'article dont
            if a'agit, n semble tout au moins y avoir appa­
            renee de voir les efforts courormes de succes
            dans Ie  sens de  ne reconnaltre  un droit de
            pre-utilisation ayant pris naissance durant Ie
            delai de priorite, que s'i]  a pris  naissanoe
            avant la publication,  par consequent,  sans
            exclure la bonne foi.
             En conclusion, jarnais un inventeur ne de­
            vrait hesiter, des que sa conception  a ete suf­
            fisamment travaillee et qu'elle est a point pour
            Ie depot d'une demande de brevet, a a'assu­
            rer, tout au mains par un depot,  Ie droit de
            priorite et Ie delai a mettre II profit, soit pour
            parachever Son invention, soit pour se procu­
            rer les moyens de Iaire face  aux depots  en
            pays etrangers, soit pour entarner des  pour­
            parlers dexploitaticn. II resulte encore de ce
            qu'en Suisse aucun droit de co-utilisation  ne
            peut prendre naissance au  cours du delai de
            priorite, que l'on peut; sans subir aucun pre  ..
            judice, surseoir au depot  en Suisse sans  ?tre
            alors entrave en ce pays dans  le travail de
            parachevement, d'exploitation  ou de mise  en
            valeur;  et il y  a lieu de noter I'avantage qu'il
            ya d' operer ses premiers depots dans les pays
            II examen prealable, et en particulier,  en An­
            gleterre," en  Amerique  et  en Allemagne,
            puisque la procedure d'examen y  est  tout it
            fait superieure. m On peut, alors, tirer  parti
            du resultat de l'examen  pour les demandes a
            deposer en d'autres pays, evitant ainsi l'cbren­
            tion,  en Belgique,  en Frence, etc.,  au autres
           pays  sans  examen,  d'un brevet qui ne serait
           plus valable  au bien ne le serait  pas dans
           toute I'etendue revendiquee par l'inventeur;
           breI.  en procedanr de la sorte,  on augmen­
           teraitla valeur des brevets obtenusen ces pays.
              Office International des Inventions
                    Joe-G. STEPHENSON
                  MONS (Hainaut) Belgique.












            (I) Voir ce qui est dit dans lee pages precedentea,
           111111111111111111111111111111111111111111111111111111111111111111111111111111111111111111111111
                                           I

















            Inventeurs,
                  Attention' !



            Aussitot  que  l' un  ou ,1' autre de
       vos  brevets  sera  annonce dans  un
       bulletin officiel,  vous recevrez de toutes
       parts,  des offres  qui,  a  premiere vue,
       peuvent paraitre avantageuses.

                MEFIEZ-VOUS
       et  n'y donnez  aucune  suite  avant
       d' avoir  vos  apaisements.


               ECRIVEZ·NOUS
       et nous vous conseillerons  loyalement.

    ,  ,
           ,Nos consultations  sont  gratuites
       et sans aucun                vous.
                    engagement pour
                    Office International
                       des Inventions
                            MONS
                        Hainaut  Belaiqu ..






  I
  I































































                                 ·  .


                              Imprimerie de
                              l'Office International
                              des Inventions, Mons

