














               EE








           ?
      illl-
      '(
       \C,
       """',
       "
          '\
       .,c

    f
       ,,'
          v
            \:.;.,
          i'

              ?
            -/
            "
  ,     !.?
  )... ..
  ?  .
     ?
       ?
   '!1.
                                                                        -'?
  ?  .. ?
          ...                                                              /       r
      I,
     "                                                                              \
        "
  ,?.::.;.   r'?  e-


                                                                     .
                                                                     ,.,_,
                                                          ?
                                                          "       f
                                                          ?
                                                                 J  ",
                                                                 :.If--
                                                              /       r-
                                                             I
                                                                      .<!?














                                                                   -
                                                                   ,
                                                                )''''
                                                               .\
                                                                ?
                                                                   (





























                             '.;,
                               r  ?
                        ".-
                       ?- ?.j,.:_?  .y;
                            ??
                      _;;,;
                             ."
                                 /r
                      ?  •
                           r:
                         "
                               ""     "
                                .       -
                                        ,
                     ?
                        ,,-  .?  ??>'



























              LE PAPIER MAT
          ·




                   ·GEVAERT















                                 JUGc


                                   F'AR

             LES SOMMITcS FHOTOGRAFHIQUES
















                              I,.APORtI!: &. coeae, ANVIR&.
























































































  Societe Franco-Beige pour  la Fabrication de Produits Photographiques (commandite par actions)
               L. GEVAERT & Co.  -  Vieux-Dieu  -  Paris  -  Berlin  -  Vienne.





























                                   _Ji.)


                                             .»

                             Usines a VIEUX-DIEU.












































































                                                                 .
    ......................... ?



              SOCIETE fRANCO·BELOE

        POUR LA FABRICATION DE PRODUITS PHOTOGRAPHIQUES
                         (Commandite par Actions)


                L. OEVAERT & elE


                       VIEUX-DIEU (Anvers)

    ?====================?or.=====================?




             Les Usines Oevaert occupent  une superficie  de 25.000
     metres  carres (200  metres  de  profondeur  sur  125  metres  de
     largeur)  dimensions  assez respectables  pour  un Etablissement
     produisant  exclusivement des Papiers photographiques barytes  et
     ernulsionnes.
          Elles sont situees  sur  un emplacement  des plus  favorables
     en  ce sens que  l'eau  y  est excellente,  et  que  la nature des terrains
     environnants les met a l'abri de la poussiere,
          Des machines d'une grande puissance y  ont ete installees,
     et des soins meticuleux ont ete apportes  a.' l'outillage qui  est des
     plus  modernes et de la plus grande precision,  suivant le systerne
     Oevaert.
          Le travail manuel est reduit au minimum et la main d'ceuvre
     indispensable est faite entierement par  des hommes a l'exclusion
     de tout  personnel  feminin.  Cette  mesure  a ete prise, malgre  la
     difference des salaires, parcequ'il  est impossible  de compter  sur
    'l'exactitude des ouvrieres, et parcequ'une  fabrication aussi delicate
     que celie  des papiers photographiques  demande  une  attention
     soutenue, jointe a la plus grande precision.  En effet it  ne  con­
     vient  pas  de faire des essais  sur le dos du photographe,  et de
     lui creer des ennuis continuels au  moyen  d'ernulsions irregulieres,


                                                                 .
                                        .. m
     ..............  -                 "
                                 -3-

                --  -?
  I
  I
 r
 I
                                                                          .
              •    0     •·  .,


              ainsi  que  cela  arrive  souvent  de  la part  d'etablissements  de
              moindre importance.
                   La firme Oevaert  ne s'est pas  seulement impose  la tache
              de perfectionner  au plus  haut degre  ses  pro cedes d'ernulsion,
              dont  la base repose  sur des donnees  absolument scientifiques,
              mais elle s'efforce encore tout specialernent d'apporter  la plus grande
              precision  au travail technique  dans ses usines. Le Directeur-Oeneral,
              Mr. Lievin Gevaert,  emit un jour  verbalement cette sentence si ju­
              dicieuse: "L'excellence  d'un produit  n'est pas  dernontree par  le fait
              de fournir de  temps  en temps  au consommateur de bonnes pre­
              parations;  l'hornme du metier  ne donne  son entiere approbation
              qu'au produit  livre constamment et regulierement  sans defautll.-
                   L'exploitation en grand perrnet  aux Usines Oevaert d'atteindre
              une  constante regularite  dans la fabrication de  ses produits.
                   II est un fait  connu de tous les professionnels, specialernent
              de ceux qui  travaiIIaient le collodion,  c'est qu'aucun  emulsionneur
              du monde    ne peut composer toujours identiquement  la merne
              emulsion.  La firme Oevaert est a rnerne de rernedier a cet in­
               convenient, parce que  sa grande production  lui permet  de faire
               des melanges.  C'est ainsi qu'elle  reunit  en  une seule  masse  un
               grand  nombre d'emulsions, composees d'apres  un  pro cede special,
               secret des  Usines Oevaert;  -  par  ce melange  les  differentes
               emulsions sont arnalgamees:  les legeres  differences qu'elles peuvent
  I'
   ';                                            et  ron  obtient  une grande
               presenter entre-elles, disparaissent,
               quantite  d'ernulsion parfaitement hornogene.
                    Une fabrique  de dimensions ordinaires,  rnerne si  elle  con­
               naissait les  pro cedes speciaux  de l'Usine Oevaert,  ne pourrait pas
               se servir de  ce systerne  des melanges, qui  ne reussit qu'en grand,
               et parcequ'une  seule des nombreuses emulsions necessaires  au me­
               lange pourrait  lui suffire pour  les besoins de toute  une semaine.
                    Les Usines Oevaert apportent  des soins meticuleux,  merne
               aux manipulations accessoires,  la Direction partant  de ce principe,
               que pour  une fabrication  aussi difficile  et  delicate,  la moindre
               operation  doit etre soumise  aux regles  du metier. Dans  ce but
               chaque  ouvrier est range  dans  une section fixe,  ou iJ s'occupe


                                                                          ,
               ................................................................................................................................... " ....... .•.
                                           -4-







     .................................................................................................................................................


      constamment d'une seule et merne besogne,  ce  qui  lui fait acquerir
      une grande  sftrete de  main,  et merne une certaine virtuosite dans
      l'execution de  l'ouvrage particulier qui  lui incombe.  -  Un article
      du reglernent  de l'Usine defend formellement a tout membre du
      personnel  de  quitter  sa  section, sous quelque pretexte que  ce soit ;
      sa presence dans  une section autre que  la  sienne,  entrainerait son
      conge  irnmediat.
           Ce qui precede  dernontre a l'evidence  que  les  papiers  Oevaert
      sont fabriques  avec les soins les plus minutieux et la  plus grande
      regularite  .













































     ...................................... _  e"  ?  · ••  ·  ••  •  • •• ,·,·


                                  -5-



















 I


  I



  I
 I
 I
  ,
 I
 I






     ................................................................................................................ -  .





         Beaux cliches mais

                          epreuves         miserables,



             On remarque generalement que     Messieurs  les  Photo­
     graphes professionnels  n'attachent  pas  aux  travaux  du tirage
     l'importance qu'ils  meritent,  -  En ceci ils ont grandement  tort.
     En  effet,  a quoi  servent les  plus  beaux et les  plus justes effets de
     lumiere,  la  perfection  la  plus  raffinee des  negatifs,  si le tirage
     est defectueux P
          L'effet d'ensemble  est generalement perdu!  La  plupart  du
     temps l'operateur  n'obtient  pas  les resultats attend us, malgre  l'excel­
     lence de ses cliches. En outre Ie travail est souvent d'une irregularite
     desesperante :  un  jour l'ouvrage  sera parfait, tandis  que  d'autres
     fois il  y  aura  des dechets  en  masse.  -  D'ou cela provient-il?
     La  cause principale,  dans la  plupart  des  cas, gtt  dans Ie choix du
     papier  ou du  carton,  alors  que le Photographe, pour  ses achats,
     regarde  a  quelques centimes,  tandis qu'il  ne devrait se servir que
     de ce qu'il y  a de meilleur comme qualite,
          So us  ce  rapport la firme L. Oevaert & Oe ne recule devant
     rien: la bonne  qualite est  pour  elle Ie  point  essentiel.  II est vrai
     que  ses papiers  ne sont  pas toujours les moins  chers,  mais par
     contre  ses produits sont tout  ce qu'il y  a de  plus precis  et de
     plus techniquement  correct.  Le fondateur des Usines Oevaert,
     Mr Lievin  Oevaert,  l'un des  plus  anciens emulsionneurs s'occupe
     activement de la fabrication et surveille  personnellement chaque
     emulsion.  Mr Oevaert n'etant pas  seulement chimiste eminent,
     mais  photographe  des  plus experimentes,  il est mieux  que personne
     a merne de connaitre les besoins du  photographe professionnel.
          Ce qui distingue Ia maison Oevaert des autres ernulsionneurs,
     et  ce  qui  est  une grande garantie pour  une production reguliere
     et  parfaite  en  papier ernulsionne,  c'est  qu'elle fabrique  elle-rnerne
     son  papier baryte •


                                                                  .
     ......................... 0  0         O  H
                                 -7-



































































































                                                           .,....
                                                                    '"
                                                                    t'....





















        Une des grandes Chaudieres (du poids  de 22.000  Kos) employees pour la fabrication
                          des Papiers  Emulslonnes GEVAERT.












































































     ....................................................................... ··0  II"  0 .. 0"  .







    Avertissement serieux l


              a I' avantage     de Messieurs

                   les  Photographes professionnels!




             II arrive frequemment que  de  petits fabricants, produi­
    sant  peu,  offrent leurs  produits  a des bas prix incroyables, qui
    ne  sont  nullement  en  rapport  avec les tarifs  des  maisons  de
    grande  et solide fabrication.
         Cependant  de  tels  fabricants  suivent proportionnellement
    comme   frais  de reclame,  de  vente et  autres,  les  fabricants  de
    premier  ordre. Tres souvent, malgre  leurs bas prix  de vente dis­
    proportionnes,  et les prix  eleves auxquels  ils sont forces de  payer
    la matiere premiere,  ils arrivent a la fin de l'annee  avec un pour­
    centage de benefice net plus  eleve que  celui des fabricants serieux,
         Cela parait  d'autant  plus enigmatique,  I que  ces fabricants
    pretendent serieusement, que  la qualite  de leurs articles est  par­
    faitement  equivalente  a telle  ou telle fabrication renommee,
         On pourrait  croire qu'aujourd'hui  de telles  offres seraient
    jugees  a leur  juste valeur; cependant l'experience  nous dernontre
    que maints photographes profession  nels  se laissent prendre  aces
    eloges suspects,  a defaut d'etre suffisamment eclaires a cet effet.
         Le bon rnarche est trop  tentant  pour  ceux des  consomrna­
    teurs  qui  ne sont  pas cornrnercants,  ou bien qui  attachent plus
    de valeur au cote mercantil  qu'au  cote de la qualite,  voir meme
    artistique.
         Nous ne  pouvons pas  assez faire  ressortir, qu'aucune fabrique
     ne  pourra livrer de la marchandise reellernent bonne a vii prix.
     Si  malgre cela,  certains  fabricants  sans importance pretendent
     pouvoir fournir une premiere qualite  a des bas  prix extraordinaires,



    ..............................................................................................................................................

                                 -9-






                                                                        .
                                                                  M
                           0.'   '0
           ............... ,  "
            des  doutes tres-legitirnes  sur Ia justesse  de  ces pretentious  et Ia
            veracite de  ces allegations  doivent inevitablernent surgir pour  Ie
            professionnel  bien  avise.  Voila pourquoi  il  est  interessant  de
            considerer  de pres  les principes  de  fabrication  des  fabricants
            serieux et consciencieux,  et de les com parer  a  ceux des fabricants
            vendant a vils prix.
                 La fabrique  de  renom  a avant tout a cceur,  de  ne produire
                le meilleur et Ie plus  solide.
            que
                 A  cette fin  elle  monte des machines fournissant  un travail
                                        et elle s'assure la coIIaboration d'un
            precis  sous taus les rapports,
                                                         tout  ce qu'il y  a
                                         Elle n'achete que
            personnel  des plus capables.
            de 1  he  qualite,  et apporte  a la fabrication,  dans toutes  ses phases,
            l'execution la plus  minutieuse.
                  La marchandise fabriquee  est soumise a un essai approfondi,
            theoriquernent  et pratiquement;  lorsqu'elle  est trouvee exempte
             de tout deiaut  sous tous les rapports,  elle est remise au departe­
             ment du triage.  -  Les trieurs occupent  dans de telles fabriques
                                                              caractere de
             generalernent  des postes  de confiance et revetent le
                         De la direction ils recoivent les instructions de porter
             controleurs.
                            leur attention a  ce que pas  la moindre marchan­
             rigoureusement                                         bonne
             dise rebutee  ne sorte de la fabrique,  et cela pour que  la
             renornmee de la marque  de fabrique  reste  sans tache.
                  Ces explications  dernontrent  suffisamment qu'une fabrique,
             qui  veut maintenir la bonne renornmee de ses marques,  ne pourra
                                                                 mais elle
             mettre de Ia valeur  sur  une fabrication a bon marche,
             doit  en tout tern ps produire  une qualite  de 1  er ordre.
                                                           de tels produits
                  Tout le monde cornprendra  aisernent que
             ne peuvent  se  vendre  en  dessous duo prix normal;  car si l'on
             voudrait vendre egalement  a vii prix,  il  y  aurait perte.
                   Quelle est maintenant la situation des petites fabriques qui

              font  des prix  nets  si bas,·  mais  pretendent  serieusernent  que
              Ia qualite  de leurs articles vaut parfaitement  celle de fabrication  -
                                         cedent de la maniere suivante:
              de bonne renornmee ? Ils pro
                   Avant tout ils fixent  un prix qui par  son bon  marche doit
              faire sensation, frapper  le client,  et puis  ils  se demandent:

                                                                          .
              .............................. ,  ,'

                                          -10-






   .................................................................. e  ,  .. e  .. 6  ,  ,oo ,  .. '''0  .. e  .

        Quelle qualite puis-je  fournir a  ce  prix  aux  clients? Que
   dois-je  faire pour que malgre  ce bas  prix je  trouve mon benefice?
        II  n'y  a qu'un  seul  moyen,  c'est d'econorniser et de reduire
   tant qu'on peut.
        Une matiere premiere  a bon marche est choisie; pour  le  baryt­

   age  du papier  brut a bon marche,  on s'adresse a de  petits baryteurs
   qui  travailIent a bon compte,  mais  sans regularite ;  l'ernulsion est
   preparee  et couchee  sur Ie papier  de la maniere la plus  econo­
   mique.  Les installations de precision  necessaire font defaut,  car
   elIes exigeraient  un  trop grand capital.  On emploie pour  la fabri­
   cation  un personnel peu  sftr  et  mal rernunere,  des emulsions
   souvent mal  reussies,  et  que  les fabriques  serieuses refuseraient;
   mais chez  eux les  bas prix  ne supportent pas pareilles pertes.
        Arrive Ie  triage;  c'est ici que  l'on peche  Ie plus.  En moyenne
   on rebute  10%  moins de papier que  ne Ie font les fabriques  de
   premier  ordre.
        Eh  bien,  ici  10%,  sur differents autres postes  Ia merne chose.
    Peut-on  encore s'etonner,  que  de telles fabriques  realisent  un
    benefice d'un plus  haut pourcentage,  que  les grandes  et solides
    fabriques,  et cela  malgre  leur prix  d'achat plus  eleve et leur vente
    a vii prix?
         Evidemment  avec Ie temps,  la plupart  des Photographes
    sont amenes a reconnaitre qu'une  telle marchandise a bon marche
    leur revient Ie  plus  cher par  suite du gaspillage  de materiel et de
    la  perte  de temps;  mais la fabrication de tels articles  ne  cessera
    pas, parcequ'il y  aura toujours  des  nouveaux venus, qui preferent
    trier et  rebuter largement  les  travaux finis,  que  de depenser
    quelques  centimes de plus pour  leurs achats,  et ainsi obtenir  une
    marchandise de toute premiere qualite  .













    .... ,  H'" t',  j  ,  .. ,loG  10'  ,  0'"  ? ,  ,  '  10 C)'" ,  .. 'oo  41, ,  ,  .. ,  .

                                -11-







             ............................................................................... jJ  t  o  ·•  •••·



















                     Le  Papier    Mat Oevaert       se  fabrique  en  cmq

             sortes differentes :

             Sorte I      Mat satine ordinaire

                     II         Rugueux
                "           "
                     III        Satine Medio fort
                11          IJ
                     IV                  Carton
                "           "      "
                     V                       carton blanc et
                "           "  gros grain,                     chamois,
             et  en taus formats usites,
                     Le tarif  se trouve  sur les modes  d'ernploi separes  .





















             ....  s        11                             1·0 .. 111  10  .

                                         -12-






                                                                  .. ,
                                                 0-  0  '  ""'D  ,oo,  ,  .
          •



                   Mode     d'emploi      du   Papier    Mat

                                ,,0  EVAERT"


                Conservation.  -  Le papier  doit etre tenu  au  sec et pre­
          serve  de  la  lumiere  du jour,  de preference  dans l'emballage
           original.  II est a recommander de  partager  les  gran des feuilles
           en petits  formats  en les  coupant, par  ce  moyen  on evite absolu­
           ment les  cassures  ou soulevement des bords.
                Cliches.  -  Les cliches vigoureux  et riches  en  contrastes
           sont a recomrnander,  car  plus  ils sont brill ants, plus  les tons des
           epreuves  seront  jolis.
                Tirage,  -  Les  epreuves  doivent etre tirees suffisamment
           Ioncees sans cependant exagerer,  car elles  perdent  moins aux bains
           que  celles des  papiers  similaires.
                Lavage prealable,  -  Cette operation  ne doit  pas  durer
           plus  de 4  ou 5 minutes  et l'on  recommande de prendre  tout
           au plus  30  epreuves  a la fois.  Une plus grande quantite  neces­
           siterait un  plus long sejour  a l'eau,  ce  qui  nuirait a 1'obtention des
           tons noirs  platine,  On precede rapidernent  dans de l'eau 4 fois
           renouvelee et i1  est bon d'employer  de l'eau distillee pour  ces
           lavages prealables,
                Ensuite les  epreuves  sont legerement  virees dans le bain
           d'or suivant :
                                    Solution A.
                Bain d'or.    Eau distillee  ,               1000  C.c.
                              Acetate de Soude cristallise     10 gr.
                              Borax                            10 gr.

                                    Solution B.
                              Eau distillee.                  100  C.c.
                              Chlorure d'or  .                  1  gr .


                                                                       .
           ....... .,
                                       -13-






             ........................... ,                                .


                  Un  quart d'heure avant  I'emploi  on  melange  a 400  c.c. de
             la solution  A,  8  c.c. de la solution B.  Ce  melange  ne  peut  etrr
             employe qu'une seule fois.
                  Lorsque les  epreuves restent  peu  de  temps dans Ie bain d'or
             elles  prennent  au bain de  platine  un ton chaud brun  noir;  au
             contraire,  en  prolongeant  Ie  sejour  des  epreuves  dans Ie bain d'or
             on obtient dans Ie  platine  des tons noirs bleuatres,
                  Ainsi  que  nous venons de Ie  dire,  tout Ie  tirage  de la journee
                                                                            •
             doit etre lave et vire a l'or  par parties  de 30  epreuves maximum;
             apres cette  operation  toutes les  epreuves sont reunies et lavees a
             fond, puis  on les  plonge  une  par  une dans Ie bain de  platine
             dont nous donnons la formule  ci-dessous,  ou on les laisse Ie  temps
             necessaire  pour obtenir Ie ton desire brun-noir  jusqu'au  noir  gravure.

                  Bain de  platine.  -  Eau                       1200  c.c.
                                       Chloroplatinite de  potassium  1  gr.
                                       Acide  phosphorique  a  1,120  10  C.c.
                  Le bain de  platine doit etre filtre  apres chaque emploi,  Ie
             bain ci-dessus suffit  pour 6 feuilles 49 X 62  cm.
                  Apres  Ie bain de  platine, pour eliminer minutieusement les
             traces d'acide  on  rince les  epreuves  dans  de I'eau renouvelee
             6  fois,  car les moindres restes d'acide causent la deterioration de
             l'image, puis  on fix-e:
                  Fixage.  -  Eau.                     1000  c.c.
                              Hyposulfite de Soude        50 gr.
                  On fixe  pendant  8 a 10 minutes.
                  Lavage definitif.  -  Apres  un  lavage d'une heure dans de
             I'eau  frequernment renouvelee les  epreuves sont montees, On peut
             laisser les  epreuves  a  I'eau, pendant  la nuit, sans inconvenient.
                  Montage.   -  Les  epreuves  sont  appliquees  encore mouillees
             sur  une  glace et elles sont montees  aux  moyen  d'amidon frais.
             Si elles  ne sont  pas immediaternent collees  on les seche  sur du
             papier  buvard  chimiquement pur.  Elles  ne  peuvent jamais  etre
             placees  entre deux feuiIIes de  papier buvard .



             .... ,
                                                                          .
                                         -14-






           ................................................................................................................... $  0  •


                Satinage.  -  Avant de  proceder  au satinage  a froid il est
           necessaire de bien laisser secher les epreuves,  ceci  pour  ne  pas
           nuire a leur fraicheur,  car Ie  jaunissement provient  souvent de
           l'insuffisance de sechage.  Si  on desire une surface mate veloutee
           on evite de  serrer trop  les rouleaux .






















































            ....... 0       .,          .,            o  e     ·•     •  •
                                       -15-

 r




            .... ?  " ,
                           ? .. ? .. ,  •• &) .. ,  ,
                                                     "     ,          ,  .


            Tons varies      (simili charbon)      sur   Papier   Mat

                                 ,,0 EVAERT"



                 Le  Papier Mat  "Gevaert" donne  par les  precedes ci-dessous,
            de tres  'jolis tons (simili charbon) depuis  Ie  rouge  vif  en  passant
            par  Ie  sepia jusqu'au brun Ionce.
                Tons  Sepia,  -  (Sans bain  d'or).
                 Les  epreuves doivent etre  imprirnees moins foncees  que pour
            les tons noirs.  Apres avoir  passe par l'eau 3 fois renouvelee les
            epreuves sont  pas sees dans  un bain  d'arnmoniaque (eau 1000 c.c.
            ammoniaque 5  c.c.)  dans  lequel  elles  prennent  une teinte  jaune
            citron, et  paraissent trop cIaires. Ensuite les  epreuves sont lavees
            a  fond, puis placees  dans  Ie bain  de  platine lequel  doit eire
            affaibli  par  2 a 3 fois  SOI1 volume d'eau distillee.  Dans  ce  bain
            les  epreuves restent  jusqu'a. l'obtention du ton desire:  rouge vif,
            sepia jusqu'au noir-brun;  on fixe  comme d'ordinaire.
                 Tons  rougeatres. (Sans platine).

                 Les  epreuves sont  irnprimees a tel  point, qu'elles produisent
            comme  force, Ie merne effet  que l'epreuve achevee. Elles doivent
                                                     ; elles  passent en suite
            alors etre lavees dans l'eau 3 fois renouvelee
            dans  une 4me  eau ou  011  a fait dissoudre  une cuilleree a the de
            sel de cuisine et ou elles restent tres  de
                                               peu     temps. Apres  cela
               precede     virage qui       durer  jusqu'a l'apparition  des
            on          au             doit
            blancs  purs  et  qui  se  compose  comme suit:
                      Eau distillee                     1000  C.c.
                      Borax.                              10  gr.
                      Acetate de Soude.                   10  gr.

                 On ajoute a 500 c.c. de cette  solution,  2 heures avant  l'ernploi,
           f5  c.c. de chlorure d'or a 1  %.
                 Les  epreuves sont ensuite  passees a  l'eau, puis fixees et lavees
            comme d'habitude .


           ........................................ .,
                                                                        .
                                       -16-






           ................................................................................................................................................


                Tons  rougeatres,  -  (Bain  de  craie).
                      Eau  .                         1000  c.c.
                      Craie  pulverisee                25  gr.
                Apres melange  on  ajoute, deux heures avant  I'emploie, 10 c.c.
           d'une solution de chlorure d'or a 1  %; pour  Ie  reste,  Ie traitement
           est Ie merne  que  celui du bain  precedent  au Borax.
                Les  tons  rouge-brun jusqu'au  violet  fence  peuvent  etre
           obtenus suivant les variations dans  I'impression  et Ie  virage.
                Tons violets.  -  (bain d'or).
                Les  epreuves  doivent etre  irnprimees  tres noir.
                On les lave trois fois  et  puis  on les  passe  dans Ie bain
           suivant:
                     400  ccm.  eau distillee
                      35       acide  chlorhydrique (chim. pur)
                           II
                      20       solution chlorure d'or 1  %.
                           II
                Ce bain doit etre  prepare  une heure avant l'emploi.


                     Recomrnandatlons Generales.

                La  plus grande proprete  est a recommander  pour  Ie traite­
           ment du  Papier  Mat 1I0evaert". Les moindres traces de  tabac,
           hyposulfite, etc.,  aux mains, peuvent  amener des taches. Les cuvettes
           doivent etre tres  propres  et il n'est  pas  bon de traiter ensemble
           des  papiers  mats de differentes fabrications.
                Pour le  sechage  des  epreuves  nous recommandons  encore
           de  n'employer  que  du  papier  absoIument  chimiquement  pur.
           Si Ie  photographe  n'obtient  pas  Ie  ton  desire  iI  est  dans  son
           interet  d'envoyer,  soit a notre maison de  Paris, 178,  rue du  faubourg
           St-Martin,  soit a  notre Iabrique, a  Vieux-Dieu, lez-Anvers,  une
           epreuve  achevee ainsi que quelques epreuves  non virees  qui  lui
           seront retournees  sans retard avec les indications  sur les  causes
           de l'insucces et Ie rernede a  y apporter .






           ...... ,  ,    ,                                            .

                                       -17  -














              Quelqu?s      Attestations

              o  parmi     les Milliers    0


              nous    parvenant      sur Ie

              o 0 0   Papier    Mat 0 0 0

                  GEVAERT
              o                            0









  \



                                     o 0 0    de la part     0 0 0

                                     o 0 0 des sommites 0 0 0

                                     o   professionnelles    de   0

                                     France,    de   l' Allemagne,

                                     o de l'Autriche-Hongrie,     0

                                     o 0   de la   Belgique,    0 0
                                      o des Pays-Bas,      de la   0

                                      Russle, d' Angleterre     etc.






            ................................................................................................................................................


            Monsieur Reutllnger, Photographe A Paris ecrit :


                      Messieurs L. OEVAERT & Cie.
                                          VIEUX-DIEU-Iez-ANVERS

                      Messieurs,
                 Nous  nous  servons de votre Papier  Mat Gevaert, et c'est
            avec plaisir que  nous declarons  en etre tres satisfaits.
                 Veuillez agreer, Messieurs,  nos salutations distinguees.

                                                       signe :  Reutlinger.






            Monsieur Paul Nadar, Photographe, a Paris;               nous

                 ecrit entre autres:

                 Le  problerne que  vous  avez resolu est des plus importants
            au point  de  vue professionneI,  et je  vous  en Ielicite bien sin­
            cerement.







            Paul   Darby, Photographe,        ? de Strasbourg,
                                                               A Paris.

                  Depuis  que j'emploie  dans  mes ateliers votre Papier  Mat
            Oevaert, je  n'ai qu'a  me louer de  sa regularite,  de  ses blancs
            purs  et veloutes,  ainsi que  de  ses magnifiques  tons noirs  sans
            metallisation,
                                                      signe : Paul  Darby .




            ................................................................................................................................................
                                        -19-






          ............. o··.-e  ··                       ,     ,   ,  .



          J. -Walbot, Photographic Langlois, 7,         B? de
                                             Strasbourg,     it Paris.

               Je  vous fais  part  avec plaisir,  de la satisfaction  que j'eprouve
          depuis que j'emploie  votre Papier  Mat.
               La regularite  de  sa fabrication et la finesse des epreuves
          obtenues  en font  un des meilleurs  papiers  connus.
               Veuillez  agreer,  Messieurs,  l'hommage  de  rna  parfaite
          consideration.
                                                   signe : P. J. Walbot.





          Boissonnas «      Neumayer, Reims.

               Vous nous demandez notre avis sur votre Papier  Mat Oevaert;
          La meilleure  preuve, que  nous  en  semmes extrernement satisfaits
          c'est que  nous avons abandonne Ie papier  dont nous nous servions
          depuis  des annees  pour  ne  plus employer que  Ie  votre,  et notre
          opinion est, que  Ie  Papier  Mat Oevaert peut  se classer au 1 er  rang
          de tous les  papiers  sirnilaires.
                                       signe : Boissonnas &  Neumayer.





          L. Piccolati, Photographe, Rue Nationale, it Lllle,

               Je  me fais  un veritable plaisir  de constater  que  votre Papier
          Mat Oevaert   rn'a  donne  dans  mes essais d'excellents  resultats.
          Les noirs sont  superbes,  d'une  grande profondeur  sans la moindre
          metallisation,  les derni-teintes sont bien  conservees,  et les blancs
          tres purs; je puis  dire  que  ce papier pourra  difficilement etre
          ega Ie.
                                                     signe : L. Piccolati .



          . ,      ,  a.'    '.·.0  ·      "   •  0    t    0         e·

                                        20-
                                      -






            ..................................................................................... 0  .


            A. Drouin, Photographe,        Avenue Carnot, Belfort.

                 j'ai l'avantage  de  vous dire  que je  suis entierernent satisfait
            de votre  nouveau Papier Mat Oevaert,  et je profite  de Ia presente
            pour  vous prier  de  m'envoyer       mains.
                                                        signe : A. Drouin.


            J. Gerschel, Photographe, Nancy.


                 Les essais  que j'ai faits  avec votre Papier  Mat m'ont donne
            des epreuves splendides; je puis  vo us affirmer  avec plaisir que
            je  suis tres satisfait de  ces excellents resultats,
                                                       signe : J. Gerschel.



            Jules Sannier, Photographe          a. Bruxelles.

                 VeuiIlez, je  vous prie,  m'adresser  au recu de la presente  ...
            mains de  Papier  Mat  aux conditions habituelles.
                 II m'est agreable  de vous dire  que  votre papier  est excellent.
            Les blancs  purs  et les tons fort beaux qu'il donne et qu'on  obtient
            avec certitude et la plus grande Iacilite,  me le font preferer  a taus
            ceux que j'ai employes jusqu'ici.
                                                           slgne : Sannier.
                        "


            Atelier Ruys-Morel       it Courtrai.

                 Depuis  que j'ai prefere  votre Papier  Mat  a  toute  autre
            marque, je  n'ai  qu'a  m'en louer.  Les blancs sont  purs,  les noirs
            francs et  beaux,  de plus  nous pouvons  Ie virer avec facilite a taus
            les tons desires. Egalement exempt  de  ces redoutables points  de
            fer, je puis  vous Ie dire superieur  a taus les papiers deja  em-  •
            ployes,
                                                       signe :  R.uys-MoreI  .

            .......................................................................................................................................... ,

                                        -21-






                                                                   '0" •.••.••.
                                                 0
                                   ,
           ........................................................
           Meeus-Verbeke, Photographe            Louvaln.

                Veuillez m'envoyer.  ..... Papier  Mat Oevaert.  II  est tres
           beau,  c'est le meiIJeur que j'ai essaye,  car il est superieur  aux
           meilleures marques  connues.
                                                  signe  : Meeus-Verbeke.



           Narcisse, Photographe        Bruxelles.
                A votre dernier envoi de Papier  Mat Oevaert  vous  avez
           joint  une nouvelle formule de virage; je vais la mettre en pratique.
                [e  suis heureux de  vous faire savoir que  votre papier  est
           ideal,  et que jamais, je  n'ai  obtenu de meilleurs resultats  avec
           aucun papier  similaire.
                                                         signe  : Narcisse.


           Gunther, Photographe         de S. A. R. la Comtesse
                                             de Plandre, Bruxelles.

                NOllS  avons l'honneur de' porter  it votre connaissance  que
           le Papier  Oevaert  Mat adopte  dans  nos ateliers depuis  1  an,
            nous satisfait entierernent i  nous le travaillons  en toute confia:nce.
                                                signe  : J. & C. GUnther.



            Firma Stutz.     -   J. 0.  van den Eerenbeemt,
                                            Maastricht    (Pays-Bas).

                      Messieurs OEVAERT & Cie.
                                                    VIEUX-DIEU
                      Messieurs,
                 Votre Papier  Mat est vraiement beau et bien superieur  aux
           ·autres.
                                      signe : J. G.  van den Eerenbeemt.
                                         Photographe  de la Reine des Pays-Bas  .


            .....                     t        "          oo.oo  0  ••  •

                                        -  22-






          .............................................................................................. 8  .



           c. Ruf, Photographe, BAle        (Suisse).


                  Directeur Pfuetzner.
                Le Papier Mat Oevaert  me donne toute satisfaction et  je
           l'emploie  a l'exclusion de toute autre  marque.  II  depasse de loin
          tous les  Papiers  Mats d'autres fabricants  que j'ai employes jusqu'a
           present.
                                                       signe : Pfuetzner.






           Le conseiller de la Cour, le Protesseur

                Dr. J. M. Bder, Directeur    de  l'Institut  Oraphique  de
                Vienne  (Autriche)  ecrit :
                Le  Papier  Mat Gevaert donne de  brill antes  copies, riches
           en details. Le traitement  aux bains de  virage  en  est  simple  et
           sur,  et  permet d'obtenir  avec iacilite  aussi  bien  les  tons  de
           platine,  que de beaux tons  sepia  et  rouge. Aux essais  faits,  le
           Papier Mat Oevaert  s'est montre  cornrne  . papier  de tres bonne
           qualite, et  peut etre recomrnande  comme tel.






           Le   conseiller   du Gouvernement,         le  Professeur
                Dr. A. Miethe, a l'Ecole  Politechnique de  Charlottenburg
                (Berlin)  ecrit entre autres :

                Le  Papier Mat  Oevaert  est d'une conservation  extraordi­
           nairernent, longue,  et a  cause de  sa  manipulation  facile  il  peut
           etre  employe pour  to us les travaux  photographiques  .



           .............................................................................................................................................

                                        23-
                                      -






                                                                     -     .
                                       -
              ."
              Le Dr. R. A. Reiss, Directeur de l'Institut photographique
                   de l'Universite de Lausanne ecrit :

                   Le soussigne  a soumis le  Papier  Mat Oevaert a des essais
              approfondis,  et l'a reconnu  comme  papier  de 1 er ordre.
                   En  suivant  exactement  Ie  mode d'ernploi,  on  en obtient
              des resultats extraordinairernent beaux. Les blancs sont frais et
              les ombres ont des tons riches et  jolis.
                                                                            ?
                   En rernplacant  Ie bain de  platine  a l'acide phosphorique
              par  un bain de  platine  a l'oxalate de  soude,  on arrive egalernent
              a  d'excellents resultats :  par  le  bain  de  platine  a l'oxalate  Ie
              danger  du jaunissernent, que  courent les  epreuves  traitees au  platine
              a l'acide  phosphorique,  est evite.
                   Les tons sepia, rouges,  violets etc. in diques dans le mode
              d'ernploi  ont  pu  etre obtenus  avec facilite, II est a ajouter que
              Ie soussigne ernploie depuis longtemps  le  papier  Mat Oevaert
              au laboratoire photographique  de l'Universite pour  ses  epreuves
              des  poses scientifiques.
                   Le Papier  Mat Oevaert peut  etre recomrnande chaudement
              a Mrs. les  photographes.
                                                    signe : Dr. R. A. Reiss.






              Ad. Baumann, Photographe            de Ia Cour, Munich.
                    Par la  presente je  vous informe, que j'ai essaye soigneuse­
               ment le  papier  Mat Oevaert Iourni,  et je  vous fais  rernarquer,
               que  ce  papier repond  au plus  fortes exigences.
                    Les grands  noirs  sont  merveilleusement  profonds  sans
               metallisations,  et  on  obtient  de  beaux blancs  purs,  Le papier
               Mat  Oevaert  convient  tout  aussi  bien  pour  cliches durs  que
               pour  cliches faibles.

                                                           signe : Baumann •


                                                                           .
               .............................................................................. "
                                          -  24-







         ............. 0" 0  -              ?             0     0    ·e.

         E. Bieber, Photographe        de la Cour
                 Royale   de Baviere, a Berlin et       Hambourg.


              C'est avec un veritable  plaisir que je  vous informe  que  les
         essais faits  avec votre  Papier Mat Oevaert m'ont donne les resul­
         tats les  plus favorables.  Je  me suis decide a  employer  des main­
         tenant votre fabrication dans  mes ateliers.
                                                         signe : Bieber.




         R. Dtihrkoop, Atelier pour Ia       Photographie d'Art,
                                                     a  Hambourg.


              Je  vous certifie volontiers  que je fais travailler dans  mon
         atelier Ie  Papier  Mat  Oevaert, aussi bien  le  gros grain  que le
         rugueux, notamment  en teinte  chamois  et  que  les resultats  me
         satisfont  sous tous les  rapports. Moyennant  ce  papier  il est  permis
         au  photographe de  produire  des  images  d'un effet  artistique, tel
         que  le demandent les  poses modernes.
              [e  vous  prie  de  m'envoyer  de  nouveau  2 Mains chamois
         gros grain.
                                                     signe: Diihrkoop.




        Bernard Dittmar, Photographe           de la Cour
                                Royale    de Baviere a Munich.

              Je trouve Ie  Papier  Mat Gevaert tout-a-fait  superieur.  II vire
         tres  vite, aussi bien  au bain d'or, qu'au  bain  de  platine,  et  il
                     vigueur particuliere       ombres,          ayant
         montre une                    dans les          tout  en
         des blancs tres  purs. ]'ai  obtenu  sur votre  papier  les  plus beaux
         resultats.

                                                 signe : B. Dittmar.

         ............. O .. O.'.,.!t ••• ,  ,.ClI  O  CJ  e .. .,  o  a .. o •• CI  .. I)  o .. u .. e"  o •• CJ .. ?  Oi

                                        s::s
                                                                                 i




              ............................................................................ 0  0  ·••••  • .. •  .. • .. ••

              Professeur Haufstilngel,       Succ. Francfort      s/Main.

                   En suite de votre lettre du 13 courant, je  vous informe avec
              plaisir que  votre Papier  Mat  me satisfait absolument. Non seule­
              ment  ses blancs sont beaux et purs,  et  ses noirs detailles,  mais
              aussi il imprime  extraordinairement vite;  en outre  son traitement
              est des  plus simples.  II est encore a remarquer, que  la qualite  de
              votre papier  est regulierement  bonne. Voila pourquoi je puis  le
                                                                            .
              recommander  au mieux,  d'autant plus, qu'il  soutient avantageuse-
              ment toute comparaison  avec les  papiers  concurrents.
                                                    signe: Hermann Epple.



              Th, Schumann & Fils, Photographes              de la Cour,
                                                              Karlsruhe.


                   Nous vous affirmons volontiers, que pendant  la longue pericde
              que  nous employons  le Papier  Mat Oevaert,  nous avons appris  a
              connaitre  ce  papier  comme produit  excellent et de toute premiere
              classe,  reunissant  toutes  les  bonnes qualites ;  traitement facile,
              regularite,  conservation et notamment sfirete dans l'obtention des
              tons desires.
                                              signe  :  Th. Schumann & Fils.



              O. Tlllmann-Matter, Photographe            de la Cour,
                                                             Mannheim.

                    j'ai  le  plaisir  de vous informer, que je  travaille le Papier  Mat·
               Oevaert depuis  environ 2  ans  et  que je  suis tres  content  des
               resultats obtenus. En effet le papier  est toujours regulier ;  il  ne  ,
               pourrait  donner lieu a la moindre plainte,  contrairement aux papiers
               concurrents employes precedemrnent,  II  a de beaux blancs,  des
               tons noirs bien detailles,  et vire avec une grande  Iacilite.
                                                    signe  : T'illmann-Matter •


                                                                     , •• , ,  "Ot
                            j          0." •..•. '  0. , .•.'.00. to  0. to  tl." •..• to , •••• '
               • •••• , ••••• to. , •• 0
   ,
                                           -  26-
   1
  I'






           ........................................................................................................ ••  "  O  OO  G.



           Alfred  Hirrlinger, Photographe de la

                                          Cour   Royale, Stuttgart.

                Tout ee  que je puis  vous dire du  Papier Mat  Oevaert, c'est  qu'il
           me  plait fort bien. Le  virage d'or et de  pJatine  se font  rapide­
           ment, Les  epreuves sont riches  en tons  et ont des blanes  purs.

                                                    signe : A.  Hirrlinger.








          Nicolas Perscheid, Atelier de        Photographie
                                                 Artistique, Berlin.

                Je  vous eonfirme volontiers  que j'ai travaille le  Papier Mat
           Oevaert  dans  mon  atelier  de  Leipzig,  et  que j'ai ete  toujours
           extrernement satisfait de la  qualite,
                [e puis  le  reeommander  sous  tous  les  rapports  comme
           produit excellent, qui merite toute eonfiance.

                                                    signe : N. Perscheid.







          Erwin Raup, Photographe           de la  Cour, Dresde.
                Le  Papier  Mat Oevaert que  vous m'avez  envoye donne de
           belles  epreuves : par  un  simple virage  au bain de  platine  l'on
           obtient  des tons noirs ehauds et d'une  grande fraicheur,  ainsi
           que des blanes  tres-purs.
                                                     signe : Erwin  Raup.




           •          · •• ·  ·  ·0       "  0    "
                                                                       .
                                        27-
                                      -

                                                -
                                         -  ---_  ?",","--  __  -  -  -  __
                                 _;"


             ........................................ g  e  0  ··000 G  C  00 0"  .


             C. Ruf, Photographe        de la Cour,    it
                                                     Fribourg (Bade).

                   rai essaye  attentivement Ie  papier  Mat Oevaert  que  vous
              avez bien voulu m'envoyer,  et j'ai  Ie plaisir  de  pouvoir  vous
              dire  que  c'est  ce que  nous  avons de meilleur jusqu'a present.
                                                              signe : C. Ruf.



             Carl Rut, Photographe         de la Cour,   Carlsruhe.
                                                               I
                   Je  vous confirrne avec plaisir que  Ie papier  Mat Oevaert
              est  I'un  des produits  les plus rernarquables  que j'ai jamais
  ,
              travaille dans  mes ateliers.
  I                Veuillez m'en  envoyer  ..... mains.
  I
                                                           signe : Carl Ruf,
                                                                                  i
  •
             Oscar Suck, Photographe          de la Cour,     Carlsruhe.
  I
                   j'ai  fait des essais  minutieux  avec Ie Papier  Mat Gevaert,
  I
  I               vous 'avez bien voulu m'envoyer,  et j'ai  Ie  plaisir  de  vous
              que
 I            faire savoir qu'il repond  aux plus grandes exigences.
 I
                                                         signe : Oscar Suck.
 I
 I

 I           Ed. Schultze, Photographe         de Ia Cour Royale,
 r                                                          Heidelberg.
                   Je  vous informe  avec plaisir,  que j'empIoie  Ie  Papier  Mat
              Gevaert  sans interruption depuis  1  an  avec Ie  meilleur  succes,
              Je  souhaite seulement  que  sa fabrication reste toujours  la merne.
              Les blancs  et  les  derni-tons  ont  de riches details;  Ie  ton  est
              regulierernent  beau et les noirs sont  sans metallisation.
                                                         signe  : E. Schultze .



              ....  Goo •••••00  0  e  0011.·  e  0 000"  0  .. 0  ".000000  .

                                          -  28-
 - I






          ·0  •••••      10                                           .


          R. Schlegel, Atelier de       Photographie, Elberfeld.       ,

               (Extra it d'une lettre du 13 Octobre  1905.)

               Votre  papier  a ete travaille en merne  temps que  mes  papiers
          habituels d'autres provenances,  et il est  remarquable combien les
          resultats ont ete differents. Les  epreuves  obtenues sur votre  papier
          ne  se  distinguent pas  seulement  par  leurs blancs  purs  et  eclatants,
          et leurs noirs  veloutes,  mais aussi  par  la richesse des  derni-tons,
          de sorte  que  la  gradation  des tons est  complete.  Le  virage  se fait
          normalement. La couche de coIlidion adhere fortement  au fond
          baryte, de SOlie que  les  petits points blancs, pouvant faire  appa­
          rition dans les  profondeurs,  sont reduits  au minimum.
              j'ai  constate en outre que I'impression  sur  Papier  Mat Oevaert
          se fait  plus rapidement que  sur Ie  papier que j'ai employe jusqu'a
          ce  jour. Somme toute Ie  papier n'est  pas  seulement  equivalent  aux
          autres  produits,  mais dans  beaucoup  de  cas,  il leur est  superieur.
                                                     signe : R. Schlegel.



          L. Hermestroff, Photographe          de Sa   Majeste
                              l'Empereur    d' AUemagne,     a Metz.

              Je vous certifie avec  plaisir que je  suis tres content du  papier
          Mat Oevaert  i  iI  repond  de la maniere la  plus parfaite  a toutes les
          exigences.
                                                 signe : L. Hermestroff.




          Jungmann &. Schorn, Photographes              de la   Cour,
                                                     Baden-Baden.

              Apres  avoir travaille votre  Papier Mat  Gevaert, je  dois declarer
         que c'est  un  des meilleurs  papiers  de  tous  ceux  essayes dans
         notre atelier.
                                                     signe :  L. Schorn .


         .......... 0  10  • •• ·It  ,                               .

                                       29-
                                     -






                                                                          .
             ............. '  0  , .. so. 'oo  QI  0  I  ,  .,  "'

             Henri Junior, Photographe          it Francfort    s/Main.

                        Lettre du 10 Octobre 1905.
                  Le Papier  Mat Oevaert m'a donne satisfaction sous tous les
             rapports.  II vire facilement,  a de beaux blancs et des noirs profonds
                qui
              ce    n'est  pas toujours  Ie  cas  avec les papiers  mats.
                        Lettre du 21 Octobre 1905.
                   j'ai  fait  travailler  aujourd'hui  Ie  restant  du Papier  Mat  •
              Oevaert recu i1  y  a 2  mois,  et je  dois dire que je suis tres satis­
              fait du resultat, Ceci notamment parceque j'ai  fait la triste  expe­
              rience, que la couche du papier  en vieillissant,  devenait cassante
              et produisait  des taches  rouges  au virage j  avec Ie Papier  Mat
              Oevaert  ces inconvenients n'existent pas.
                                                       signe : Henri Junior.


                          Klinkhardt &: Eyssen,       Dresde.

                   Le Papier  Mat Oevaert que  vous m'avez fourni donne des
  ;           epreuves  excellentes a tons riches,  et nous  nous faisons  un piaisir
              de  vous  certifier  que  nous  avons ete pieinement  satisfaits  des
              resultats obtenus.
  I
                                              signe ; Klinkhardt &  Eyssen.

 1            W. Kuntzemiiller, Photographe        de la Cour de

  !                  sa Majestl! l'Empereur  Allemand et R.oi de Prusse,
                                                       Baden-Baden.

                   J'ai  a dessein laisse  en magasin pendant  une  periode  assez
               longue  Ie Papier  Mat Oevaert  que  vous  m'avez  envoye j  ceci
               afin de constater  son degre  de stabilite. [e puis  affirmer  que  Ie
               papier  se  conserve parfaitement,  que  Ie virage  se  fait  sans la
               moindre difficulte, et que les epreuves  donnent des  blancs  purs
               et  un brillant tres-agreable.  II  est incontestable  que  ce  papier
               est un produit  de premiere qualite.
                                                   signe : W. Kuntzemiiller.


                                                                          ,. ..
               ...  ,
                                           -  30-

  .





                                                      '
          •••• " ••• " t, ,.,. t"'"  .' ••• , .• 0". t., t"  t"  0.' t·. t', t':lt • t"  t' ••• t"  t, ,. , ••• t •• ,., t, II I"  to"  • t, •• Glo' •• _ .,•• ,'. t"  t"  , ..... to, t •• 0 •• t."


                  Th, Lanttn, Atelier de Photographle,
                                                Aix-La-Chapelle,

               [e  vous confirme volontiers  que je suis tres satisfait  so us
          tous les rapports  du Papier  Mat Oevaert.
               j'ai essaye presque  tous les papiers  Mat qui  sont au rnarche
           sans avoir  pu  en rencontrer  un seu! qui reponde  d'une maniere
          aussi complete que  Ie votre,  a toutes les exigences.
               [e l'ernploie depuis longtemps,  et  puis  le recommander,
           non seulement  pour  sa grande regularite,  mais tout specialernent
  ')       pour  les beaux blancs et les tons  purs qu'il donne,  tout  en  se
 r         laissant travailler avec la  plus grande  facilite et securite.
                                                      signe : Th. Lantin.





          Ltitzel freres, Photographes        de Ia Cour Royale
                                              de Baviere, Munich.
               Nous  vous informons de  ce que  le Papier  Mat Oevaert est
          de  qualite superieure,  et qu'il  nous  a donne pleine  satisfaction.
                La purete  de preparation,  que  l'on  rencontre si  rarement
          a tant d'autres produits,  est frappante.
                Les epreuves  obtenues sur ce papier  ont beaucoup  de fraicheur
                                                            .
           et du cachet.
                                                    signe : Liitzel freres.




          Arthur Marx, Photographe de la Cour Royale

                                  de Baviere,    Francfort    s/Main.
               [e  vous  confirme volontiers  que je  suis tres satisfait du
           Papier  . Mat Oevaert,  dont  on  se  sert  dans  mes ateliers;  i1  se
           travaille facilement et donne d'excellents resultats,

                                                    signe  : Arthur Marx.


                                                                       .
                        •    •           ·'
          •  ••  0   • •• •
                                      -31-






                  '
            ............ ••• ,         "     _     It  ,     0  ·'     0  .


               Otto   Mayer, Photographe        de la Cour, Dresde.
                  Je  me  rejouis  de  pouvoir  vous dire  que je suis  extreme­
             ment satisfait du  papier  Mat Oevaert. Je  l'ai travaille immediate­
             ment  apres  sa  reception,  ainsi qu'apres  un  long sejour  chez  moi,
             et dans les deux  cas j'ai  obtenu les memes bons resultats.
                  Ce papier  est tres-facile a  travailler,  i1 vire rapidement  et
             donne des blancs d'une beaute surprenante  ainsi  que  des  noirs  •
             splendides. Je  dois dire  que  Ie  Papier  Mat Oevaert est  un excel­
             lent produit  et de toute [re  qualite.

                                                       signe  : Otto Mayer.






             Georg Michel, Pournisseur de la Cour, Strasbourg.

                  En reponse a votre demande du 10   courant, j'ai I'avantage
             de  vous faire savoir, que j'ai essaye  les echantillons de  papier  et
             que j'en  ai obtenu des resultats extraordinairement beaux. Votre
             Papier  Mat  Gevaert  a des qualites remarquables qui surpassent
             Ie  papier  X  sous  plusieurs rapports.
                                                         signe : O. Michel.






              Friedr. Milller, Atelier de Ia Cour, Milnich.

                  (Extrait  d'une lettre du 28 Octobre 1904).

                  [e repete que j'apprecie  hautement votre  prcduit.  et  que je
             le considere  comme  un des meilleurs sur marche .....
                                                     signe : Friedr. Muller.



             ·            e                          11  •             11  .


                                         -  32-






            • •• •  0  ·
                                                   0            0       .



            A. « F.    Naumann, Photographes de la Cour,

                                                               Leipzig.
                 Nous  avons Ie  plaisir de VOliS faire savoir  que  nous consi­
            derons  Ie  Papier  Mat  Oevaert  comme  un  produit  tout-a-fait
            excellent.  Par  un  simple traitement  au bain  de  platine, (sans
           virage prealable  au bain  d'or)  nous avons obtenu des tons noirs
            brillants et chauds d'un effet des  plus distingues,
                 Quoique  nous  n'ayons  pas manipule  les  epreuves trop  de­
            licatement, celles-ci n'ont montre ni  enrouIements,  ni cassures.
                 C'est  un  pIaisir de travailler  ce  papier.

                                               signe : A. & F. Naumann.
                                                  Photographes de la Cour.






            Arnold   Overbeck, Dusseldorf.

                [e  suis tres  satisfait  du  Papier  Mat  Oevaert, qui repond
           pIeinement  aux  exigences  de  l'epoque,

                                                signe : Arnold Overbeck.






           T. H.   Voigt, Photographe     de  sa  Majest? l'Empereur
                    et  Roi, a Francfort et a     Homburg      v, d.  H.

                Je  suis excessivement content du  Papier  Mat Oevaert  envoye;
           expediez       '  mains lisse.

                                                     signe : T. H.  Voigt  .




           .................................................... 0  0  •  e  o  ·  .

                                        33-
                                       -

    ..  7FT




          ........ -          g          •    ·       "       ·'    0  ••••




           E. Walsleben,     Atelier pour Photographie
                                                Artistique   Breslau.

                [e  vous confirme volontiers,  que  votre Papier  Mat Oevaert
           me donne toute satisfaction.  En plus  des noirs profonds  et vi­
           goureux, exempt  de metallisations,  ce papier  donne de tres beaux
           details,  et  des blanes d'une  purete  et d'une fraicheur frappantes.
                Envoyez-moi       "  mains.
                                                    signe : H. Schweyda.







           Uher ()don, Photographe         de la Cour Imperiale
                                           et Royale It Buda-Pest.

                A votre demande, quelle  sont les Papiers Mats,  dominant
           a  l'exposition  de Photographie  de Buda-Pest.  j'ai  le  plaisir  de
           vous repondre  ee qui  suit: Comme to us les ateliers de 1  ere  c1asse
           de Hongrie emploient  votre Papier  Mat Oevaert, je  ne vous ferai
           pas  de surprise  en  vous annoncant,  que  tous les  travaux  sur
           Papier  Mat exposees,  a l'exception  de  ceux  d'un seul exposant,
           sont faits  sur' Papier  Mat Oevaert.  Dans tous les  cas je  vous
           Ielicite de  ce beau  succes  d'autant plus sincerernent,  que grace
            aux qualites  vraiement superieurs  de votre Papier, j'ai pu  rem­
            placer  radicalement dans  nos ateliers le papier  brilJant par  Ie Mat.
            II  m'etait impossible de  pro ceder a  ce remplacement  avec les
            autres marques  de Papier  Mat les plus connues, qui  me donnaient
            continuellement  des virages irreguliers,  et presentaient  d'autres
            inconvenients i du Papier  Mat Oevaert, que j'emploie deja depuis
            plus  de 6 mois, je  n'ai  eu a  me plaindre  sous  aucun  rapport.

                                                             signe : Uher .




                                                                      "  ,
            ............. ,  ,                       ,
                                          34-
                                        -






                                  ,
           ...................................................................................  •  0  9  ·  •

           Strelisky, Photographe        de la Cour     Imperiale et
                                              Royale    it Buda-Pest.

                rai  Ie  plaisir  de repondre  a  votre estirnee demande  que
           depuis  un an  je  travaille exclusivement votre Papier  Mat Oevaert,
           qui  me donne des   resultats  tellernent satisfaisants,  que je  n'ai
           eu jamais sujet  a la moindre  plainte.
                                                signe : Sander  Strelisky.




           Henri Schildknecht, Photographe            des
                          Hautes-Alpes (Hlitte     de l'Archiduc  Jean)
                     au Orossglockner       Altitude:   3465   metres.

                Vous voulez savoir  comment s'est cornporte  votre Papier
           Mat Oevaert  au Orossglockner (3465 m.).  A  rna  propre  satis­
           faction je puis  vous assurer,  .  que malgre  les grandes  differences
           de temperature (+  30" bis  6")  et les divers degres  de l'humidite de
           I'air etc. existants a  une altitude pareille,  Ie papier  n'a rien  perdu
           de  ses  bonnes qualites,  Du papier  que j'ai recu  de  vous  en
           [uin 1904,  et  qui  a  passe  I'hiver  sur Ie Orossglockner  a  une
           temperature  d'au moins 20 a 25", j'ai  encore eu de bons resultats
           en Aout 1905.
                Aussi  longtemps que  Ie Papier Oevaert reste irreprochable,
           je n'emploierai pas  d'autre.
                                                 signe : H. Schildknecht.
                                                  Photographe  de la Cour.



           Leopold Bude, Photographe de la Cour Imperiale
                                                      et  Royale.

                Votre  Papier  Mat Oevaert et tout simplement irreprochable,
           excellent;  en  plus  il est d'un emploi  sur et facile.         #'

                                                     signe  :  Leop.  Bude .


           ................................................................................................................................................

                                         35-
                                       -






          '              "0" a  0 .. 0  $  .. 0       ,               e·





           Alois Beer, Atelier de la Cour Imperiale
                                                           et Royale.


               Envoyez-rnoi  de  nouveau           mains de  Papier  Mat
          Oevaert.
                                                     signe  : Alofs Beer.







           Bertel & Pietzner, Atelier de la Cour Imperiale
                                                      et  Royale.

               Nous  vous prions  de  nous  en  voyer  de suite...  .  .  ..  mains
          de Papier  Mat Oevaert  cornme d'habitude.

                                              signe  : Bertel & Pietzner.







           Louis Grillich, Photographe de la Cour, Vienne.
                Mon atelier etait  un des premiers  de  Vienne,  a  employer
           Ie Papier  Mat Oevaert.
                Des le commencement   deja j'avais  de beaux resultats  regu­
           liers.  A  rna  plus grande  satisfaction j'ai constate,  que  contraire­
           ment a  ce  qui  m'arrivait  avec les marques  de papier congeneres,
           ces resultats  ne sont  pas sujets  aux  variations.  Virage simple,
           beaux noirs profonds,  blancs purs  et eblouissants,  sont les signes
           distinctifs du  Papier  Mat Oevaert. Ce papier  est  egalement exempt
          'de taches brunes,  et des  cassures de la couche.









                                       -  36-






           ...................................  •·  0             e    .



           Godfroid Hammerle, Directeur de l'Atelier de la
                                       Cour   Imperiale et    Royale,
                     C. Pletzner it Vienne.


                J'ai  Ie  plaisir  de vous informer  que vos Iivraisons en  Papier
           Mat Oevaert  me donnent  pleinernent satisfaction.  Ce  papier  est
           avant tout  regulierernent  couche et des variations  ennuyeuses  ne se
           montrent  pas, de sorte  que  Ie  virage  est facile et sur. Les blancs
           du  papier  sont  purs  et  frais,  les derni-tons riches  en  details,  les
           grands  noirs  profonds et  veloutes,  ce  qui fait  que I'image achevee
           presente  avec  une  grande  fraicheur un bel effet.  Je considere votre
           Papier Mat incontestablement  comme le meilleur sur Ie marche,
                                                   signe  : O. Hammerle.




          R. Pokorny, Photographe          de la Cour   Imperiale et
                                                    Royale, Vienne.


                En  suite d'essais  approfondis  faits  avec votre  Papier Mat
           Oevaert, je  me suis decide a  l'ernployer  dans mes ateliers.  Je  vous
           prie  de  m'envoyer regulierernent chaque semaine  mains.

                                                     signe : R.. Pokorny.




          Kuhle « Miksche, it Vienne.

                Nous constatons  que  Ies demandes du  Papier  Mat Oevaert
          nous faites                les ateliers de
                     specialernent par              premier ordre,  aug­
           mentent enormernent, Voulant  en tout  temps servir  promptement
          nos  clients,  nous  VOllS  prions  de  nous reserver et tenir a  notre
          disposition chaque jour ......  mains, afin de ne  jamais etre ernbarasses .




          •••. • "  8··                 0.·     ·fI  o.  "0"   0       .

                                        37
                                      -   ?






            ............................. "  0  0  0"     oo    ··11·  "  .


            Bernard Wachtl, Vlenne.

                 Je  vous infonne  que je  me suis decide a offrir en vente avant
            tout autre Ie Papier  Mat  Oevaert, parce que  mes clients  me Ie
            depeignent  comme excellent.



            J. P.  Langhans, Atelier       Imperial   et  Royal
                                                             a  Prague  ..

                  Depuis  assez  longtemps  nous  employons  votre  Papier  Mat
            Oevaert et a  cause de  nos essais  pratiques,  nous  avons  ete a
            merne de  pouvoir  constater  que  Ie traitement en est  particuliere­
            ment sur et  regulier,  Votre  papier  donne des blancs tres  purs  et
            frais,  des ,demi-tons riches et rnodeles,  ainsi  que  des  grands  noirs
            profonds,  bien dessines et sans metallisations. Comme les  epreuves
            montrent aussi  une  grande conservation,  nous  sommes  satisfaits
            sous tous les  rapports,  ce  que  nous nous  plaisons a vous  signaler.



            Mal es Tarsa, Photographes         de la Cour    Imperiale
                                            et  Royale a Buda-Pest.

                       (Lettre  du 23 Avril 1904).

                  C'est  pour  moi  un  grand plaisir  de  pouvoir  constater  que
            votre Papier  Mat Oevaert  se traite facilement, et  que  1'0n  peut  en
            obtenir taus les tons desires,  avec la plus grande surete, du  ton
            sepia jusqu'au  noir Ie  plus profond.  En  plus  les blancs sont remar­
            quablement  beaux.  .

                       (Lettre  du 17 Aofrt  1904).

                  Tel que je  vous Ie  communiquais dernierement, j'ai essaye
            un autre  papier mat,  mais la consistance  et la modulation du
             Papier  Mat Oevaert  me  plait  bien  mieux; je  vous  prie done de
            rn'adresser rna derniere commande  par  retour du courrier .


            ........................................... "                .

                                          38-
                                        -






         ............................ 11  •        •   •  ·.e         .


                    (Lettre  du 26 Fevrier  1905).

               En reponse  a votre estimee lettre du  22  courant, je  vous
          informe volontiers que depuis  assez  longtemps, j'emploie  exclusi­
          vement votre Papier  Mat  Oevaert.  Auparavant je  n'ai jamais
          obtenu des resultats si  reguliers,  sans  discontinuer, qu'avec  votre
          papier.  Le  Papier  Mat Oevaert imprime vite,  et vire tres facile­
          ment,  du noir  profond, jusqu'au sepia  le  plus  chaud.




          Milan Jovanowitsch, Photographe Royal              de
                                                 Serbie, Belgrade.

               Ayez  la bonte de  m'envoyer  a  mon adresse a S  mains
          de  Papier  Mat  Oevaert.  Envoyez-moi jusqu'a  nouvel  ordre
          chaque     mains.



          J. S. Afanassjew,     Atelier photographique
                                               1 Moscou     (Russie),


               Messieurs BEAUMONT & SIEWERSSEN.

               [e  me fais  un devoir de  vous informer, que depuis  5 mois
          je  travaille exclusivement dans mes ateliers de Moscou et Kostrorna
          le Papier  Mat Oevaert,  et que j'en  suis excessivement content.
          On peut designer  comme ideal Ie resultat obtenu avec  ce  papier,
          les blancs  purs  et eclatants,  les demi-tons d'un riche  modele,  et
          la profondeur  des  grands  noirs sont  sans  exemple.
               Une tres  importante qualite  du Papier  Mat Oevaert, grace
          a laquelle  ce  papier  se  place  a la tete de tous les  papiers mats,
          consiste dans \ la regularite  et la finesse  de  sa couche i  ceci offre
          l'avantage  d'avoir  en tout temps  des virages egaux,
               j'ai  la conviction que  tout photographe  serieux  ne  quittera
          plus  Ie  papier apres  I'avoir bien  essaye .

                                                                      .
                                                        "
          ................ 0  ••  • .. • .. • .. • .. • .. • .. • .. •  •  ,
                                      -  39-







             ................................ "                ,.  •  0   .



             Mr. E. M. Kaufmann de Melbourne              (Australie)

                       nous ecrit :

                  Votre Papier  Mat  doit  inevitablement  gagner beaucoup
             d'adherents,  car a  commencer du  papier  Albumine  aucun  autre
             papier  n'a presente  des qualites aussi parfaites, que  Ie votre.
                  Traitement facile,  tons  superbes,  du plus  beau noir jusqu'au
             rouge  en passant par  Ie  sepia  -  des  blancs  eclatants  etc.  Ie
             caracterisent,
















































                                         -  40-






























                      r?,?:"  q  : .,.)'
                        ??"
                      1_

                     ;,
                     r;





                                              l?
                                            .











                                                   't
                                                      ,.




                 '.
                                               =,









                               ?.-


                         ·.-·t
























                                                               :..

                                                        !.

