




















                  E p r e u v e s                                       FASC      38.


                         1910-05  7.



                                    CONGRÈS          MONDIAL


                                                  DES
                         ASSOCIATIONS            INTERNATIONALES



                                       B R U X E L L E S ,  9-11  M A I  içio



                                 Le    bureau     paneuropéen


                                          par  Alfred-H.  FRIED.


                       C'est  maintenant  un  fait  à  peine  contesté  que  le  problème  de
                     l'organisation  internationale  ou  de  la  fédération  forme  la  base
                     de  l'évolution pacifique  du  monde.  Aussi  ce  problème  a  été
                     sérieusement  discuté et  à  bas  droit  dans  de  multiples  congrès.
                     Mais  on  n'est  guère  sorti  de  la  théorie. On  a  indiqué  la  néces-
                     sité  de  l'organisation  internationale,  montré  les  avantages
                     qu'elle  apporterait  avec  elle,  établi  les  principes  sur  lesquels
                     elle  devrait  reposer  et  exprimé le vœu  que  l'on  travaillât  le
                     plus  vite  possible  à  la  réaliser.  Mais  on  n'est  pas  allé  au  delà  de
                     ces  vœux  et  de  ces  déclarations  de  principe.
                       Cette  méthode  a  fait  oublier  qu'il  ne  s'agissait  pas  de  mon-
                     trer  les  avantages  de  l'organisation,  ni  sa  constitution  future,
                     mais  bien  en  premier  ligne  d'éveiller le  désir de  l'organisation
                     et  d'éduquer  les  peuples  dans  ce  sens.  Si  le  inonde  civilisé  se
                     trouve  aujourd'hui  dans  un  état  d'anarchie,  ce  n'est  pas  tant
                     parce que  les  dirigeants  ignorent  la  façon d'organiser  les  intérêts
                     de  la  famille  des  états, mais  bien  plutôt parce  qu'ils  ne  croient
                     pas  à  la  possibilité  de  l'organisation,  qu'ils  ne  peuvent  pas  la
                     comprendre  et  cela,  en  grande  partie,  parce  qu'ils  ne  le  veulent























                                                    — 2                                                                                  —  3  —
                          pas.  Et  ils  ne  le  veulent  pas,  parce  cjue  l'organisation  interna-            Lorsque  l'Union  interparlementaire,  dans  ses  conférences  de
                         tionale,  comme  toute  nouveauté  révolutionnaire, léserait  d'an-                   I 8 Í M  et  de  1 8 9 5 ,  traça un  projet  d'organisation  de  tribunal
                         tiques  intérêts  et  porterait  atteinte  à des droits  depuis  longtemps            d'arbitrage  permanent,  cette  union  travailla  à  une  œuvre  d'une
                         acquis.                                                                               portée  similaire  à  celle  dont  nous  voulons  parler  ici.  Ce  tribunal
                            Cet  étal psychologique  est  le  principal  obstacle  à  la  réalisa-             d'arbitrage,  en  effet,  ne  réalisait  pas  encore  la fin de  toute
                         tion  de  cette  œuvre,  d'où  dépend aujourd'hui  le  bonheur  ou  le                guerre  et  l'établissement  de  la  fédération universelle;  mais  de
                          malheur  de  tous  les  peuples.                                                     cette  institution,  par  suite  de  la  puissance  d'évolution  qui  est
                            Détruire  cet  obstacle  psychologique  est  le  plus  impérieux  des              en  elle,  peuvent  résulter  de  telles  conséquences.  Et  précisément
                         devoirs,  et  vers  cette  œuvre  devraient  converser  tous  les  efforts.           parce  que  les  désirs  de  l'Union  interparlementaire  ont  toujours
                         Or,  on  ne  peut  faire  une  œuvre  pratique,  on  ne  peut  atteindre              été  sagement  limités  à  ce  que  la  sagesse  contemporaine  était en
                         le  but  qu'en  prenant  pour  point  de  départ ce  qui  existe  déjà.               mesure  de comprendre  et  que  ce  qui  pouvait  lui  sembler  oppor-
                         De  même   que  la  nature,  l'évolution  politique  ne  l'ait  pas  de               tun  et  possible,  ces  désirs  furent  réalisés  à  brève  échéance. Per-
                         sauts.  En  prenant  pour  point  de  départ  ce  qui  existe  déjà,  nous            sonne  n'ignore  quel  développement a  pris  depuis  lors  l'idée  de
                         nous  mettons  en contact  avec  la conscience  de ceux  qui  régissent               l'arbitrage,  quelles  perspectives  elle  nous  ouvre  et  quels  services
                         le  monde  en  ce  moment.  Par  là,  nous  les  amenons  à  s'inté-                  elle  a  déjà  rendus  à  l'humanité
                         resser  à l'œuvre,  il  nous  devient  possible  de  développer cette                   Pour  arriver  à  un résultat, nous  devons  employer  une  méthode
                         conscience  et  de  l'amener  progressivement  à  comprendre  plei-                  analogue  à  celle  suivie  par  l'Union  interparlementaire.  Nous  ne
                         nement  le  but  que  nous  poursuivons.  En  élargissant ainsi  la                   pouvons  pas  nous  attendre  à  ce  que  les  États  de  l'Europe  accep-
                         conscience,  on  éveillera aussi  la  volonté  dont  l'absence  constitue             tent  aujourd'hui  ou  demain  les  magnifiques  projets  d'organisa-
                         peut-être  aujourd'hui  l'entrave  la  plus  sérieuse à  l'accomplisse-               tion  que  certains  ont  rédigés.  Ces  États  sont  trop  raisonnables
                         ment  de  l'œuvre  de  l'organisation.                                                pour  (pie  nous  puissions  nourrir  une  telle  espérance.  Nous  ne
                           Sans  doute  on  ne  peut  pas  demander  à  ceux  qui  gouvernent                  pouvons  pas  nous  attendre  à ce  que  les  États  de  l'Europe
                         les  divers  états  qu'ils  s'intéressent  d'emblée  au  but  le  plus  loin-         renoncent  aujourd'hui  ou  demain  aux  barrières  douanières  ou
                         tain  que  nous  poursuivons  et  travaillent  avec  nous  à  la  réalisa-            aux  armements.  Nos  vœux  se  heurtent  à  trop  d'intérêts  puis-
                         lion  de  nos  plus  lointaines  espérances.  Nous  devons  nous                      sants,  dont  nous  n'avons  point  la  force  de  triompher.
                         borner  à  favoriser  des  institutions  plus  modestes  qui  soient  à  la             Mais  ce  que  nous  pouvons  atteindre,  c'est  que  les  États de
                         portée des  esprits  moyens  de  notre  époque ;  des  institutions                   l'Europe  organisent  la  défense  de  leurs  intérêts  communs,  dont
                         qui  répondent  déjà  aujourd'hui  à  un  besoin.  Au  lieu  de  théories             ils  ont  déjà  reconnu  l'existence  et  pour  le  triomphe  desquels
                         nous  devons  semer  des  germes  bien  vivants  qui  portent  en                     ils  se  sont  déjà  maintes  fois  unis,  de  telle  sorte  que  celte  orga-
                         eux-mêmes  la  puissance  de  vie,  garantie  de  leur  futur  dévelop-               nisation  elle-même  engendre  un  développement  et  un  accroisse-
                         pement.  En  d'autres  termes,  nous  ne  devons  pas,  dès  mainte-                  ment  de  l'union  des  Étals.  Nous  voulons  dire  par  là  qu'il  est.
                         nant,  demander  une  organisation  définitive,  mais  la  création                   dès  aujourd'hui  déjà  possible  de  créer  un  organe,  un  centre
                         d'institutions,  d'où  résultera  progressivement,  presque  automa-                  commun   pour  toutes  les  affaires  qui  intéressent  l'ensemble  des
                         tiquement  et  avec  une  sorte  de  nécessité naturelle,  la  future                 pays  civilisés et  qu'ils  pourraient  traiter  de  concert.  Un  tel
                         organisation  du  monde.                                                              centre  aurait  d'immenses  avantages  :  il  fortifierait  tout  d'abord






















                                                     _   4  —                                                                              —  o  —

                           le  sentiment  de  la  communauté des  intérêts, il  élargirait toujours             eaines  de  l'.HH  et  de  1906.  Son  travail  consiste  à  étudier  les
                           davantage  le  terrain  de  l'activité  commune,  il  éveillerait la com-            affaires  qui  intéressent  à  la  fois  tous  les  Etats  d'Amérique,  de
                           préhension pour  une  action  internationale commune  et  dévelop-                   faire  des  rapports  sur  ces  études  et  de  préparer des  conférences
                           perait  rapidement  et  avec  une  progression  de  plus  en  plus  rapide           pour  la  discussion  et  la  solution  des  problèmes  internationaux
                           une  volonté  collective  tendue  vers  l'organisation  internationale.              et  afin  d'exécuter  dans  la  mesure  du  possible les  décisions  de  ces
                             Est-il  besoin  de  rappeler  ici  les  nombreux  intérêts  communs                conférences.  Il  rassemble  et  publie  des  informations  commer-
                           qui  unissent  l'humanité civilisée tout  entière,  csl-il  nécessaire               ciales  ainsi  que  des  informations  relatives  aux  traités et  aux  con-
                           de  dire  que  dans  le  domaine  do  la  politique  internationale,  du             ventions  que  les  républiques  d'Amérique concluent  entre  elles  et
                           commerce,  du  droit,  des  relations  de  peuple  à  peuple,  de                    avec  d'autres  États. Il  publie  aussi  des  informations  sur  les
                                                                                                                                          d'éducation,
                                                                                                                                                           Ce
                                                                                                                questions
                                                                                                                                                                         sub-
                                                                                                                                                      etc.
                                                                                                                                                              bureau
                           l'hygiène,  de  la  science,  de  l'économie politique  et  sociale,  de             ventionné d'instruction  et  des  états  d'Amérique. Andrew est Carne-
                                                                                                                          par
                                                                                                                              l'ensemble
                           l'agriculture,  etc.,  l'internationalisme  est  un  l'ait  qui  devient             gie  lui  a  élevé  un  palais  dont  l'inauguration  vient  d'avoir  lieu.
                           tous  les  jours  de  plus  en  plus  important?  El  ce  fait  n'est  que  le
                                                                                                                                           haute
                                                                                                                                       très
                                                                                                                                 d'une
                           développement  naturel  de  l'évolution  qui,  indépendamment                        Ses  travaux  sont panainéricaine.  importance  pour  le  développe-
                                                                                                                ment
                                                                                                                        l'idée
                                                                                                                      de
                           de  la  volonté  des  hommes,  conduit  l'humanité  vers  l'orga-
                           nisation.  Mais  toutes  les  mesures  internationales  prises  dansées                La  création  d'une  telle  institution  pour  l'Europe  nous  parait
                          divers  domaines  manquent  encore  de coordination  et  sont  aban-                  être  le  devoir  le  plus  pressant  du  moment  présent.  Une  telle
                          données   au  hasard  des  circonstances.  La  volonté  consciente  est               institution  trouverait  certainement  auprès  des  gouvernements  un
                                                                                                                           plus
                                                                                                                                favorables.
                          sans  action  dans  ces  phénomènes  qui  se manifestent  d'une                       accueil  des  elle  ne  tend  qu'à Son  utilité ce ne  serait  niée  par  per-
                                                                                                                                                           tous
                                                                                                                                                                les
                                                                                                                                                                    gouverne-
                                                                                                                                            favoriser
                                                                                                                                                       que
                                                                                                                       car
                                                                                                                sonne,
                          manière  désordonnée et   anarchique  :  une  force  précieuse est                    ments  reconnaissent  déjà  comme  utile.  Les  résultats  que  nous
                          ainsi  perdue,  qui,  si  elle  était  mieux  utilisée,  assurerait  à  bref          attendons  de  cette  création  n'épouvanteront personne.  Ils  ont
                          délai l'organisation  du  inonde.                                                     pour  but  commun  l'entente  entre  les  hommes.
                             Si  nous  nous  appliquons  dès  aujourd'hui  à  centraliser  tous  les
                          efforts  déjà  existants,  nous  formerons  un  germe  qui,  par  sa                    Au  projet  que  nous  venons  d'esquisser  et  de  justifier,  on  a
                          force  immanente  et  d'une  façon  pour  ainsi  dire  automatique,                   objecté  que  l'organisation  entrevue,  ne  s'appliquant  qu'aux  seuls
                                                                                                                États
                                                                                                                                                     un
                                                                                                                                              plutôt
                                                                                                                                                                    progrès.
                                                                                                                                                        recul
                          amènerait,  cette  organisation  du  monde.  En  agissant  de  cette                  serait,  européens,  constituera  beaucoup  comme qu'un organisme II
                                                                                                                               considéré par
                                                                                                                       en
                                                                                                                          effet,
                                                                                                                                                               un
                          manière,  nous  ne  nous  éloignons  pas  de  la  façon  de  comprendre
                                                                                                                                                   américains
                                                                                                                                          les
                                                                                                                                              Etats
                          et  de  juger  de  nos  contemporains,  et  nous  pouvons  sans  crainte              économique   dirigé  contre des  continents  entiers, : des  organismes
                                                                                                                                                                pourraient
                                                                                                                              englobant
                                                                                                                économiques,
                                                                                                                                                                           du
                          entreprendre  un  travail  positif.                                                   reste  devenir  plus  dangereux  pour  la  paix  du  monde  que  des
                             Du  reste,  nous  n'avons  même  pas  besoin  de  créer  une  œuvre                organismes  nationaux  ou  même  fédératifs.  Notre  réponse sera
                          originale,  mais  tout  simplement  d'imiter  une  institution  qui                   aisée  : 11  ne  s'agit  nullement  dans  le  projet  proposé  par  nous  de
                          existe  déjà  et  qui  a  déjà  fait  ses  preuves.                                   créer  une  organisation  continentale  en  opposition  avec  une
                             Tout  le  monde  connaît le Bureau  international  des  répu-                      organisation  mondiale.  Le  motif  qui  nous  guide  en  proposant
                          bliques  d'Amérique  établi à Washington.                                             la  création  d'un  Bureau  paneuropéen  repose  sur  des  considéra-
                             Ce  bureau  fut  créé à Washington  en  1890.  réorganisé  et                      tions  purement  psychologiques  : en  présence  de  l'antagonisme
                          agrandi  par  la  deuxième  et  troisième  Conférences  panaméri-
























                           qui  anime  les  gouvernements  de  l'Europe,  il  importe  de  créer                 et  de  la  remplacer  par  une  Union  européenne et  une  Union
                           une  volonté  vers  l'organisation.                                                   américaine.  Un  Bureau  paneuropéen  aurait  surtout  à  étudier  la
                             C'est  ce  premier  obstacle  qu'il  s'agit  de  vaincre,  et  la  voie  la         situation  des  peuples  qui  vivent  sur  l'une  des  plus  petites
                           plus  facile  pour  y  parvenir  est  de  se  rattacher  à ce  qui  existe.           parties  du globe  terrestre  et  de  faciliter  leur  coopération.  Par
                           En  effet,  les  gouvernements  européens ont  déjà econnu  qu'il                     cette  action,  le  Bureau  éduquerait  en quelque  sorte  les  Etats
                                                                           r
                           était  possible  et  avantageux  d'organiser  des  ententes  écono-                   européens,  éveillerait en eux l'idée d'une  communauté d'intérêts
                           miques  et  administratives;  toutefois  ils  n'ont  pas  encore  admis               et dissiperait  l'antagonisme  des gouvernements  de  pays  si étroi-
                           la  nécessité  d'organiser  de  telles  ententes  selon  un  plan  mon-               tement  dépendants  les uns des autres. Un tel  résultat  ne  mettrait
                           dial.  En  les  amenant  à créer un  Bureau  paneuropéen sur  le                      pas  obstacle  à ce que  les  ententes  européennes  s'élargissent
                           modèle  du  Bureau  panaméricain, ces  gouvernemenls  n'accepte-                      jusqu'à  devenir  des  ententes  mondiales  ou  à ce  que  les  Etals
                           raient  pas  aisément  l'idée d'une  organisation  plus  large  : la  créa-           européens  s'unissent  avec  les États  des  autres  parties du
                           tion  d'un  Bureau  paneuropéen  conduirait  automatiquement  à la                    inonde.
                           constitution  d'un  Bureau  mondial.                                                    Il  ne  faut  pointant  pas  perdre  de  vue,  non  plus,  qu'il  y  a
                             Nous  ne  pensons  pourtant  pas que cette  voie  soit  la  seule  qui              telles  circonstances  internationales  qui  ont  un  caractère  pure-
                           puisse  conduire  vers  une organisation  universelle  du  monde  cl                  ment  continental.  Ce qui  le  démontre,  ce  sont  les  nombreuses
                           nous  estimons  qu'il  faut  préconiser  toutes  les  tentatives  par-                conventions  panaméricaines,  et  en  cela l'organisation  panaméri-
                           tielles  laites  dans  ce  but.  Seulement  nous  ne  considérons  pas                caine  collabore  puissamment  à  l'organisation  mondiale.  Un si
                           l'évolution  dans  ce  sens  comme  une suite  d'étapes  dont  l'orga-                précieux  point  ferait  défaut si  des  États ne  s'étaient  déjà  orga-
                           nisation  européenne  serait  un  élément, mais  plutôt  comme  des                   nisés suivant  un  plan  continental.  On  peut  rappeler  notamment
                           efforts  parallèles  vers  un  même  but.                                            que  la  doctrine  de  Drago  qui, à son  origine,  était  purement
                             C'est  ainsi  que,  suivant  nous,  il  faut  interpréter les  ententes            américaine  est  devenue  mondiale  depuis  1907.  D'autre  part,
                           conclues  ou  projetées  entre  des  pays  à  tendances  antagonistes                certaines  conventions  paraissent  ne  pas pouvoir  aboutir  si  elles
                           comme  l'Allemagne  et  l'Angleterre,  l'Allemagne  et  la  France,                  englobent  le monde  entier,  alors  qu'on  peut  parfaitement  en
                           l'Autriche  et  l'Italie,  les  traités de garantie  relatifs  à  la mer du          prévoir la conclusion  si  elles  restent  limitées à  un  seul  conti-
                           Nord  et  la  mer  Baltique.  De  telles  conventions  sont  aussi                   nent.
                           importantes  que  la création d'un  Bureau  paneuropéen  pour                           L'Allemagne,  par exemple,  ne  se  refuserait  certainement  pas
                           arrivera  une  organisation  unitaire  du  monde.                                    à  signer  un  traité permanent  européen  d'arbitrage,  alors  qu'elle
                             Nous  ferons  remarquer,  du reste,  que la création  d'un  Bureau                 a  refusé pourtant  à signer  un  tel  traité  avec  le  monde  entier,
                           paneuropéen  ne  constitue  pas encore  une  organisation  paneuro-                  avec  le Honduras,  la Perse,  la Chine,  etc.  La  question  du
                           péenne. Un  tel  bureau  n'aurait,  en  effet,  qu'à  s'occuper  d'une               désarmement   semble,  notamment  en  ce  qui  concerne  les  armées
                           manière  objective  des  activités  européennes;  il  n'aurait  ni  à se             terrestres,  ne  pouvoir  aboutir  qu'à  une  entente  continentale.  Il
                           préoccuper  des relations  mondiales,  ni  à agir en opposition  avec                en  est de  même  pour  un  grand  nombre  d'autres  questions  rela-
                           d'autres  organismes  continentaux.                                                  tives  au  transport,  au  commerce,  à l'enseignement,  etc.,  qui
                             11 est  évident, par  exemple,  que  la  création d'un  tel  bureau                sont  plus  faciles  à  résoudre  au  point  de  vue  européen  qu'au
                           n'aurait  pas pour  effet  de  dissoudre  l'Union  postale  universelle              point  de  vue  mondial.






















                                                     —   8  —
                              Il  v a lieu  du  rosto  d'appeler  l'attention  sur  l'importance                                             —   0  —
                           qu'il  v  a  à  l'aire  progresser  l'idée  d'organisation  dans  le  mondi'            les  objets  qui  peuvent  donner  lieu  à  une  organisation  mondiale
                           européen. C'est  en  Europe,  en  effet,  qu'il  importe  de  vaincre                   soient  tout  d'abord  envisagés  au  point  de vue  continental.
                           des  antagonismes   nationaux  qui y    sont  particulièrement                          Continentalisme  et  mondialisme  ne  sont  pas  des  idées  contra-
                           intenses.  En  outre,  ce  sont  les  Étals  européens  qui  exercent  sul-             dictoires,  ce  sont  des  idées parallèles  qui  se  soutiennent  l'une
                           le  monde  une  influence  considérable.  Assurer  partiellement  le                    ' "tre.                                 A L F R E D - H .  F R I E D .
                                                                                                                    a
                           triomphe  de  l'idée de  l'organisation  mondiale  ne  constituerait
                           pas  un  recul  pour  cette  idée, mais  en  assurerait  la réalisation
                           rapide.
                              Enfin,  c'est  une  erreur  de  croire  que  des  organismes  conti-
                           nentaux  doivent  nécessairement  conduire  à dos  antagonismes
                           continentaux.  L'expérience  démontre,  au  contraire,  que  plus                                                ANNEXE
                           des  organisations  sont  étendues moins  elles  sont  disposées  à
                            user  de  violence;  au  surplus,  la  lutte  sur  le lorrain  intellectuel
                            ou  économique  ne  doit  pas  nécessairement amener  dos  conflits.                   Nous  donnons en annexe  les opinions d'un  certain  nombre de  personnes
                            Ainsi  le  soi-disant  péril  américain, qui  menace  l'Europe  sur  le                  qui  ont  été consultées  en  Allemagne,  en  Autriche  et  en  Suisse  sur
                            terrain  économique,  doit  plutôt  être  considéré comme  ayant                         notre  projet.  Elles  sont  reproduites  dans  la  langue  originale :
                            une  influence  excellente  ou  point  de  vue  d'une  organisation
                            européenne.  Il est  évident,  en  effet,  que  l'Amérique est  en                               Geheimrat  Professor  von  Bar  in  Göttingen.
                            avance  au  point  de  vue  de  l'organisation  continentale,  et c'est  là             Meines  Erachtens  würde die  Aufgabe  des  Bureaus  sein,  die  Fragen
                            un  t'ait  avec  lequel  il faut  bien  compter.  Un  mouvement  paneu-               sachkundiger  Kreise  oder  der  Parlamente  oder  der  Regierungen  zu
                            ropéen est  donc  à  souhaiter  : il servirait  simplement  à  reconsti-              beantworten :
                            tuer  un  équilibre  nécessaire.  La  constitution  d'une  organisation                 1.  Ist  eine  internationale  europäische (oder  mondiale)  Organisation
                            paneuropéenne serait  en  réalité  déjà  la  constitution  d'une  orga-               oder  Regelung  in der  betreffenden  Angelegenheit  möglich  bezw.
                            nisation  mondiale,  car  l'existence  de  deux  grandes  fédérations                 wünschenswert?
                            continentales  aurait  sur  la  marche  du  monde  une  influence                       2.  Wie  soll  diese  Organisation  bzw.  Regelung  beschaffen  sein ?
                            décisive,  et les grandes questions  humanitaires  seraient  plus  près                 Die  Anregung  zu  solcher  Organisation  oder  Regelung  könnte  m.  E.
                                                                                                                      Bureau,
                                                                                                                              wenn
                                                                                                                                   es
                                                                                                                  das
                                                                                                                                                     Anzahl
                                                                                                                                                einer
                            d'une  solution;  loin  de  constituer  un  antagonisme  périlleux,                   besetzt  sein  sollte,  von  nicht  mit Seite  (vgl.  oben) von  Sachverständigen
                                                                                                                                                                         Fragen
                                                                                                                                                                      Die
                                                                                                                                       anderer
                                                                                                                                                             erwarten.
                            cette  situation  faciliterait  l'harmonisation  des  intérêts.                       1  und  2 zu  beantworten  wird,  wenn  von  anderer  Seite  Anregung  und
                              Pour  conclure,  nous  pouvons  donc  résumer de  la  manièro                       Begründung solcher  Anregung  gegeben  wird,  wesentlich  nur  Kenntnis
                            suivante  ce que  nous  venons  de  dire  : le développement  de                      des  internationalen  Rechtes  und  der  allgemeinen  internationalen  Ver-
                            l'organisation  mondiale  est  dù  à des  facteurs  trop  puissants                   hältnisse erfordern.  Insoweit  wäre also  die  Errichtung  jenes  Bureaus
                            pour  qu'il  soit  possible  de  l'entraver.  L'organisation  des  conti-             gewiss  möglich und  nützlich.
                                                                                                                    Es
                                                                                                                       besteht jedoch
                            nents,  dans  des  buts  purement  continentaux,  constitue  une                      beschäftigt sein,  wenn ein es Bedenken.  Das  Bureau  würde nicht genügend
                                                                                                                                                                   und
                                                                                                                                        nur
                                                                                                                                                                       Regelung
                                                                                                                                                        Einrichtung
                                                                                                                                           mit der ersten
                            évolution partielle  vers  l'organisation  mondiale.  Il  est  utile  que             bestimmter  Angelegenheiten  zu  tun  hätte, und  würde es  dauernd  für
                                                                                                                  die  Erledigung  aller  Fragen  bestimmt  sein,  welche  aus  bereits























                                                    —   10  —                                                                              —   I I —

                           nach  seinen  Vorschlagen  entstandenen  internationalen  Einrichtungen               beim  ersten  Anblick  etwas  ungemein  Sympathisches.  Beim  näheren
                           entstehen  würden, so  würde  ihm  vielleicht  oft  die  erforderliche  Sach-         Nachdenken  melden  sich  aber  gewisse  Bedenken,  die  ich  bisher  nicht
                           kunde  fehlen  oder  es  würden  (z.  B.  hei  sanitären  Einrichtungen)  die         zu  überwinden vermocht  habe.  «  Die  Angelegenheiten,  für  die  sich
                           Wahl  des  Ortes seines  Sitzes  Schwierigkeiten  machen.                             erfahrungsgemäss alle  Kulturnationen  gleichmässig interessieren  »,  sind
                             Das  Bedenken  zu  geringer  Beschäftigung dürfte aber  wegfallen,  wenn            ja  —  glücklicherweise  !  —  in  unserer  Zeit  sehr  umfassend  und  sehr
                           mit  der  Beantwortung  der  Fragen  1 und  2  eine  internationale Völker-           verschiedenartig.  Das  Bedürfnis nach  einer  « Zentrale  »  für  die Fürsorge
                           rechtsakademie  betraut  würde, deren  Errichtung  und  Organisation  ich             für  diese  Angelegenheiten  hat  ja  schon  zu  der  Schaffung  einer  ganzen
                           bereits mehrfach  skizziert  und  proponiert  habe,  wie  die  Ihnen  vielleicht      Beihe  von  internationalen  Zentralverwaltungsbureaus  geführt  :  Das
                           schon  bekannte  Anlage ergibt,  deren  Abdruck  in der  « Friedens-Warte  »          «  Bureau  international  des  administrations  télégraphiques  »,  das
                           ich  eventuell  gern  sehen  würde.                                                   «  Bureau  des  Weltpostvereins  »,  das  « Bureau  international  des  poids  et
                                   18.  XI.  1909.                                                               mesures  »,  die  Berner  Bureaus  zum  Schutze  der  Werke  der  Literatur
                                                                                                                 und  Kunst,  das  Bureau  central  de  l'Association  géodésique  interna-
                                  Professor  D'  Max  Fleischmann  in  Halle  a. S.                              tionale,  die  Bureaus  zur  Bekämpfung  der  Sklavenraubes  und  des
                                                                                                                 Sklavenhandels,  das  Brüsseler  Bureau  des  internationalen  Verbandes
                             Der  in  Ihrem  Berichte  hervorgehobene  Gedanke,  an  Vorhandenes                 zur  Veröffentlichung  der  Zolltarife,  das  Berner  «  Otiice  central  des
                           anzuknüpfen, ist  gewiss  fruchtbar;  eine  Annäherung der europäischen               transports  internationaux  »,  das  Haager  Bureau  des  ständigen  Schieds-
                           Staaten  in gemeinsam  fördernder Arbeit  lässt sich  meines  Dafürhaltens           gerichtshofes,  das  Berner  internationale  Friedensbureau,  und  in  der
                           nur  auf  einem  Boden  ermöglichen,  der  sich  wie von  selber  dafür  schon        neuesten  Zeit  das  Brüsseler  Zentralbureau  der  interparlamentarischen
                           bietet.  Insoweit  stimme  ich  also  dem  Grundgedanken  Ihres  Berichtes           Union.  Wird  es  möglich und  nützlich  sein,  die  weitverzweigten  inter-
                           zu.  Im  einzelnen  wird  man  sich  vor  übereilter Verallgemeinerung hüten         nationalen  Verwaltungs- und  Auskunftstätigkeiten, die  sehr  verschieden-
                           müssen,  um  dem  festen  Boden  nicht  unter  den  Füssen  zu  verlieren.           artige  Fachkenntnisse  voraussetzen,  in  ein  einziges  Bureau  zu  zentrali-
                           Ein  umfassendes  Programm  heule  schon  aufgestelt,  würde  der                    sieren?  Muss  man  nicht  fürchten,  dass  das  alte  Wort  : « Qui  trop
                           Entwicklung  in  den  Weg  treden  und  ein  fernes  Ziel  nur  gefährden.  In       embrasse  mal  étreint »  sich  bewahrheiten  wird.?  Ist  es nicht  eher
                           der  Kindheit  der  Völkerzusammenschlusses  können  die  Schritte  nur              angezeigt,  auf  dem  bisher  von  der  Staatengemeinschaft  mit  gutem
                           kurz  gesetzt,  und  müssen  kleine  Ansätze schon  als  ein  Fortschritt            Erfolge  beschrittenen  Wege,  für jede  neue  Interessengemeinschaft  ein
                           geachtet  werden.  Dahin  rechne  ich  z.  B.  einen  pflichtmässigen                neues  Organ  zu  schaffen,  weiterzugehen  ?
                           Austausch  der  amtlichen  Veröffentlichungen,  woran  es  bei  uns  noch              Vielleicht  wird  es  dazu  kommen,  dass  die  für die  einzelnen  beson-
                           fehlt.  Auch  räumlich  dürfte  man  den  Kreis  nicht  schon  über weit             deren  Ressorts  geschaffenen  Bureaus  durch  eine  zusammenfassende
                           spannen.  « Pan-Europa  » möchte ich vorerst  noch  nicht  für  eine  Kultur-        Zentralstelle  miteinander  verbunden  werden  können. Man  muss  aber
                           und  Interessengemeinschaft  halten.  Private  Initiative,  die  im  Völker-         m.  E.,  um  sicher  zu bauen,  nicht von oben, sondern  von  unten  anfangen.
                           leben  noch  die  Bahn  zu  brechen  pflegt,  kann  den  rechten  Fingerzeig         Auf  dem  internationalen  Gebiete  heisst  es  vielleicht  mehr  als  auf
                           geben  :  Wir  haben  z.  B.  einen  « mitteleuropäischen  Wirtschafts-              irgendeinem  anderen  Gebiete der  Entwicklung  nicht vorzugreifen,  wenn
                           verein  »  —  in diesem  Bereiche  könnten  sich  auch  die  von  Ihnen              man  dauernden  Fortschritt  erreichen  will.
                           gewünschten amtlichen  Schritte  zunächst bewegen  und  erschöpfen.                          22.  XI.  1909.
                                   21.  XI.  1909.
                                                                                                                          Professor  Graf  v.  Kamarowsky  in  Moskau.
                                          H
                              Exzellenz  D r agerup,  norwegischer  Gesandter  in  Kopenhayen.
                                                                                                                  Ich  danke  Ihnen  für  die  Zusendung  Ihres  interessanten  Artikels über
                             Die  Idee,  für die  Sie  in  der  «  Friedens-Warte  »  in  so  beredter  Weise   das  pan-europäische Bureau.
                           eingetreten  sind,  die  Schaffung  eines  « pan-europäischen  Bureaus »               Am.  14.  November  fand  in  Moskau  die  erste  öffentliche  Sitzung  der
                           nach  dem  Vorbild  des  «  Bureau  der  amerikanischen  Republiken  »,  hat         neubegründeten Friedensgesellschaft  statt.  Ich  hielt  einen  Vortrag über























                                                     —   12 —                                                                               —   13 —

                            die  Friedensidee  und  ihr  Verhältnis zur  modernen  Gesellschaft,  und  gab        für  alle  Menschen  herausgearbeitet  hat,  so  scheint  eben  vermöge dieser
                            in  grossen  Zügen den  Inhalt  Ihrer  Arbeit  wieder.  Später  wurde  diese          Logik  der  Menschheit  das  Streben  nach  Einheit  immanent  zu  sein,  der
                            Rede  in  der  Zeitung  « Golos  Moskni  »  (Moskauer  Stimme)  veröffentlicht.       Trieb  und  Drang,  im  Entwicklungsgange  der  Geschichte  zu  einem
                            Der  Präsident  unserer  Friedensgesellschaft,  Fürst  Paul  Dolgorukoff,             Weltrecht,  einer  Weltmoral,  einer  Weltreligion,  einer  Weltsprache  und
                            sprach  üher die  Entstehung  der  Gesellschaft  und  betonte  ihren  streng          einer  internationalen  Weltvereinbarung  zu  gelangen.  Und  so  ist  die
                            parteilosen  Charakter.  Sie  soll  nur  humanitäre  und  kulturelle  Ziele           Hoffnung  denn  doch  keine  Illusion  und  keine  Utopie,  dass aller  Hemm-
                            verfolgen,  und  anstatt  des  Krieges  das  Schiedsgericht  empfehlen;               nisse  und  Rückbildungen ungeachtet  eine  Vorwärtsbewegung  von  der
                            zugleich  regen  Verkehr  mit  den  ausländischen gleichen  Gesellschaften            Vielheit  zur  Einheit  auf  allen  Gebieten  des  Geisteslebens,  in  Recht,
                            unterhalten.                                                                          Ethik,  Politik,  Wirtschaftspflege,  usw.,  sich  vollziehen  werde.  In  der
                              Die Idee  über  das  pan-europäische Bureau,  welche Sie  anregen,  finde           unter  dem  Drucke  der  schweren  Opfer  für  die  Heereserfordernisse  in
                            ich  fruchtbar  und  praktisch.  Man  musssie  in  der  Presse  verbreiten  und       immer  weitere  Kreise  dringende  Erkenntnis,  dass  die  Staaten  keine
                            die  Regierungen  für sie  zu  gewinnen  suchen.                                       Kriegslager  sondern  Friedensanstalten  sind,  zur  Verwirklichung  des
                                    12./25.XI.  1909.                                                             Hochzieles  der  Kultur,  d.  i. jener  Aeusserungen  und  Betätigungen von
                                                                                                                  Menschen,  die  eine  Erhöhung des  Glücks  und  der  Wohlfahrt  derselben
                                   Exzellenz  Geh.  Rat  Paul  Laband  in  Strassburg  i.E.                       Menschen  über jenes  Stadium  hinaus  nur  Folge  haben  sollen,  welches
                                                                                                                  von  Natur  aus,  also  ohne  menschliches  Zutun,  vorhanden  wäre. Diesen
                              Dem  von  Ihnen  aufgestellten  Vorschlage  eines  internationalen  euro-           Prozess  ingesicherte  Bahnen  zu  leiten  und  darin  zu  erhalten,  dazu
                            päischen  Bureaus  stimme  ich  vollkomen  zu.  Man  darf  freilich  für den          bedürfte  es  allerdings  nächst dem  festen  Willen  zur  organisatorischen
                            Anfang  keine  zu  grossen  Hoffnungen  von  seiner  Wirksamkeit  hegen.              Tätigkeit  einer  Zentralstelle,  desen  Mitarbeiter,  von  Philosophen
                            Es  wird  auch  hier  der  Satz  gelten,  dass  aller  Anfang  schwer  ist.  Aber  es  und  doktrinären  Wünschen  absehend,  den  Blick  auf  das  der  malen
                            würde, wie  Sie  richtig  sagen,  ein  Keim  eingesetzt  werden,  aus  welchem         Erreichbare  gerichtet,  und  befähigt  sind,  zunächst auf  europäischem
                            sich  eine  internationale  Organisation  der  europäischen  Staaten  entwi-           Boden  eine  ähnliche Aktion  ins  Werk  zu  setzen,  wie  dies  in  Amerika
                            ckeln  kann;  es  würde  eine  äussere Form  geschaffen  werden,  welche  in           der  Fall  ist.  Hieraus  könnte  sich  mit  natürlicher  Notwendigkeit  die
                            fortschreitendem  Masse  mit  einem  praktisch  wirksamen  Inhalt  ausge-              spätere  Organisation  der  Welt  ergeben.
                            füllt  werden  würde. Von  den  dem  Bureau  zur  Verfügung  stehenden
                            geistigen  Kräften  und  materiellen  Mitteln  würde  es  abhängen,  ob  es                           Professor  Dr.  F.  Meili  in  Zürich.
                            imstande  sein  wird,  den  Weg  zur  Erreichung  des  gewünschten Zieles
                                                                                                                     Der
                                                                                                                                                                    sympathisch,
                            zu  ebnen.                                                                             wenn  er Gedanke  des  pan-europäischen  Bureaus  ist  mir habe  mich  mit
                                                                                                                                                     beschränkt. Ich
                                                                                                                                  bekannte
                                                                                                                              auf
                                                                                                                          sich
                                                                                                                                                Ziele
                                                                                                                                          engere
                                    18.XI.  1909.                                                                  Ihrem  Ideale  auch  früher  geschäftigt,  und  neulich  wieder  in  der
                                                                                                                   Broschüre  (Zürich 1909),  die  den  Titel  führt:  «  Die  moderne  Fortbil-
                                   Hofrat  l'rofessor  Dr  Ferdinand  Lentner  in  Insbruck.                       dung  des  internationalen  Privatrechtes  ».
                              Ihren  Bericht  über ein  pan-europäisches Bureau,  erstattet  auf  der               Es  wird  mich  freuen  zu  hören  wie  Ihr  Plan  aufgenommen  wird.  Es
                                                                                                                         mir,
                            Generalversammlung  des  Berner Internationalen  Friedensbureaus,  habe                scheint Fonds  es  sollte  zuerst  ein  kontinentaler  Carnegie oder  Rockefeiler
                                                                                                                   einen
                                                                                                                              stiften.
                            ich  nicht  nur  mit  Aufmerksamkeit  gelesen,  sondern  auch  durchdacht,                    4.  XI.  1909.
                            wobei  mich  manches  an  Fichtes  Ideen  zwecks  Gründung einer  Staaten-
                            gemeinschaft  nach  dem  Sittengesetze  erinnerte,  und  seine  zuversichtli-                         Professor  Dr.  Meurer  in Würzburg.
                            che  Erwartung,  dass  das  Gebiet  der  Kultur  und  der  Freiheit  und  mit
                            ihm  das  des  allgemeinen  Friedens  allmählich  den  ganzen  Erdball                   ...  Nachdem  übereinstimmend von  allen  Vertretern  des  Pazifismus  die
                            umspannen  werde  In  der  Tat,  die  Geschichtsphilosophie  aller  Zeiten             Weltorganisation  als  Ziel  der  modernen  Friedensbewegung  bezeichnet,
                            belehrt  uns,  dass  die  Menschheit  eins  werden  will.  Wie man  eine  Logik        aber  von  gegnerischer  Seite  mehr  oder  meniger  bestimmt  die Möglich-























                                                   —    14  —
                          keit  einer  kosmopolitischen  Verfassung  bestritten  wird,  haben  die                                         —   15  —
                          Friedensfreunde  ganz  recht,  wenn  sie einmal  eine  Probe  aufs  Exempel            Reiches,  das  noch  heute  keinm  Lehrstuhl  für Volkerrecht  besitzt  und
                          machen  wollen.  Die Gegner  haben  m.  E.  an  und  für sich  keinen  Grund,          in dessen  Bevölkerung  einschliesslich  der  Staatsbeamten,  insbesondere
                          zu  widersprechen.  Die  Friedensfreunde  wollen  im  << .  internationalen            der  Juristen,  die  Verständnislosigkeit für  internationale  Organisation
                                                                        .
                          Bureau  der  europäischen  Staaten  »  einen  « lebendigen  Keim  »  ein-              ungeheuerlich  ist;  und  die  zünftigen  Diplomaten  sind  dem  Verständnis
                          setzen,  «  der  durch  seine automatische  Lebensbetätigung  notgedrungen             am  meisten  entrückt, da  sie  nur  Politik  im  engsten  Sinne  sehen  und
                          zur  Weltorganisation  führen  muss  ».  Mache  man  also  einmal  den                 sich  einbilden,  die  Bealität der  Dinge  am  besten  zu  kennen.  Also  sie
                          Versuch.  Entweder  verwirklicht  sich  das,  was  die  Friedensfreunde                sehen,  ich  bin  ganz  und  gar  für  tätige  Verbindung  aller  Kräfte,  um
                         erstreben  : dann  ist  der  Pessimismus  der  Gegner  ad  absurdum  geführt.           zunächst  die  Vereinigten  Staaten  von  Europa  zu  organisieren  oder,
                         Oder  die  Weltorganisation  bleibt  trotz  alledem  aus.  Dan  steht  fest,  dass      richtiger  gesagt,  zu  deren  Organisation  zu  helfen.  Wie  würde  Ihnen
                         die  Pazifisten  einem  unmöglichen  Ziele  zustreben.                                  gefallen  : «  Europäisches  Bureau  für internationale  Organisation  » ?  Ich
                           Im  übrigen  möchte  ich  aber  doch  auch  noch  den  besonderen                     bin  sogleich  dabei.
                         Charakter  des  « Bureau  der  amerikanischen  Republiken  »  betonen.                          S.  XI.  1909.
                         Dieses Bureau,  wie  alle  pan-amerikanischen  Institutionen,  haben  mehr
                         oder  weniger  ihre  eigentliche  Wurzel  in  der  Moroedoktrin,  und  dienen                        Professor  Dr.  Oppenheim  in  Cambridge.
                         demgemass  der  Vertretung  der  amerikanischen  Interessen  gegen
                         Europa.  Soll  nun  das  internationale  Bureau  der  europäischen Staaten                ...  Ihr  Vorschlag  ein  europäisches  Bureau  nach  dem  Muster  des
                         der  versteckte  Sachverwalter  Europas  gegen  Amerika  sein?  Das  wäre               amerikanischen  ins  Leben  zu  rufen,  ist  einer  die  vielen  glücklichen
                         ein  Anfang  von  Weltorganisation  von  fragwürdigem Wert.  Da  würde                  Gedanken,  welche  sie  im  Interesse  der  friedlichen  Organisation  der
                         ich  unmassgebend  doch  lieber  anheimstellen,  ein  internationales                   Staaten  zur  Diskussion  gestellt  haben.  Nur  möchte ich  das  Bureau  nicht
                         Bureau  der  Staaten  der  Völkerrechtsgemeinschaft  ins  Leben  zu  rufen.             auf  die  europäischen Staaten  beschränkt, sondern  auf  alle  Staaten  aus-
                         Das  allein  wäre  «  eine  Zentrale  für alle jene  Angelegenheiten  », für  die       gedehnt  haben  : was  wir  brauchen,  ist  ein  Weltbureau  !  Die  Interessen,
                         sich  « alle  Kulturnationen  gleichmassig  interessieren ».                            welche  in  den  amerikanischen  Bureau  ihren  Ausdruck  gefunden  haben,
                                 22.  XI.  1909.                                                                 sind  doch  mehr  spezifisch  amerikanische.  Europa  aber  ist  politisch
                                                                                                                 noch  immer  der  Mittelpunkt  der  Welt. Die  Interessen  der  vielen  Staaten,
                                                                                                                 welche  auf  dem  verhältnismässig kleinen  europäischen Erdteil  zusam-
                                         Professor  Dr.  Niemeyer  in  Kiel.                                     mengedrängt  sind,  sind  nicht  so  einheitlich  und  so  spezifisch  euro-
                                                                                                                 päisch, wie  die  Interessen  der  amerikanischen  Staaten  einheitlich  und
                           ...  Ihren  Bericht  habe  ich  mit  grösstem  Interesse  gelesen  und  mit           spezifisch  amerikanisch  sind.  In  Amerika  gibt  es  nureine  einzige  Gross-
                         grössler  Befriedigung.  Die  einzige  Lücke,  welche  Sie  und  mich,  die             macht,  und  diese  übt eine  Art  politischer  Hegemonie  aus  (infolge  der
                         Friedenserstreber  und  Völkerrechtler, noch  trennen  konnte,  ist  mit                Monroedoktrin).  In  Europa  aber  haben  wir  sechs  Grossmächte  mit
                         diesem  Schritt  geschlossen.  Wir  marschieren  fortan  vereint  zu  dem-              teilweise  widerstreitenden  Interessen  Es  dürfte daher  leichler  sein,  ein
                         selben  Ziel,  und  ich  bin  glücklich, das  zu  erleben.  Der  Volkerrechts-          Weltbureau  ins  Leben  zu  rufen  als  ein europäisches.
                         wissenschaft  geben  Sie  das  Pathos,  ohne  das  noch  niemals  in  der  Welt           Freilich,  der  Artikel  in  der  letzten  Nummer  der  «  Friedens-Warte  »
                         etwas  Grosses erreicht  ist:  und  die  Völkerrechtswissenschaft  schlägt die          zeigt,  dass  Sie  diesem  Gedanken  eines  Weltbureaus  ganz  fremd  gegen-
                         Brücke von  Ihnen  zu  der  Praxis,  indem  sie technisch  und  methodisch              überstehen,  denn  die  Organisation  der  europäischen Slaaten  ist das  Ziel
                        ausdenkt  und  ausarbeiten,  wie  man  am  zuverlässigsten  vorwärts                     dem  Sie  zustreben.  Ich  bin  nun  gespannt  zu  erfahren  inwieweit  euro-
                         kommt.  Sie  und  wir  gehören  aber  noch  in einem  anderen  Sinn                     päische  Völkerrechtler Ihrem Gedanken zustimmen,  und  ich  bin  geneig,
                        zusammen.  Ihnen  wie  uns  Völkerrechtstheoretikern ist  es  bisher  ver-               zu  glauben  dass  Sie  mehr  Anhänger eines  Weltbureaus  als  eines  euro-
                        sagt,  das  Vertrauen,  das  Verständnis, geschweige  die  Hilfe,  der  Staats-          päischen finden  werden.
                        regierungen  zu  gewinnen;  am  wenigsten  im  Gebiete  des  Deutschen
                                                                                                                         19.XI.  1909






















                                                                                                                                           —  17  —
                                                      —   16  —                                                  Staaten  des  Nordens  die  übrigen Gemeinwesen  nur  überschatten,  und

                                                                                                                 es jenem  Bundesstaate  bei  Lage  der  Sache  möglich ist,  eine tatsächlich
                                            Professor  Dr  Rehm  in  Strassburh.                                 mindestens  ethisch-politische  Hegemonie  auszuüben.  Hinzu  kommt,
                                                                                                                                Pan-Amerikanismus
                                                                                                                             des
                                                                                                                     die Idee
                              Der  Gedanke  des  europäischen  Staatenbureaus  wird  in  wenigen                 dass und  drüben  als  einigendes  Band  historisch  und  politisch  gegeben
                                                                                                                                                                        wie
                                                                                                                                                                   wird,
                                                                                                                 ist,
                                                                                                                                                         betrachtet
                                                                                                                                                  ebenso
                                                                                                                                                                            sie
                            Jahren  Tat  sein.  Für  Einrichtung  und  Aufgabe  sei  Amerika  vorbild-
                            lich.                                                                                ihre  Spitze  unverkennbar  gegen  die  alte Welt richtet.  Etwas  Aebnliches
                                                                                                                                                                       Amerika,
                                    15.XI.  1909.                                                                ist  für in Pan-Europa  undenkbar,  weder  in  der  Bichtung  auf Berechnung
                                                                                                                                                           politische
                                                                                                                                               Afrikas.
                                                                                                                 noch
                                                                                                                                    Asiens
                                                                                                                                          und
                                                                                                                                                      Jede
                                                                                                                        der
                                                                                                                            Bichtung
                                                                                                                 muss  einer  solchen  Idee  widerstreben.  Schon  die  Bücksicht auf  Kolo-
                                    Professor  Dr  Walther  SchUklng  in  Marburg  i. II.                        nialbesitz  und  was  damit  zusammenhängt, weist jede  Möglichkeit eines
                                                                                                                 Zusammenschlusses  von  Europa  mit  der  Tendenz,  sich  gegen  einen
                              In  der  Begründung eines  offiziellen  pan-europäischen Bureaus würde             anderen  Weltteil  zu  organisieren,  in  das  Beich  der  Phantastik.  Bliebe
                           ich  einen  wesentlichen  Fortschritt  des  Völkerrechts erblicken.  Wenn             also  der  engere  Zusammenschluss  der  europäischen Staaten  unter  sich
                           wir  von  der  Familie  als Zelle  des sozialen  Lebens  ausgehen,  so  schieben      für  gegenseitige  Interessen  innerhalb  Europas.
                           sich  zwischen  der  Familie  und  dem  Deutschen  Bei« he  bei  uns in                 In  dieser  Beschränkung  kann  vielleicht  ein  positives  Ziel  ins  Auge
                           Preussen  regelmässig  Ortsgemeinde,  Kreis-  und  Provinzialkommune                  gefasst  werden.  Nur  wird  immer  zu  bedenken  sein,  dass  das  Interesse
                           sowie  endlich  der  Einzelstaat  als  politische  Zwischenverbände, ein  (wie         für  einen  Gegenstand,  eine  politische,  wirtschaftliche,  kulturelle,  tech-
                           in  einzelnen  preussischen  Provinzen  gibt  es  übrigens noch  mehr  solcher         nische  Frage  usw.  sowohl  an  Intensität  bei  den  verschiedenen  euro-
                           Zwischenverbände, indem  auch  noch  die  zwischen  den rtsund  Kreis-                 päischen  Staaten  verschieden  sein  kann,  als  auch  entgegengesetzte
                                                                           O
                           kommunen   stehenden  Amtsbezirke  und  die  zwischen  Provinz  und  Kreis             Willensstrebungen  auszulösen imstande  ist.  Denken  Sie  an  die  Balban-
                           stehenden  Begierungsbezirke  zu  einer  politischen  Körperschaft  organi-            frage,  an  die  Stellung  der  Grossmächte zur  Türkei, Griechenland,  Per-
                           siert  sind).  Auch  die  fortschreitende  Organisation  der  Welt  wird  derar-       sien,  Marokko.  «  Interessieren  » werden  sich  wohl  alle  Staaten,  aber  ist
                           tiger  politischer  Zwischenverbände bedürfen,  und  ihr  \usbau  und  ihr             ihre  Absicht  nicht  leicht  und  zum  Teil  notwendigerweise  einander  ent-
                           Bestand  erscheint  um  so  gesicherter,  je  mehr  sie  getragen  werden  kann        gegengesetzt ?
                           durch  solche  Organisationen,  die  sich  schon  als  lebensfähig  erwiesen             So  engt  sich  der  Bereich  der  Aufgaben  eines  pan-europäischen
                           haben.  Eine  europäische ünionzur Unterhallungeines pan-europäischen                  Bureaus  weiter  ein.  Aber  es  bleibt  noch  genug  zu  tun,  und  zwar  in
                           Bureaus  wäre  ein  wichtiger  Anfang  zur  Begründung  eines  solchen                 einer  vorläufig  nur  allgemein  zu  umschreibenden  Bichtung.  Es  kann
                           politischen  Zwischenverbandes  und  damit  ein  wichtiger  Meilenstein                jenes  Bureau  ein  Mittelpunkt  sein  zur  objektiven  Klärung solcher  Fra-
                           auf  dem  Wege  zur  Organisation  der  Welt.                                          gen,  die,  mögen auch  die  verschiedene  europäischen Staaten  unter  sich
                                                                                                                  die  wihlersprechendsten  Absichten  haben,  doch  allen  oder  den  meisten
                                           Professor  D* Stier-Somlo  in  Bonn.                                   in  Bezug  auf  die Sicherstellung  des  tatsächlichen  Bestandes  naheliegen,
                                                                                                                  wenn  die  Tendenz  obwaltet,  durch  dieses  unparteiische  Erkennen  zur
                             Ich  komme  gern  Ihrem  freundlichen  Wunsche  nach,  meine  Ansicht                Vermeidung  von  Streitigkeiten,  zum  Austreten  bereits  glimmender
                           über  Ihre  Anregung  zur  Gründung eines  pan-europäischen  Bureaus                   Funken  der  Zwietracht  beizutragen.  Wie  weit  aus  diesen  allgemeinen
                           nach  Muster  des  in  Washington  errichteten  «Bureaus  der  amerika-                Sätzen  konkrete  Folgerungen  gezogen  werden  können,  ist  eine  Frage
                           nischen  Bepubliken  »  zu  äussern. Sympathisch  ist  mir  Ihie  Absicht,  an         des  tatsächlichen  Bedürfnisses.  Die  Gefahr  der  Einmischung  in die
                           Bestehendes  anzuknüpfen, denn  in  der  Tat,  « auch  die  politische  Ent-           Angelegenheiten  eines  anderen  Staates  liegt  nahe,  und  von  diesem
                           wicklung  macht  keine  Sprünge ».  Wenn  und  insoweit  alle  Kultur-                 Gesichtspunkte  wird  auch  die  Stellungnahme  der  meisten  europäischen
                           nationen  gleichmässig interessierende Angelegenheiten  vorhanden  sind,               Staaten  zu  der  Frage  des  geplanten  Bureaus  abhängen.  Ich  halte  den
                           fragt  es  sich  aber  noch,  ob  diese  Interessen  nach  derselben  Bichtung         Weg  für den  richtigsten,  zunächst die  Stellung  der  Grössmächle zu  der
                           gravitieren.  In  Amerika  dürften  die Verhältnisse  deshalb  anders  liegen,         von  Ihnen  aufgeworfenen  interessanten  Frage  zu  erforschen.  Welche
                           weil  die  alles  überragende  Macht  und  Bedeutung  der  Vereinigten




                                                               i






















                                                    —   18  —                                                                              —   19  —

                          Tätigkeit ein  solches  pan-enropäisches  Bureau  zu  vollbringen  hätte,
                          wird  sich  nach  Kenntnisnahme, der  Auffassung  der  Grössmächte leichter               Assessor  Dr.  Paul  Posener  in  Oinrlottenburt/.
                          feststellen  lassen.
                                  9.  XI.  1909.                                                                    ...  Ich  möchte Ihnen  vorschlagen,  zunächst  ein  eng  abgegrenztes
                                                                                                                  Gebiet  zu  wählen,  und  auf  diesem  für genau  bezeichnete Tätigkeilen
                                           B
                            Professor  Dr.  E. ematzik  in  Wien.                                                 eine  Sammelstelle  zu  eröffnen.  Nehmen  wir  als  Beispiel,  das  mir  eini-
                                                                                                                  germassen  vertraut  ist,  das  Staats-,  Verwallungs-,  Völkerrecht.  Auf
                            Ihr  Projekt  eines  pan-europäischen Bureaus  ist  mir  wie  wohl  jedem             diesen  Gebieten  zu  arbeiten  ist  vielleicht  eine  dankbare  Aufgabe,  denn,
                          Freunde  des  Friedens  in  hohem  Masse  sympatisch.  Aber  ich  glaube                soweitdiemir  bekannten  reicbs'eutschen  Verhältnisse in Frage  kommen,
                          nicht,  dass  blosse  Indolenz  und  Konservativilät der  Verwirklichung  des           ist  nicht  mehr  wie  alles  neu  zu  tun.  Das  Volkerrecht  erfährt  auf  den
                          Projektes  im  Wege  stehen,  sondern  Interessengegensätze  so  tiefer  und            reichsdeutschen  Universitäten eigentlich  keine  besondere  Pllege;  man
                          schwerwiegender  Art,  dass  mir  im  Augenblick  scheint,  es  könne in                opfert  ihm  eine  Vorlesung  von  vier  Wochenslunden  während das  Pri-
                          absehbarer  Zeit  nicht  realisiert  werden.  Das  Beispiel  Amerikas  hilft            vatrecht  (mit  seinen  \nnexen)  etwa  fünfzig  Wochenstunden  einnimmt.
                          nicht  viel.  Dort  haben  wir  eine  Macht,  welche geistig und  wirtschaftlich        Uebrigens  hat  auch  das  Staatsrecht  (des  Beiches  und  Preussens)  und
                          an  der  Spitze  ihres  Kontinents  marschiert,  unter  deren  Auspizien  auch          ebenso  das  Verfügung.  Geht  man  von  der  Fiktion  aus,  dass  die  juris-
                          die  Konferenz  ins  Leben  trat,  die  nur  der  Ausdruck  der  Hegemonie  der         tische  Vorbildung  auf  der  Universität erworben  wird,  dann  darf  man
                          Vereinigten  Staaten  ist.  In  Europa  fehlt  es  an  einer  solchen  Macht.  Ich      sich  über nichts  mehr  wundern.
                          glaube  daher,  dass  die  Bestrebungen  zur  Schaffung  eines  analogen                  Da  im  allgemeine  die  Universitätslehrer den  Beruf  in  sich  fühlen,  die
                          pan-europäischen Bureaus  derzeit  aussichtslos  sind.                                  Bücher ihres  Faches  herzustellen,  Praktiker  des  Völkerrechts im  Deut-
                                  7.  XL  1909.                                                                   schen  Reiche  aber  nicht  schreiben,  so  fehlt  es  zurzeit  an  einer  eiuiger-
                                                                                                                  massen  genügenden  Darstellung  des  Staatenrechts.  Dazu  kommt  die
                            Projesseur  Dr. osef  Kohler  in  Berlin.                                             geringe  Kenntnis  moderner  Sprachen  und  die  ängstliche  Geheimhal-
                                         J
                                                                                                                  tung  erledigter  Präzedenzfälle; genug  :  ein  Werk  wie  Moore  (Washing-
                            Die  Einführung eines  pan-europäischen Bureaus  zu  dem  Zwecke,  um                 ton  1906)  ist  in  Deutschland  noch  nicht  möglich.  Entsprechend  schlecht
                          die  sämtliche  europäische Staaten  interessierenden  Kulturangelegen-                 sind die öffentlichen Bibliotheken  ausgestattet;  ausser alten Ladenhütern
                          heiten  durch  Sammlung  von  Mitteilungen,  Herbeischaffung  von  Mate-                findet  sich  kaum  etwas  Wichtiges.
                          rial,  Auskunftserteilung  zu  fördern, wie es  bei dem  pan-amerikanischen               Im  Staats-  und  Verwaltungsrechte  ist  die  geringe  Beschäftiging  mit
                          Bureau  vorgesehen  ist,  und  um  Veröffentlichungen  über  die  Verkehrs-             dem  positiven  Rechte  anderer  Staaten  chronisch;  höchstens ein  Sonder-
                          und  Handelsverhältnisse,  über die  Gesetzgebung  und  die  Kulturein-                 ling  macht  sich  die  undankbare  Mühe, für  die  Kenntis  fremder  Beeilte
                          richtungen  der  einzelnen  Staaten  in  die  Welt  zu  senden,  um  in  einem          Opfer  zu  bringen.  Dass die als vergleichende  Rechtswissenschaft  bezeich-
                          gemeinsamen  Organ  die  Einigungsbestrebungen  der  Interessen  stets                  nete  Tätigkeitsform  ganz  absonderliche  Blüten treibt  und  zurzeit  nur
                          nachzuhalten,  erachte  ich  als  eine  sehr  glückliche  Idee,  und  ich  bin          eine  Art  Herbarium  anlegt,  ist ja  bekannt.
                          sicher,  dass  die  Einrichtung  in  wenigen  Jahrzehnten  den  Erfolg  haben             Soll  eine  solche  Sammelstelle  auf  den  bezeichneten  Gebieten nülzlich
                          wird,  die  europäische  Einheit  zu  steigern  und  die  Völker  zu  verbrü-           wirken,  so  muss  sie  zunächst vollkommen  selbständig  von  allen  beste-
                          dern.                                                                                   henden  Einrichtungen  begründet  werden.  Sie darf  weder  von  Bibliothe-
                            Es  würde hierbei  allerdings  die  Frage  auftauchen,  in  welchem  Ver-             ken  und  Fakultäten,  noch  von  bibliographischen  Instituten  Anregung
                          hältnis  dieses  Bureau  zu  den  bereits  vorhandenen  internationalen                 und  Erleuchtung  erhalten.  Namentlich  auf  letzterem  Gebiete  besteht
                          Bureaus  stehen  wird,  ob  es  diese  in  sich  aufsaugen  oder  als  Ausläufer        eine  Art  Internationalismus,  dessen  Geschäftslüchligkeit  ich  aber  noch
                          und  Hilfskommissionen  neben  sich  in  den  Praxis  von  selber  beantwor-            nicht  feststellen  kann.
                          ten  wird.  Es  handelt  sich  auch  dies  darum  kräftig  anzufassen;  das               Sodann  muss  die  Zentrale  alle  Gesetze  auf  den  Gebieten  des  Staats-
                          andere  wird  sich  von  selber  ergeben.                                               und  Verwaltungsrechts  im  Original  sammeln;  eine  Begrenzung  auf






















                                                   —   20  —                                                                                —  21 —

                          Europa  würde den  europäischen  Interessen  keineswegs  genügen. Sie
                          müsste  ferner  alle Staatsverträge Jeder  Art,  soweit  sie  noch  in  Kraft  sind,      Professor  Dr.  Georg  Streit  in  Athen.
                          zusammentragen  und  endlich'ein  Archiv  der  völkerrechtlichen  Präze-
                          denzfälle aller  Zeilen  anlegen.                                                        Herzlichen  Dank  für  die  gütige  Uebersendung  Ihres  sehr  interessan-
                            Das  wäre  der  Rohstoff,  aufweichein  sich  weiterhauen  lisse;  dazu              ten  Berichtes  über die  Gründung eines  pan-europäischen Bureaus.  Ihr
                          gehört als  Hilfsmittel  ein  handschriftlicher  Zettelkatalog  der  einschlä-         Vorschlag  verdient  die  grösste  Beachtung,  weil  er  nicht  den  festen
                          gigen  Literatur.                                                                      Boden  des  praktisch  Erreichbaren  verlässtund  einem  bereits  existieren-
                           Zweck einer Zentralstelle  dieser  Art  könnte dann  sein :                           den  Bedürfnisse  entspricht.  Allerdings  kann  man  auch  an  eine  Ver-
                                                                                                                                                   m.
                                                                                                                                         nur
                                                                                                                                                                       man
                                                                                                                                             dann
                                                                                                                                  Planes
                           1.  Sammlung  des  Materials.                                                         wirklichung  Ihres dieses  Rahmens  hält.  Ist E. die denken,  wenn einmal  sich
                                                                                                                                                                            ge-
                                                                                                                 streng
                                                                                                                        innerhalb
                                                                                                                                                             >titution
                           2.  Erteilung  von  Auskünften.                                                       schaffen,  so  wird  sich  ihr  Arbeitsfeld  und  ihr  Wirkungskreis  von  selbst
                            In  beiden  Beziehungen  fehlt,  soviel  mir  bekannt  ist,  innerhalb  des          erweitern,  und  wird  das  neue  internationale  Ora:m  mittelbar,  aber  um
                          Deutschen  Reichs  so  gut  wie  alles.  Das  Material  ist  nirgends vollständig      so  sicherer  die  Friedensidee  fördern.
                         vorhanden  oder,  was  dasselbe  ist,  nirgends  dem  Privatmanne  leicht                       3.  XII.  1909.
                         zugänglich. Das  gilt,  wie  ich besonders  hervorhebe,  sogar schon  für die
                         Einzelstaaten  des  Deutschen  Reichs.  Sollte  sich  jemand  in  Berlin  über                             Ueber   den  Krieg   (').
                         den  malayischen  Schutzstaatenbund  oder  über den  Kiautschauvertrag
                         informieren  wollen,  so  würde er  genau  so  in  Verlegenheit  sein,  als
                         wenn  er  das  württembergische  Krondotationsrechl  oder  das  hambur-                                        Von  Leo  Tolstoi.
                         gische  Nerhältnisgesetz  nachlesen  wollte.  Dagegen  kann  er  sich  die
                         Mythe,  dass  rein  römisches Recht  noch  heute  in  der  Kapkolonie  und                Die  ursprünglich für  den  Stockholmer  Frie.lenskongress  bestimmt
                         auf  Zeylon  gelte,  alle  Semester anhören.                                            gewesene  Rede;  aus  dem  Original  übersetzt von  Dr.  A  Skarvan.
                           Da  eine  Sammelstelle  notgedrungen  an  einem  bestimmten  Platze                     Geliebte  Brüder! Wir  haben  uns  hier  versammelt,  um  gegen  den
                         errichtet  werden  muss,  hat  sie  zugleich  die  Pflicht,  mit  den  von  ihr         Krieg  zu  kämpfen. Gegen  den  Krieg,  will  heissen,  gegen  das,  wofür alle
                         entfernt  wohnenden  Interessenten  zu  korrespondieren.  So  nützt  sie                Völker der  Erde  Millionen  und  Millionen  von  Menschen,  einigen  Dut-
                         allen,  scharlt  sich  auch  zugleich  Mitarbeiter  an  allen  Orten,  um  selbst       zenden,  manchmal  bloss  einem  Menschen  zu  krontrolloser  Verfügung
                         Informationen  einzuholen.                                                              stehen  und  nicht  nur  Milliarden  von  Rubeln,  Talern,  Francs,  Jens,  die
                           Als Ort  einer  solchen  Gründung könnte  nur  eine  Stadl  des  deutschen            einen  grossen  Teil  ihrer  nationalen  Arbeit repräsentieren, sondern  auch
                         Sprachgebiets  in  Betracht  kommen,  also  Wien  oder  Berlin.  Abgesehen              sich  selbst,  ihr  Lehen,  als  Opfer  darbringen.  Und  nun  wollen  wir,
                         von  der  zentralen  Lage  in  Europa  sprechen  dafür  noch  andere  Erwä-             einige  Dutzend  Privatmenschen,  die aus  verschiedenen  Enden  der  Erde
                         gungen.  Von  französischer und  englischer  Seite  ist auf den  .ingegebenen
                         Gebieten  schon  so  viel  Hervorragendes  geleistet  worden,  dass  man
                         füglich  diese  Gelegenheit  deutscher  Arbeit  überlassen kann.  Zudem                   (i)  Wir  veröffentlichen  diese  Rede  unter  Weglassung derjenigen Stellen,  die  aus
                         sind  Institude  verwandter  Art  in  nichldeutschen  Ländern  immerhin                 pressgesetzlichen  Gründen  nicht  wiedergebar  erseheinen  und  unter  ausdrückli-
                         vorhanden.  Dann  aber  bleibt  noch  zu  berücksichtigen, dass  die  agitato-          cher Betonung,  dass  wir  diesen  Beitrag  als  ein  interessantes,  schöner Wendungen
                                                                                                                                                 ohne
                                                                                                                                        betrachten,
                         rische  Kraft  einer  solchen  Zentrale  da  am  stärksten wirken  wird,  wo  sie       nicht entbehrendes  Dokument zeigt  zieh  in  diesem uns  mit seiner  Grundidee  irgend-
                                                                                                                    zu
                                                                                                                 wie
                                                                                                                                                              « Reformpazifist
                                                                                                                                                      Artikel
                                                                                                                                                           als
                                                                                                                                                                          »,
                                                                                                                                                                            das
                                                                                                                                 Tolstoi
                                                                                                                       identitizieren.
                         ihren  Silz  hat.  Und  wäre  das  in Berlin,  dann  täte  es  sicher  gut.             heisst,  er  kämpft gegen  Symptome,  gegen  Krieg  und  Militär. Oer moderne Friedens-
                           Ob  man  hiermit  den  Anfang  macht,  ob  man  nach  und  nach  andere               techniker  bekä  npft  in  erster  Linie  diesen  sogenannten  « Frieden  »  und  will  die
                         Zweige  der  Arbeit  dieser  Zentrale  freigibt,  muss  ich  Ihrer  Erfahrung           Erkenntnis  der  Zeitgenossen  für den  auf  natürlichem  Wege  vor  sich  gehenden
                         und  sachgemässen  Entscheidung  überlassen,                                            Organisationsprozess  der  Staaten  erwecken,  um  durch  ihre  bewusste  Mitarbeit  den
                                                                                                                           Vorgang
                                                                                                                                 zu beschleunigen
                                                                                                                 natürlichen
                                                                                                                                              helfen.
                                 au.  XL  19U9.                                                                                                                       Die  Red.






















                                                                                                                                           —  -23  -

                         zusammengekommen   sind,  die  mit  keinen  besonderen  Privilegien,  mit               vorerst  noch  die  offizielle,  hat  schon  solche  Fortschritte  gemacht,  dass
                         keinerlei  Macht  und  Gewalt  ausgerüstet  sind,  den  Kampf  aufnehmen;               eine  intergouvcrnementale  Zentralinstitution  gewiss  wertvolle  Dienste
                         und  wenn  wir  kämpfen wollen,  so  hoffen  wir  auch  zu  siegen  über diese          leisten  könnte. Die  Nalur  der  Verbältnisse  brächte  es  mit  sich,  dass  das
                         ungeheure  Macht  nicht  etwa  nur  einer,  sondern  aller  Regierungen,  die          Schwergewicht  dieses  Bureaus  sowohl  hinsichtlich  der an  ihm
                         über  Milliarden  Geldes  und  über  Armeen  von  Millionen  gebieten  und              beteiligten  Staaten  als zeiner  Tätigkeit in Europa  läge,  aber  eine
                         nur  zu  gut  wissen,  dass  die  Ausnahmsstellung,  die  sie,  das  heisst  die       spezifisch  europäische  Institution  könnte es nicht  wohl  sein,  ohne
                         Menschen,  welche  die  Regierung  darstellen,  einnehmen,  einzig  und                unnötigerweise  seinen  Wirkungskreis  zu  verengen.
                         allein  auf  dem  Militär  beruht,  auf  dem  Militär, welches  bloss dann  Sinn         Allerdings  gibt  es rein  europäische  Interessen,  nämlich  politische
                         und  Bedeutung  hat,  wenn  der  Krieg  besteht,  derselbe  Krieg,  gegen  den         und  namentlich  wirtschaftliche,  die  sich  aus  einem  mehr  oder  weniger
                         wir  kämpfen wollen  und  den  wir vernichten möchten.                                 offenen  Gegensalz  zu den  Interessen  aussereuropäischer  Staaten  und
                           Bei  ungleichen  Kräften  muss  der  Kampf  als  Tollheit  erscheinen.               Staatensysteme  ergeben.  Auch  das  pan-amerikanische  Bureau  beruht
                         Macht  man  sich  aber  die  Bedeutung  der  Mittel  zum  Kampfe  klar,  die           auf  ähnlichen  Grundlagen,  auf einer  gewissen  wirtschaftlichen
                         sich  in  den  Händen  derer  befinden,  die  wir  bekämpfen  wollen,  wie             Exklusivität Amerikas,  die  in der  hegemonischen  Stellung  der  nord-
                         auch  derjenigen,  die  in unseren  Händen  sind,  so werden  wir  nicht               amerikanischen  Grossmacht  ihren  Ursprung  und  ihren  Bückhalt  findet.
                         darüber staunen,  dass  wir  uns  zu  einem  Kampf  entschliessen,  sondern            Wenn  sich  die  europäischen  Staaten  ihrer  spezifisch  europäischen
                         darüber,  dass  dasjenige  überhaupt noch  besteht,  was  wir  bekämpfen               Solidarität bewusst  werden,  so wird  dies  weniger  der  Fall  sein  wegen
                         wollen.  In  ihren  Händen befinden  sich  Milliarden  von  Geld,  Millionen           der  Talsache  ihrer  geographischen  Nähe, ihrer  historischen  Gemeinsam-
                         williger Soldaten,  in  unseren  Händen befindet  sich  nur  ein  Mittel,  aber        keiten  oder  ihres  besonders  intensiven  Personen-  und  Warenverkehrs,
                         das allermächtigste der  Welt  —  die  Wahrheit.                                       als  wegen  der  allmählich aufdämmernden Erkenntnis  von  der  Unnatur
                                                                                                                und
                                                                                                                                                europäischen Staatensystems.
                                                                                                                                    Zuslandes
                                                                                                                                                                          Die
                                                                                                                    Gefährlichkeit des
                                                                                                                                             des
                                                                                                                Entstehung  gewaltiger  und  entwicklungsfähige  Gemeinwesen mit
                                  Das    pan-europäische      Bureau     (').                                   selbständiger  Volkswirtschaft  ausserhalb  Europas  hat  zur  Folge,  das
                                                                                                                die  auf einen  verhältnismässig  kleinen  Raum  zusammengedrängten
                              Von  Prof.  Dr. jur.  Max  Huber  (Wyden  bei  Ossinyen).                         Staatten  Europas,  die  nicht  nur  zu  den  aussereuropäischen  Mächten
                                                                                                                Interessengegensätze  haben,  sondern  namentlich  gegen  viele  ihrer
                           Der  Gedanke,  durch  eine  Zusammenfassung  und  Organisierung  der                 nächsten  Nachbarn  eine  militärische und  kommerzielle  Kampfesfront
                         geistigen  und  materiellen  Interessen  der  verschiedenen  Staaten die               haben,  sich  entweder  erschöpfen  oder  wenigstens  ihre  wirtschaftliche
                         Fortbildung  der Staatengesellscbaft  vorzubereiten,  ist sehr  richtig.               und  politische  Konkurrenzfähigkeit  verlieren.  Die  gemeinschaftlichen
                         Auch  eine  politische  dauernde  Annäherung unter  den  europäischen                  Gegensätze  Europas  zu den  aussereuropäischen  Machten  sind
                         Staaten  in dieser  oder  jener  Form  erscheint  nur  möglich, wenn  die              vorwiegend  handelspolitischer  Natur  und  werden  es  in Zukunft,  wenn
                         Solidarität der  Interessen  gegenüber den  wirklichen  und  vermeintlichen            einmal  China  industrialisiert  ist,  noch  mehr  sein.  Ein pan-europäisches
                         Gegensätzen  betont  wird  und  in einer  internationalen  Organisation                Bureau  müsste deshalb  der  Brennpunkt  einer  gesamt  europäischen
                         ihren  Ausdruck  findet.                                                               oder  kontinentalen  oder  mittel-europäischen Wirtschaftspolitik  sein.
                           Welcher  Art  solidarischer  Interessen  [soll  das pan-europäische                  Aber  in  diesem  Falle  setzte  seine  Errichtung  durch  die  Begierungen
                         Bureau  dienen:  politischen,  wirtschaftlichen  oder  kulturellen  ? Wissens-         bereits  eine  gewisse  handelspolitische  Annäherung der  Staaten  Europas
                         chaftliche,  künstlerische, humanitäre  Interessen  haben  heule  keinen               voraus.  Von  einem  solchen  Zustande  scheint  man  aber  jetzt  recht  weit
                                                                                                                                            gerade
                                                                                                                                       wird
                                                                                                                                                                     spezifisch
                                                                                                                                                      Erkenntnis
                                                                                                                                                                 der
                         spezifisch  europäischen  Gharakter.  Wenn  in  Kulturfragen  eine                     entfernt  zu  sein.  Indessen  eine  Reaktion die gegen  den  heuligen  Hoch-
                                                                                                                            Interessen
                                                                                                                europäischen
                         Diefferenzierung  besteht,  so ist es eine  solche  nach  Rassen  und
                                                                                                                                                              pan-europäisches
                                                                                                                         hervorrufen.
                         Nationen,  nicht  der  Kontinente.  Die  internatinale  Organisation  der              schulzzoll gekommen  sein Dann  dürfte  die  Zeit  für ein der  Privaten,  den
                                                                                                                                                 ist es Sache
                                                                                                                                       bis
                                                                                                                                           dahin
                                                                                                                                     ;
                                                                                                                Rureau
                         Kulturinteressen,  namentlich  die  freie,  private,  in geringerem  Masse             Durchbruch  jener  Erkenntnis  vorzubereiten.
                          C)  Siehe  « Friedens-Warte  »  1909  Heft  10  und  12,  und  1910  Heft  1.

