80
104
105
108
111
115
111
112
104
101
115
116
111
117
115
108
101
115
233
100
117
99
97
116
101
117
114
115
97
117
102
111
110
99
116
105
111
110
110
101
109
101
110
116
100
117
110
101
117
110
105
118
101
114
115
105
116
233
